Name,Sex,Event,Division,WeightClassKg,Equipment,State,Country,Best3BenchKg,Bench4Kg,Best3DeadliftKg,Deadlift4Kg,TotalKg,Place
John Stewart,M,B,Elite Open,125,Single-ply,TX,USA,,,,,,DQ
Tiny Meeker,M,B,Elite Open,140,Single-ply,TX,USA,377.5,,,,377.5,1
Robert Vick,M,B,Elite Open,140+,Single-ply,IL,USA,,,,,,DQ
Gary Bobrovitz,M,B,Open,60,Single-ply,,Canada,132.5,135,,,132.5,1
David R Smith,M,B,Open,67.5,Single-ply,TX,USA,197.5,,,,197.5,1
Alfredo Evangelista,M,B,Open,67.5,Single-ply,OR,USA,187.5,,,,187.5,2
Sheldon Weingust,M,B,Open,75,Single-ply,TX,USA,192.5,,,,192.5,1
Mark Camacho,M,B,Open,75,Single-ply,TX,USA,167.5,,,,167.5,2
Kenny Lyons,M,B,Open,75,Single-ply,ID,USA,155,,,,155,3
Dave Constantineau,M,B,Open,75,Single-ply,WI,USA,147.5,,,,147.5,4
John Petersen,M,B,Open,75,Single-ply,WI,USA,145,,,,145,5
Kim Päivöke,M,B,Open,82.5,Single-ply,,Finland,230,,,,230,1
Sakari Selkäinaho,M,B,Open,82.5,Single-ply,,Finland,212.5,,,,212.5,2
Don Linerud,M,B,Open,82.5,Single-ply,ID,USA,,,,,,DQ
Tomi Vikla,M,B,Open,82.5,Single-ply,,Finland,,,,,,DQ
James Burdette,M,B,Open,90,Single-ply,CA,USA,272.5,,,,272.5,1
Josh Decker,M,B,Open,90,Single-ply,MI,USA,247.5,,,,247.5,2
Jason Carson,M,B,Open,90,Single-ply,IL,USA,247.5,,,,247.5,3
Christopher Gillam,M,B,Open,90,Single-ply,AZ,USA,230,,,,230,4
Matthew Ogurek,M,B,Open,90,Single-ply,MI,USA,210,,,,210,5
Jeff Sussman,M,B,Open,90,Single-ply,CO,USA,207.5,,,,207.5,6
Ahmed Abukhater,M,B,Open,90,Single-ply,,Palestine,205,,,,205,7
Dan Simpson,M,B,Open,90,Single-ply,OR,USA,,,,,,DQ
Joe Valtierra,M,B,Open,90,Single-ply,TX,USA,,,,,,DQ
Butch Zemaitis,M,B,Open,90,Single-ply,PA,USA,,,,,,DQ
Trey Jewett,M,B,Open,100,Single-ply,TX,USA,320,,,,320,1
Rick Marrama,M,B,Open,100,Single-ply,MA,USA,302.5,,,,302.5,2
Jose Mireles,M,B,Open,100,Single-ply,MI,USA,292.5,,,,292.5,3
Kenneth Millrany,M,B,Open,100,Single-ply,TN,USA,287.5,,,,287.5,4
Mark Arnold,M,B,Open,100,Single-ply,GA,USA,250,,,,250,5
Ray Perez,M,B,Open,100,Single-ply,CA,USA,245,,,,245,6
Juha Pukkila,M,B,Open,100,Single-ply,,Finland,220,,,,220,7
Chris Morris #3,M,B,Open,100,Single-ply,PA,USA,195,,,,195,8
Will Beavers,M,B,Open,100,Single-ply,CA,USA,,,,,,DQ
Chad Bertelmann,M,B,Open,100,Single-ply,HI,USA,,,,,,DQ
Coby Washburn,M,B,Open,100,Single-ply,TX,USA,,,,,,DQ
James Hunter,M,B,Open,110,Single-ply,CA,USA,310,,,,310,1
Christopher Carson,M,B,Open,110,Single-ply,OH,USA,290,,,,290,2
Adrian Larsen,M,B,Open,110,Single-ply,OR,USA,287.5,,,,287.5,3
Rodric Thomas,M,B,Open,110,Single-ply,GA,USA,265,,,,265,4
Jari Rosendahl,M,B,Open,110,Single-ply,,Finland,260,,,,260,5
Todd Norman,M,B,Open,110,Single-ply,OH,USA,250,,,,250,6
Jason Perez,M,B,Open,110,Single-ply,TX,USA,237.5,,,,237.5,7
Mike Desrosiers,M,B,Open,110,Single-ply,AZ,USA,230,,,,230,8
Pradeep Tandan,M,B,Open,110,Single-ply,,India,220,,,,220,9
Carlton James Jr,M,B,Open,110,Single-ply,TX,USA,210,,,,210,10
Scott Hoekstra,M,B,Open,117.5,Single-ply,CA,USA,262.5,,,,262.5,1
Joey Murphy,M,B,Open,117.5,Single-ply,GA,USA,257.5,,,,257.5,2
Joshua Carter,M,B,Open,117.5,Single-ply,MT,USA,240,,,,240,3
Colin Keohuloa,M,B,Open,117.5,Single-ply,HI,USA,165,,,,165,4
Daniel Reeves,M,B,Open,117.5,Single-ply,AZ,USA,,,,,,DQ
Jussi Tuomainen,M,B,Open,117.5,Single-ply,,Finland,,,,,,DQ
Marc Villarreal,M,B,Open,117.5,Single-ply,TX,USA,,,,,,DQ
Bill Gillespie,M,B,Open,125,Single-ply,VA,USA,322.5,,,,322.5,1
Patrick Holloway,M,B,Open,125,Single-ply,AZ,USA,305,,,,305,2
Brandon Bankston,M,B,Open,125,Single-ply,LA,USA,287.5,,,,287.5,3
Göran Rosén,M,B,Open,125,Single-ply,,Sweden,285,,,,285,4
Jani Toivo Kristian Ihalainen,M,B,Open,125,Single-ply,,Finland,270,,,,270,5
Harjeet Kumar,M,B,Open,125,Single-ply,,India,220,,,,220,6
John Erickson,M,B,Open,125,Single-ply,OK,USA,,,,,,DQ
Forest Hofer,M,B,Open,125,Single-ply,WA,USA,,,,,,DQ
Dave Forstner,M,B,Open,140,Single-ply,MI,USA,292.5,,,,292.5,1
Frederick Alexander,M,B,Open,140,Single-ply,TX,USA,275,,,,275,2
Anthony Moye,M,B,Open,140,Single-ply,TX,USA,262.5,,,,262.5,3
Jerry Pritchett,M,B,Open,140,Single-ply,AZ,USA,235,,,,235,4
Joe Mickelson,M,B,Open,140,Single-ply,WA,USA,227.5,,,,227.5,5
Warren Orr,M,B,Open,140,Single-ply,,Canada,205,,,,205,6
Jeff Peshek,M,B,Open,140,Single-ply,OH,USA,,,,,,DQ
Jani Murtomeki,M,B,Open,140+,Single-ply,,Finland,365,,,,365,1
Scott Wesley Jordan,M,B,Open,140+,Single-ply,AZ,USA,320,,,,320,2
Jeffrey Place,M,B,Open,140+,Single-ply,OR,USA,295,,,,295,3
James Greene,M,B,Open,140+,Single-ply,MT,USA,200,,,,200,4
Chane Cline,M,B,Open,140+,Single-ply,OH,USA,,,,,,DQ
Dave O' Neill,M,B,Open,140+,Single-ply,WA,USA,,,,,,DQ
Nick Lenhart,M,B,Class 1,67.5,Single-ply,UT,USA,170,,,,170,1
Michael DeSimone,M,B,Class 1,67.5,Single-ply,NY,USA,170,,,,170,2
Eric Nahorniak,M,B,Class 1,67.5,Single-ply,WA,USA,162.5,,,,162.5,3
Ray Segura,M,B,Class 1,67.5,Single-ply,WA,USA,137.5,,,,137.5,4
Deron Agaran,M,B,Class 1,75,Single-ply,HI,USA,192.5,,,,192.5,1
Travis Miller,M,B,Class 1,75,Single-ply,WI,USA,165,,,,165,2
Jonas Anderbring,M,B,Class 1,75,Single-ply,,Sweden,155,,,,155,3
John Petersen,M,B,Class 1,75,Single-ply,WI,USA,152.5,,,,152.5,4
Fulton White,M,B,Class 1,75,Single-ply,NV,USA,147.5,,,,147.5,5
Marloe Mosley,M,B,Class 1,75,Single-ply,TX,USA,137.5,,,,137.5,6
Ben Kammueller,M,B,Class 1,75,Single-ply,WI,USA,122.5,,,,122.5,7
Brad Biroan,M,B,Class 1,75,Single-ply,HI,USA,,,,,,DQ
Brian Fisher,M,B,Class 1,82.5,Single-ply,GA,USA,205,,,,205,1
Robert Dawidowicz,M,B,Class 1,82.5,Single-ply,,Poland,197.5,,,,197.5,2
Seán Hickey,M,B,Class 1,82.5,Single-ply,WI,USA,147.5,,,,147.5,3
Charles Farmer,M,B,Class 1,90,Single-ply,MT,USA,225,,,,225,1
Fil Dena III,M,B,Class 1,90,Single-ply,NV,USA,205,,,,205,2
Ahmed Abukhater,M,B,Class 1,90,Single-ply,,Palestine,205,,,,205,3
Dennis Sugimoto,M,B,Class 1,90,Single-ply,WA,USA,205,,,,205,4
Todd Cossey,M,B,Class 1,90,Single-ply,HI,USA,200,,,,200,5
Eric Dowd,M,B,Class 1,90,Single-ply,WA,USA,190,,,,190,6
Arthur Nuss,M,B,Class 1,90,Single-ply,KS,USA,182.5,,,,182.5,7
Rolando Espinoza,M,B,Class 1,90,Single-ply,TX,USA,165,,,,165,8
Chris Bos,M,B,Class 1,90,Single-ply,MI,USA,160,,,,160,9
Doug Amburgey,M,B,Class 1,90,Single-ply,OH,USA,112.5,,,,112.5,10
Bob Hill,M,B,Class 1,90,Single-ply,OR,USA,,,,,,DQ
Dan Simpson,M,B,Class 1,90,Single-ply,OR,USA,,,,,,DQ
Joe Valtierra,M,B,Class 1,90,Single-ply,TX,USA,,,,,,DQ
Joseph Adams,M,B,Class 1,100,Single-ply,UT,USA,227.5,,,,227.5,1
Mike Bazinet,M,B,Class 1,100,Single-ply,ME,USA,227.5,,,,227.5,2
David Bradshaw,M,B,Class 1,100,Single-ply,CA,USA,215,,,,215,3
Paul Scheiffele,M,B,Class 1,100,Single-ply,AZ,USA,212.5,,,,212.5,4
Hunter Beall,M,B,Class 1,100,Single-ply,LA,USA,197.5,,,,197.5,5
Steven Petersen,M,B,Class 1,100,Single-ply,TX,USA,192.5,,,,192.5,6
Ted Kennedy,M,B,Class 1,110,Single-ply,GA,USA,247.5,,,,247.5,1
Jeff Alvari,M,B,Class 1,110,Single-ply,UT,USA,242.5,,,,242.5,2
Leonard Pokora,M,B,Class 1,110,Single-ply,MI,USA,217.5,,,,217.5,3
Brent Nikolaus,M,B,Class 1,110,Single-ply,WA,USA,192.5,,,,192.5,4
Matt Guernsey,M,B,Class 1,110,Single-ply,ME,USA,182.5,,,,182.5,5
Nick Galletta,M,B,Class 1,117.5,Single-ply,CA,USA,252.5,,,,252.5,1
Marc Villarreal,M,B,Class 1,117.5,Single-ply,TX,USA,250,,,,250,2
Jesse Garza,M,B,Class 1,117.5,Single-ply,MI,USA,202.5,,,,202.5,3
Colin Keohuloa,M,B,Class 1,117.5,Single-ply,HI,USA,165,,,,165,4
Gene Loss,M,B,Class 1,117.5,Single-ply,OR,USA,,,,,,DQ
John Rowland,M,B,Class 1,125,Single-ply,GA,USA,260,,,,260,1
Brian Vickers,M,B,Class 1,125,Single-ply,TX,USA,207.5,,,,207.5,2
Robert Speno,M,B,Class 1,140,Single-ply,CA,USA,240,,,,240,1
Corey Reuben,M,B,Class 1,140,Single-ply,MN,USA,217.5,,,,217.5,2
Jake Kaio,M,B,Class 1,140,Single-ply,HI,USA,185,,,,185,3
Rich Lopez,M,B,Class 1,140+,Single-ply,CA,USA,272.5,,,,272.5,1
Greg Guernsey,M,B,Class 1,140+,Single-ply,ME,USA,245,,,,245,2
Garrett Guernsey,M,B,Class 1,140+,Single-ply,ME,USA,215,,,,215,3
Clay Tawzer,M,B,Class 1,140+,Single-ply,CA,USA,195,,,,195,4
Leo Contreras,M,B,Class 1,140+,Single-ply,CA,USA,182.5,,,,182.5,5
Keith Sayles,M,B,Class 1,140+,Single-ply,TX,USA,145,,,,145,6
Vilmar Oliveira,M,B,Disabled,82.5,Single-ply,,Brazil,140,,,,140,1
Steve Baker,M,B,Disabled,82.5,Single-ply,,Canada,62.5,,,,62.5,2
Reid Solar,M,B,Disabled,90,Single-ply,AZ,USA,165,,,,165,1
Mike Bonifield,M,B,Disabled,117.5,Single-ply,CA,USA,,,,,,DQ
Phillip Turner,M,B,Special Olympian,82.5,Single-ply,TX,USA,82.5,,,,82.5,1
Brian Steinmetz,M,B,Special Olympian,82.5,Single-ply,WA,USA,62.5,,,,62.5,2
Brady Tanner,M,B,Special Olympian,110,Single-ply,KS,USA,185,,,,185,1
Joshua Ross,M,B,Special Olympian,110,Single-ply,TX,USA,105,,,,105,2
Chace Akina,M,B,Teen 12-13,52,Single-ply,HI,USA,67.5,67.5,,,67.5,1
Dustin Pfeiffer,M,B,Teen 12-13,82.5,Single-ply,OH,USA,70,,,,70,1
Dylan Sites,M,B,Teen 14-15,56,Single-ply,OR,USA,80,,,,80,1
Jared Hockaday,M,B,Teen 14-15,75,Single-ply,MT,USA,110,,,,110,1
Hunter Pooser,M,B,Teen 14-15,110,Single-ply,AL,USA,140,,,,140,1
Ryan Reppond,M,B,Teen 16-17,60,Single-ply,CA,USA,85,,,,85,1
Donovan Turner,M,B,Teen 16-17,67.5,Single-ply,CA,USA,100,,,,100,1
Andrew McDonald,M,B,Teen 16-17,67.5,Single-ply,WA,USA,72.5,,,,72.5,2
Bradley Bennett,M,B,Teen 16-17,75,Single-ply,OH,USA,132.5,,,,132.5,1
Robert Williams,M,B,Teen 16-17,75,Single-ply,CA,USA,87.5,,,,87.5,2
Casey Rosario,M,B,Teen 16-17,82.5,Single-ply,HI,USA,165,,,,165,1
Judd Sato III,M,B,Teen 16-17,82.5,Single-ply,HI,USA,165,,,,165,2
Jake Garbush,M,B,Teen 16-17,90,Single-ply,WA,USA,155,,,,155,1
Chad Gaytan,M,B,Teen 16-17,90,Single-ply,CA,USA,92.5,,,,92.5,2
Miles Scott,M,B,Teen 16-17,100,Single-ply,TX,USA,192.5,,,,192.5,1
Amritpal Saran,M,B,Teen 16-17,100,Single-ply,CA,USA,177.5,,,,177.5,2
Kekoa Biroan,M,B,Teen 16-17,100,Single-ply,HI,USA,155,,,,155,3
Billy Henry,M,B,Teen 16-17,110,Single-ply,WA,USA,95,,,,95,1
Caleb O' Donald,M,B,Teen 16-17,117.5,Single-ply,ME,USA,170,175,,,170,1
Tohora Harawira,M,B,Teen 16-17,140+,Single-ply,,New Zealand,145,,,,145,1
Dustin Hanson,M,B,Teen 18-19,60,Single-ply,MT,USA,160,,,,160,1
Miguel Jaurigui,M,B,Teen 18-19,60,Single-ply,TX,USA,102.5,,,,102.5,2
Logan Anglewicz,M,B,Teen 18-19,60,Single-ply,OH,USA,40,,,,40,3
Travis Miller,M,B,Teen 18-19,75,Single-ply,WI,USA,160,,,,160,1
Justin Clay,M,B,Teen 18-19,75,Single-ply,MI,USA,127.5,,,,127.5,2
Donnie Miskinis,M,B,Teen 18-19,75,Single-ply,OH,USA,105,,,,105,3
Scott Johnson,M,B,Teen 18-19,75,Single-ply,CA,USA,97.5,,,,97.5,4
A. J. Mangum,M,B,Teen 18-19,82.5,Single-ply,TX,USA,115,,,,115,1
Nick Wilks,M,B,Teen 18-19,82.5,Single-ply,WA,USA,55,,,,55,2
Ricardo Contreras Jr,M,B,Teen 18-19,82.5,Single-ply,TX,USA,,,,,,DQ
Bobby Whiting,M,B,Teen 18-19,82.5,Single-ply,NY,USA,,,,,,DQ
Arthur Nuss,M,B,Teen 18-19,90,Single-ply,KS,USA,182.5,,,,182.5,1
Raymond Garcia,M,B,Teen 18-19,90,Single-ply,CA,USA,120,,,,120,2
Hunter Beall,M,B,Teen 18-19,100,Single-ply,LA,USA,197.5,,,,197.5,1
Matthew Ommen,M,B,Teen 18-19,100,Single-ply,AZ,USA,,,,,,DQ
Darrin Dunham,M,B,Teen 18-19,110,Single-ply,OR,USA,227.5,,,,227.5,1
Frank Ginez III,M,B,Teen 18-19,140+,Single-ply,TX,USA,237.5,252.5,,,237.5,1
Scott Galeck,M,B,Juniors 20-25,56,Single-ply,CA,USA,92.5,,,,92.5,1
Casey Bochonowicz,M,B,Juniors 20-25,60,Single-ply,OH,USA,82.5,,,,82.5,1
Nick Lenhart,M,B,Juniors 20-25,67.5,Single-ply,UT,USA,170,,,,170,1
Michael DeSimone,M,B,Juniors 20-25,67.5,Single-ply,NY,USA,170,,,,170,2
Ray Segura,M,B,Juniors 20-25,67.5,Single-ply,WA,USA,137.5,,,,137.5,3
Jed Hussein,M,B,Juniors 20-25,75,Single-ply,TX,USA,182.5,,,,182.5,1
Mark Camacho,M,B,Juniors 20-25,75,Single-ply,TX,USA,167.5,,,,167.5,2
Michael Mayhall,M,B,Juniors 20-25,75,Single-ply,AL,USA,165,,,,165,3
Joshua Gonnering,M,B,Juniors 20-25,82.5,Single-ply,AL,USA,142.5,,,,142.5,1
Sam Harder,M,B,Juniors 20-25,82.5,Single-ply,OR,USA,125,,,,125,2
Eric Dowd,M,B,Juniors 20-25,90,Single-ply,WA,USA,190,,,,190,1
Shane Oakley,M,B,Juniors 20-25,90,Single-ply,CO,USA,140,,,,140,2
Rob Midson,M,B,Juniors 20-25,90,Single-ply,CA,USA,132.5,,,,132.5,3
Trey Jewett,M,B,Juniors 20-25,100,Single-ply,TX,USA,320,,,,320,1
Weston Zunker,M,B,Juniors 20-25,100,Single-ply,TX,USA,217.5,,,,217.5,2
Gabriel Perkins,M,B,Juniors 20-25,100,Single-ply,TX,USA,197.5,,,,197.5,3
Kyle Herzik,M,B,Juniors 20-25,100,Single-ply,NV,USA,160,,,,160,4
Adam Contreras #1,M,B,Juniors 20-25,100,Single-ply,CA,USA,147.5,,,,147.5,5
David Barth,M,B,Juniors 20-25,100,Single-ply,PA,USA,,,,,,DQ
Jason Perez,M,B,Juniors 20-25,110,Single-ply,TX,USA,237.5,,,,237.5,1
Ben Smith #10,M,B,Juniors 20-25,110,Single-ply,ME,USA,185,,,,185,2
Chris Stimac,M,B,Juniors 20-25,110,Single-ply,OR,USA,,,,,,DQ
Ben Foreman,M,B,Juniors 20-25,117.5,Single-ply,,Canada,142.5,,,,142.5,1
Fred Riccardi,M,B,Juniors 20-25,117.5,Single-ply,NY,USA,67.5,,,,67.5,2
Daniel Reeves,M,B,Juniors 20-25,117.5,Single-ply,AZ,USA,,,,,,DQ
Chris Owens,M,B,Juniors 20-25,125,Single-ply,TX,USA,257.5,,,,257.5,1
Brendan Luedtke,M,B,Juniors 20-25,125,Single-ply,NV,USA,217.5,,,,217.5,2
Anthony Moye,M,B,Juniors 20-25,140,Single-ply,TX,USA,262.5,,,,262.5,1
Clay Tawzer,M,B,Juniors 20-25,140+,Single-ply,CA,USA,195,,,,195,1
David R Smith,M,B,Submasters 33-39,67.5,Single-ply,TX,USA,197.5,,,,197.5,1
Kim Päivöke,M,B,Submasters 33-39,82.5,Single-ply,,Finland,230,,,,230,1
Tomi Vikla,M,B,Submasters 33-39,82.5,Single-ply,,Finland,230,,,,230,2
Robert Dawidowicz,M,B,Submasters 33-39,82.5,Single-ply,,Poland,197.5,,,,197.5,3
Brian Fisher,M,B,Submasters 33-39,82.5,Single-ply,GA,USA,190,,,,190,4
Jason Carson,M,B,Submasters 33-39,90,Single-ply,IL,USA,247.5,,,,247.5,1
Charles Farmer,M,B,Submasters 33-39,90,Single-ply,MT,USA,225,,,,225,2
Matthew Ogurek,M,B,Submasters 33-39,90,Single-ply,MI,USA,210,,,,210,3
Thomas Ponzio,M,B,Submasters 33-39,90,Single-ply,UT,USA,205,,,,205,4
Mark Arnold,M,B,Submasters 33-39,100,Single-ply,GA,USA,250,,,,250,1
Coby Washburn,M,B,Submasters 33-39,100,Single-ply,TX,USA,240,,,,240,2
John DeLuca,M,B,Submasters 33-39,100,Single-ply,CA,USA,215,,,,215,3
Brian Fahrenfeld,M,B,Submasters 33-39,100,Single-ply,NY,USA,155,,,,155,4
Joseph Gerald Pablo,M,B,Submasters 33-39,100,Single-ply,MT,USA,155,,,,155,5
Ed Barnes,M,B,Submasters 33-39,110,Single-ply,CA,USA,260,,,,260,1
Todd Norman,M,B,Submasters 33-39,110,Single-ply,OH,USA,250,,,,250,2
Mike Desrosiers,M,B,Submasters 33-39,110,Single-ply,AZ,USA,222.5,,,,222.5,3
Peter Tumminello,M,B,Submasters 33-39,110,Single-ply,CA,USA,182.5,,,,182.5,4
Ike Pablo,M,B,Submasters 33-39,110,Single-ply,MT,USA,145,,,,145,5
Rodric Thomas,M,B,Submasters 33-39,110,Single-ply,GA,USA,,,,,,DQ
Joey Murphy,M,B,Submasters 33-39,117.5,Single-ply,GA,USA,185,,,,185,1
Sam Aumavae,M,B,Submasters 33-39,125,Single-ply,OR,USA,327.5,332.5,,,327.5,1
David Lewis,M,B,Submasters 33-39,125,Single-ply,IL,USA,320,,,,320,2
Brandon Bankston,M,B,Submasters 33-39,125,Single-ply,LA,USA,287.5,,,,287.5,3
John Rowland,M,B,Submasters 33-39,125,Single-ply,GA,USA,255,,,,255,4
Eric Poitevien,M,B,Submasters 33-39,125,Single-ply,NY,USA,147.5,,,,147.5,5
Dave Forstner,M,B,Submasters 33-39,140,Single-ply,MI,USA,292.5,,,,292.5,1
Guy Powell,M,B,Submasters 33-39,140,Single-ply,WI,USA,242.5,,,,242.5,2
Robert Speno,M,B,Submasters 33-39,140,Single-ply,CA,USA,240,,,,240,3
Corey Reuben,M,B,Submasters 33-39,140,Single-ply,MN,USA,207.5,,,,207.5,4
Jake Kaio,M,B,Submasters 33-39,140,Single-ply,HI,USA,,,,,,DQ
Scott Wesley Jordan,M,B,Submasters 33-39,140+,Single-ply,AZ,USA,320,,,,320,1
Aaron Wolfe,M,B,Submasters 33-39,140+,Single-ply,HI,USA,255,,,,255,2
Garrett Guernsey,M,B,Submasters 33-39,140+,Single-ply,ME,USA,215,,,,215,3
George Nabeshima,M,B,Masters 40-46,67.5,Single-ply,HI,USA,137.5,,,,137.5,1
Tim Aldag,M,B,Masters 40-46,67.5,Single-ply,WI,USA,130,,,,130,2
Deron Agaran,M,B,Masters 40-46,75,Single-ply,HI,USA,192.5,,,,192.5,1
Rick King,M,B,Masters 40-46,75,Single-ply,OR,USA,172.5,,,,172.5,2
Kenny Lyons,M,B,Masters 40-46,75,Single-ply,ID,USA,155,,,,155,3
Robert Sunshine,M,B,Masters 40-46,75,Single-ply,NY,USA,132.5,,,,132.5,4
Keith Cunningham,M,B,Masters 40-46,75,Single-ply,WA,USA,127.5,,,,127.5,5
Keith Daniels,M,B,Masters 40-46,82.5,Single-ply,HI,USA,230,,,,230,1
Sakari Selkäinaho,M,B,Masters 40-46,82.5,Single-ply,,Finland,212.5,,,,212.5,2
Darren Carr,M,B,Masters 40-46,82.5,Single-ply,UT,USA,205,,,,205,3
Jeff Woods,M,B,Masters 40-46,82.5,Single-ply,OH,USA,205,,,,205,4
Warren Fahrenfeld,M,B,Masters 40-46,82.5,Single-ply,NJ,USA,115,,,,115,5
Dennis Sugimoto,M,B,Masters 40-46,90,Single-ply,WA,USA,205,,,,205,1
Todd Cossey,M,B,Masters 40-46,90,Single-ply,HI,USA,200,,,,200,2
Rolando Espinoza,M,B,Masters 40-46,90,Single-ply,TX,USA,165,,,,165,3
Butch Zemaitis,M,B,Masters 40-46,90,Single-ply,PA,USA,,,,,,DQ
Kenneth Millrany,M,B,Masters 40-46,100,Single-ply,TN,USA,287.5,,,,287.5,1
Bryon Brubaker,M,B,Masters 40-46,100,Single-ply,CA,USA,257.5,,,,257.5,2
Mike Bazinet,M,B,Masters 40-46,100,Single-ply,ME,USA,227.5,,,,227.5,3
Juha Pukkila,M,B,Masters 40-46,100,Single-ply,,Finland,220,,,,220,4
Mike DeGennaro,M,B,Masters 40-46,100,Single-ply,NV,USA,195,,,,195,5
Steven Petersen,M,B,Masters 40-46,100,Single-ply,TX,USA,192.5,,,,192.5,6
David Fischer,M,B,Masters 40-46,110,Single-ply,GA,USA,272.5,,,,272.5,1
Dennis Lowry,M,B,Masters 40-46,110,Single-ply,CA,USA,255,,,,255,2
John Bowers,M,B,Masters 40-46,110,Single-ply,WA,USA,250,,,,250,3
Jeff Alvari,M,B,Masters 40-46,110,Single-ply,UT,USA,242.5,,,,242.5,4
Chris Russo,M,B,Masters 40-46,110,Single-ply,NJ,USA,212.5,,,,212.5,5
Donnie Hamblin,M,B,Masters 40-46,110,Single-ply,AZ,USA,202.5,,,,202.5,6
Matt Guernsey,M,B,Masters 40-46,110,Single-ply,ME,USA,182.5,,,,182.5,7
Frank Wakakuwa,M,B,Masters 40-46,110,Single-ply,HI,USA,,,,,,DQ
Patrick Parnell,M,B,Masters 40-46,117.5,Single-ply,TX,USA,320,,,,320,1
Scott Hoekstra,M,B,Masters 40-46,117.5,Single-ply,CA,USA,262.5,,,,262.5,2
Tajinder Singh,M,B,Masters 40-46,117.5,Single-ply,,India,170,,,,170,3
Eric Doublin,M,B,Masters 40-46,125,Single-ply,TX,USA,307.5,,,,307.5,1
Patrick Holloway,M,B,Masters 40-46,125,Single-ply,AZ,USA,305,,,,305,2
Robert Lincoln,M,B,Masters 40-46,125,Single-ply,CA,USA,305,,,,305,3
Gary Gulseth,M,B,Masters 40-46,125,Single-ply,WI,USA,272.5,,,,272.5,4
Göran Rosén,M,B,Masters 40-46,125,Single-ply,,Sweden,270,,,,270,5
Eddie Stockbridge,M,B,Masters 40-46,125,Single-ply,CA,USA,267.5,,,,267.5,6
Boyd Hurley,M,B,Masters 40-46,125,Single-ply,HI,USA,215,,,,215,7
Joe Garcia,M,B,Masters 40-46,125,Single-ply,OR,USA,182.5,,,,182.5,8
Jason Laskowski,M,B,Masters 40-46,125,Single-ply,TX,USA,,,,,,DQ
John Hudson,M,B,Masters 40-46,140,Single-ply,TX,USA,317.5,,,,317.5,1
Warren Orr,M,B,Masters 40-46,140,Single-ply,,Canada,205,,,,205,2
Jeff Peshek,M,B,Masters 40-46,140,Single-ply,OH,USA,,,,,,DQ
Ken Overbey,M,B,Masters 40-46,140+,Single-ply,AL,USA,320,,,,320,1
Jeffrey Place,M,B,Masters 40-46,140+,Single-ply,OR,USA,295,,,,295,2
Greg Guernsey,M,B,Masters 40-46,140+,Single-ply,ME,USA,245,,,,245,3
Steve Mata,M,B,Masters 40-46,140+,Single-ply,TX,USA,232.5,,,,232.5,4
Thomas McKinney #1,M,B,Masters 40-46,140+,Single-ply,TX,USA,,,,,,DQ
Dave Aldag,M,B,Masters 47-53,67.5,Single-ply,WI,USA,,,,,,DQ
Fulton White,M,B,Masters 47-53,75,Single-ply,NV,USA,147.5,,,,147.5,3
Dave Constantineau,M,B,Masters 47-53,75,Single-ply,WI,USA,147.5,,,,147.5,4
Marloe Mosley,M,B,Masters 47-53,75,Single-ply,TX,USA,137.5,,,,137.5,5
Sheldon Weingust,M,B,Masters 47-53,75,Single-ply,TX,USA,,,,,,DQ
Mark Lo,M,B,Masters 47-53,82.5,Single-ply,HI,USA,182.5,,,,182.5,1
Paul Janoff,M,B,Masters 47-53,82.5,Single-ply,CA,USA,167.5,,,,167.5,3
Leamon Woodley,M,B,Masters 47-53,82.5,Single-ply,WA,USA,165,,,,165,5
David Brekke,M,B,Masters 47-53,82.5,Single-ply,CA,USA,135,,,,135,8
Dale Smith #2,M,B,Masters 47-53,82.5,Single-ply,WI,USA,90,,,,90,10
Mike Berteaux,M,B,Masters 47-53,90,Single-ply,CO,USA,215,,,,215,1
Fil Dena III,M,B,Masters 47-53,90,Single-ply,NV,USA,205,,,,205,2
William Stirling,M,B,Masters 47-53,90,Single-ply,,Canada,167.5,175,,,167.5,4
Reid Solar,M,B,Masters 47-53,90,Single-ply,AZ,USA,165,,,,165,6
Rocky Mc Cullough,M,B,Masters 47-53,90,Single-ply,TX,USA,160,,,,160,7
Darrell Horn,M,B,Masters 47-53,90,Single-ply,MI,USA,155,,,,155,8
Tim Epting,M,B,Masters 47-53,90,Single-ply,TX,USA,110,,,,110,10
Alvin Yearby,M,B,Masters 47-53,100,Single-ply,FL,USA,260,,,,260,1
Terry Baldwin #2,M,B,Masters 47-53,100,Single-ply,MT,USA,232.5,,,,232.5,2
Robert Harris,M,B,Masters 47-53,100,Single-ply,NV,USA,210,,,,210,3
Steven Hardesty,M,B,Masters 47-53,100,Single-ply,CO,USA,162.5,,,,162.5,6
Jim Curley,M,B,Masters 47-53,100,Single-ply,CO,USA,,,,,,DQ
Ed Macauley,M,B,Masters 47-53,110,Single-ply,OR,USA,245,,,,245,1
Don Rygh,M,B,Masters 47-53,110,Single-ply,MN,USA,242.5,,,,242.5,2
Samuel Schultz,M,B,Masters 47-53,110,Single-ply,OR,USA,212.5,,,,212.5,4
Gary Stevens,M,B,Masters 47-53,110,Single-ply,WY,USA,195,,,,195,5
Mark Stanford,M,B,Masters 47-53,117.5,Single-ply,AZ,USA,250,,,,250,1
Ron L'Huillier,M,B,Masters 47-53,117.5,Single-ply,MI,USA,227.5,,,,227.5,3
Rob Carbo,M,B,Masters 47-53,117.5,Single-ply,CA,USA,227.5,,,,227.5,4
Phillip Arroyo,M,B,Masters 47-53,117.5,Single-ply,WA,USA,205,,,,205,5
Rich Ludlam,M,B,Masters 47-53,117.5,Single-ply,CA,USA,,,,,,DQ
Bill Gillespie,M,B,Masters 47-53,125,Single-ply,VA,USA,322.5,,,,322.5,1
Forest Hofer,M,B,Masters 47-53,125,Single-ply,WA,USA,,,,,,DQ
Richard Lukland,M,B,Masters 47-53,140,Single-ply,OH,USA,242.5,,,,242.5,2
Joe Mickelson,M,B,Masters 47-53,140,Single-ply,WA,USA,227.5,,,,227.5,3
Wayne Kaaloa,M,B,Masters 47-53,140,Single-ply,HI,USA,207.5,,,,207.5,4
Blair Fisher,M,B,Masters 47-53,140,Single-ply,,Canada,160,,,,160,5
Roger Ryan,M,B,Masters 47-53,140,Single-ply,IL,USA,,,,,,DQ
James Mersberg,M,B,Masters 47-53,140+,Single-ply,HI,USA,277.5,,,,277.5,1
Gary Gertner,M,B,Masters 47-53,140+,Single-ply,CO,USA,262.5,,,,262.5,2
Keith Sayles,M,B,Masters 47-53,140+,Single-ply,TX,USA,145,,,,145,4
Dennis Schultz,M,B,Masters 47-53,140+,Single-ply,CA,USA,,,,,,DQ
Frank Principati,M,B,Masters 47-53,56,Single-ply,PA,USA,50,,,,50,1
Gary Bobrovitz,M,B,Masters 47-53,60,Single-ply,,Canada,132.5,135,,,132.5,1
Alfredo Evangelista,M,B,Masters 47-53,67.5,Single-ply,OR,USA,187.5,,,,187.5,1
Gary Miller #2,M,B,Masters 47-53,67.5,Single-ply,NV,USA,152.5,157.5,,,152.5,2
Al Nebo,M,B,Masters 47-53,75,Single-ply,CA,USA,165,,,,165,1
Perry Plush,M,B,Masters 47-53,75,Single-ply,WA,USA,150,,,,150,2
Ashok Sharma,M,B,Masters 47-53,75,Single-ply,,India,115,,,,115,6
Jody Fjelstad,M,B,Masters 47-53,82.5,Single-ply,MN,USA,170,,,,170,2
Tom Gonnering,M,B,Masters 47-53,82.5,Single-ply,AL,USA,165,,,,165,4
Gene King,M,B,Masters 47-53,82.5,Single-ply,OR,USA,157.5,,,,157.5,6
Eric Ansberry,M,B,Masters 47-53,82.5,Single-ply,CA,USA,140,,,,140,7
Flavio Da Costa Baptista,M,B,Masters 47-53,82.5,Single-ply,,Brazil,100,,,,100,9
Brian Kline,M,B,Masters 47-53,90,Single-ply,TX,USA,175,,,,175,3
Rudy Kadlub,M,B,Masters 47-53,90,Single-ply,OR,USA,167.5,,,,167.5,5
Joe Pablo,M,B,Masters 47-53,90,Single-ply,MT,USA,142.5,,,,142.5,9
Kenneth Kirk,M,B,Masters 47-53,90,Single-ply,CA,USA,100,,,,100,11
Ron Jones,M,B,Masters 47-53,90,Single-ply,AL,USA,,,,,,DQ
John Phillips,M,B,Masters 47-53,100,Single-ply,OH,USA,170,,,,170,4
Jon Wolbers,M,B,Masters 47-53,100,Single-ply,,Canada,165,,,,165,5
Leonard Pokora,M,B,Masters 47-53,110,Single-ply,MI,USA,215,,,,215,3
Ken Tawzer,M,B,Masters 47-53,110,Single-ply,CA,USA,182.5,,,,182.5,6
David Wolf,M,B,Masters 47-53,110,Single-ply,WY,USA,165,,,,165,7
Thomas Wright,M,B,Masters 47-53,110,Single-ply,KS,USA,110,,,,110,8
Willard Crossen Jr,M,B,Masters 54-60,117.5,Single-ply,WA,USA,250,,,,250,2
Gilbert Anderson,M,B,Masters 47-53,117.5,Single-ply,UT,USA,200,,,,200,6
Jim Graham,M,B,Masters 47-53,117.5,Single-ply,CA,USA,160,,,,160,7
Sam Pecktol,M,B,Masters 47-53,125,Single-ply,OR,USA,197.5,,,,197.5,2
Bruce Sabin,M,B,Masters 47-53,140,Single-ply,CA,USA,250,,,,250,1
Jeff Fahrenbruch,M,B,Masters 47-53,140,Single-ply,AZ,USA,,,,,,DQ
Leo Contreras,M,B,Masters 47-53,140+,Single-ply,CA,USA,182.5,,,,182.5,3
Bryan Yager,M,B,Masters 61-67,60,Single-ply,CA,USA,115,,,,115,1
Lee Lichtle,M,B,Masters 61-67,75,Single-ply,FL,USA,142.5,,,,142.5,1
Stefan Lemire,M,B,Masters 61-67,75,Single-ply,UT,USA,127.5,,,,127.5,2
Moses Timbal,M,B,Masters 61-67,75,Single-ply,HI,USA,110,,,,110,3
Michael Minietta,M,B,Masters 61-67,82.5,Single-ply,NV,USA,152.5,,,,152.5,1
Gary Witzel,M,B,Masters 61-67,82.5,Single-ply,WA,USA,115,,,,115,2
Arnold Pereza,M,B,Masters 61-67,82.5,Single-ply,HI,USA,107.5,,,,107.5,3
Dan Swift,M,B,Masters 61-67,90,Single-ply,IL,USA,210,,,,210,1
Alfred Franke,M,B,Masters 61-67,90,Single-ply,NV,USA,145,,,,145,2
James Rouse,M,B,Masters 61-67,90,Single-ply,IL,USA,145,,,,145,3
Bob Hill,M,B,Masters 61-67,90,Single-ply,OR,USA,,,,,,DQ
Vincent Breaux,M,B,Masters 61-67,100,Single-ply,LA,USA,215,222.5,,,215,1
Robert Urrea,M,B,Masters 61-67,100,Single-ply,CA,USA,142.5,,,,142.5,2
Antonio Suhuba-Baruti,M,B,Masters 61-67,100,Single-ply,MI,USA,142.5,,,,142.5,3
Bob Evans #1,M,B,Masters 61-67,110,Single-ply,CA,USA,197.5,,,,197.5,1
Daniel Smith III,M,B,Masters 61-67,110,Single-ply,CA,USA,187.5,,,,187.5,2
Howard Garris,M,B,Masters 61-67,110,Single-ply,CA,USA,140,,,,140,3
Robert Lincoln,M,B,Masters 61-67,117.5,Single-ply,CA,USA,220,,,,220,1
Ron Hood,M,B,Masters 61-67,125,Single-ply,OK,USA,230,,,,230,1
Ed Acey,M,B,Masters 61-67,125,Single-ply,UT,USA,,,,,,DQ
Robert O. Smith,M,B,Masters 61-67,140,Single-ply,,Canada,245,,,,245,1
Doug Knapp,M,B,Masters 61-67,140,Single-ply,CA,USA,180,,,,180,2
Joe McDermott,M,B,Masters 68-74,75,Single-ply,FL,USA,142.5,,,,142.5,1
Ron Goodman,M,B,Masters 68-74,75,Single-ply,CA,USA,105,,,,105,2
Arlindo da Silva,M,B,Masters 68-74,75,Single-ply,,Brazil,87.5,,,,87.5,3
Rudy Lozano,M,B,Masters 68-74,82.5,Single-ply,CA,USA,160,165,,,160,1
Dan Martin,M,B,Masters 68-74,82.5,Single-ply,NV,USA,140,,,,140,2
Charles Vause,M,B,Masters 68-74,82.5,Single-ply,HI,USA,97.5,,,,97.5,3
Larry Joiner,M,B,Masters 68-74,82.5,Single-ply,CA,USA,85,,,,85,4
William Prince,M,B,Masters 68-74,90,Single-ply,NV,USA,137.5,,,,137.5,1
Tom O'Keefe,M,B,Masters 68-74,90,Single-ply,CO,USA,105,,,,105,2
Jerry Gladson,M,B,Masters 68-74,90,Single-ply,WA,USA,,,,,,DQ
Harold Smith,M,B,Masters 68-74,100,Single-ply,MT,USA,162.5,,,,162.5,1
Roger Kunz,M,B,Masters 68-74,100,Single-ply,CA,USA,127.5,,,,127.5,2
John Herbein,M,B,Masters 68-74,100,Single-ply,PA,USA,122.5,,,,122.5,3
Larry Sandberg,M,B,Masters 68-74,117.5,Single-ply,WA,USA,197.5,,,,197.5,1
Bob Kehl,M,B,Masters 68-74,125,Single-ply,CA,USA,220,,,,220,1
Robert Cortes,M,B,Masters 75-79,75,Single-ply,CA,USA,105,,,,105,1
Leo Honkala,M,B,Masters 75-79,75,Single-ply,,Sweden,50,,,,50,2
Richard Simon,M,B,Masters 75-79,82.5,Single-ply,CA,USA,112.5,,,,112.5,1
Nixon Munly,M,B,Masters 75-79,82.5,Single-ply,OR,USA,82.5,,,,82.5,2
Nick Di Liddo,M,B,Masters 75-79,90,Single-ply,CA,USA,122.5,,,,122.5,1
Russell Combest,M,B,Masters 75-79,100,Single-ply,OH,USA,125,,,,125,1
Robert Fornachon,M,B,Masters 80-84,67.5,Single-ply,CA,USA,87.5,,,,87.5,1
Arthur Whinston,M,B,Masters 80-84,67.5,Single-ply,OR,USA,40,,,,40,2
Jack Ford,M,B,Masters 80-84,75,Single-ply,AZ,USA,70,,,,70,1
Willard Crossen III,M,B,Law-Fire Open,75,Single-ply,WA,USA,197.5,,,,197.5,1
Rob Hawkes,M,B,Law-Fire Open,82.5,Single-ply,AZ,USA,162.5,,,,162.5,1
Devin Tallerico,M,B,Law-Fire Open,110,Single-ply,CA,USA,180,,,,180,1
Jeffrey Begue,M,B,Law-Fire Open,117.5,Single-ply,OH,USA,277.5,,,,277.5,1
Brian Vickers,M,B,Law-Fire Open,125,Single-ply,TX,USA,207.5,,,,207.5,1
Marcus Austin,M,B,Law-Fire Open,140,Single-ply,OK,USA,230,,,,230,1
Wayne Watts,M,B,Law-Fire Open,140+,Single-ply,GA,USA,325,,,,325,1
Chane Cline,M,B,Law-Fire Open,140+,Single-ply,OH,USA,,,,,,DQ
Alfred Jackson,M,B,Law-Fire Submasters,82.5,Single-ply,WA,USA,192.5,,,,192.5,1
John DeLuca,M,B,Law-Fire Submasters,100,Single-ply,CA,USA,227.5,,,,227.5,1
Barran Stone,M,B,Law-Fire Submasters,100,Single-ply,TX,USA,162.5,,,,162.5,2
Devin Tallerico,M,B,Law-Fire Submasters,110,Single-ply,CA,USA,180,,,,180,1
Jeffrey Begue,M,B,Law-Fire Submasters,117.5,Single-ply,OH,USA,277.5,,,,277.5,1
Marcus Austin,M,B,Law-Fire Submasters,140,Single-ply,OK,USA,230,,,,230,1
Keoni Reich,M,B,Law-Fire Submasters,140+,Single-ply,HI,USA,250,,,,250,1
Aaron Wolfe,M,B,Law-Fire Submasters,140+,Single-ply,HI,USA,227.5,,,,227.5,2
Darren Carr,M,B,Law-Fire 40-47,82.5,Single-ply,UT,USA,205,,,,205,1
Steven Hardesty,M,B,Law-Fire 40-47,100,Single-ply,CO,USA,162.5,,,,162.5,1
Frank Wakakuwa,M,B,Law-Fire 40-47,110,Single-ply,HI,USA,272.5,,,,272.5,1
Dennis Lowry,M,B,Law-Fire 40-47,110,Single-ply,CA,USA,255,,,,255,2
David Fischer,M,B,Law-Fire 40-47,110,Single-ply,GA,USA,250,,,,250,3
Chris Russo,M,B,Law-Fire 40-47,110,Single-ply,NJ,USA,212.5,,,,212.5,4
Paul Herrmann,M,B,Law-Fire 40-47,110,Single-ply,AZ,USA,177.5,,,,177.5,5
JC Tolle,M,B,Law-Fire 40-47,117.5,Single-ply,CA,USA,252.5,,,,252.5,1
Robert Lincoln,M,B,Law-Fire 40-47,125,Single-ply,CA,USA,317.5,,,,317.5,1
Wayne Watts,M,B,Law-Fire 40-47,140+,Single-ply,GA,USA,325,,,,325,1
Carl Nishida,M,B,Law-Fire 48-55,82.5,Single-ply,HI,USA,167.5,172.5,,,167.5,1
Mike Berteaux,M,B,Law-Fire 48-55,90,Single-ply,CO,USA,215,,,,215,1
Jorge Guardado,M,B,Law-Fire 48-55,90,Single-ply,OK,USA,122.5,,,,122.5,2
Greg Alves,M,B,Law-Fire 48-55,100,Single-ply,CA,USA,200,,,,200,1
William Denniston,M,B,Law-Fire 48-55,100,Single-ply,MI,USA,170,,,,170,2
Frank Sua,M,B,Law-Fire 48-55,125,Single-ply,WA,USA,242.5,,,,242.5,1
Bruce Sabin,M,B,Law-Fire 48-55,140,Single-ply,CA,USA,250,,,,250,1
Dennis Schultz,M,B,Law-Fire 48-55,140+,Single-ply,CA,USA,,,,,,DQ
Lee Lichtle,M,B,Law-Fire 56+,75,Single-ply,FL,USA,142.5,,,,142.5,1
James Rouse,M,B,Law-Fire 56+,90,Single-ply,IL,USA,145,,,,145,1
Daniel Smith III,M,B,Law-Fire 56+,110,Single-ply,CA,USA,182.5,,,,182.5,1
Ken Tawzer,M,B,Law-Fire 56+,110,Single-ply,CA,USA,182.5,,,,182.5,2
Robert Lincoln,M,B,Law-Fire 56+,117.5,Single-ply,CA,USA,220,,,,220,1
Betty Lafferty,F,B,Open,48,Single-ply,AL,USA,70,,,,70,1
Ita Pantilat,F,B,Open,52,Single-ply,WA,USA,97.5,,,,97.5,1
Yu-Xin Hao,F,B,Open,52,Single-ply,OH,USA,67.5,,,,67.5,2
Laurie Lamp,F,B,Open,56,Single-ply,WA,USA,92.5,,,,92.5,1
Danna Snow,F,B,Open,56,Single-ply,WA,USA,75,,,,75,2
Erica Ansberry,F,B,Open,56,Single-ply,CA,USA,75,,,,75,3
Mary Ann Hobbs,F,B,Open,60,Single-ply,WA,USA,97.5,,,,97.5,1
Victoria Warshaw,F,B,Open,67.5,Single-ply,WA,USA,122.5,,,,122.5,1
Liisa Penttinen,F,B,Open,67.5,Single-ply,,Finland,110,,,,110,2
Victoria Real,F,B,Open,67.5,Single-ply,CA,USA,97.5,,,,97.5,3
Rachele Unson,F,B,Open,67.5,Single-ply,WA,USA,92.5,,,,92.5,4
Laura Thierolf,F,B,Open,67.5,Single-ply,WA,USA,90,,,,90,5
Timmi Simpson,F,B,Open,67.5,Single-ply,CA,USA,67.5,,,,67.5,6
Sheri Klocke,F,B,Open,75,Single-ply,OR,USA,122.5,,,,122.5,1
Virpi Pukkila,F,B,Open,75,Single-ply,,Finland,120,,,,120,2
Karen Campbell,F,B,Open,82.5,Single-ply,ME,USA,172.5,,,,172.5,1
Annie Bowman,F,B,Open,82.5,Single-ply,WA,USA,110,,,,110,2
Pat Robey,F,B,Open,82.5,Single-ply,WA,USA,100,,,,100,3
Robyn Peterson,F,B,Open,82.5,Single-ply,AZ,USA,62.5,,,,62.5,4
Anna Rosén,F,B,Open,90+,Single-ply,,Sweden,150,,,,150,1
Julie Kimoto,F,B,Open,90+,Single-ply,HI,USA,112.5,117.5,,,112.5,2
Kayla Sua,F,B,Open,90+,Single-ply,WA,USA,100,,,,100,3
Leanne Ngai,F,B,Special Olympian,75,Single-ply,HI,USA,82.5,,,,82.5,1
Alexandra Pecktol,F,B,Teen 12-13,52,Single-ply,OR,USA,45,,,,45,1
Ali Miskinis,F,B,Teen 12-13,56,Single-ply,OH,USA,32.5,,,,32.5,1
Veera Selkainaho,F,B,Teen 14-15,52,Single-ply,,Finland,50,,,,50,1
Cheyenne Tavares,F,B,Teen 14-15,44,Single-ply,HI,USA,47.5,,,,47.5,1
Angela Rocha,F,B,Teen 16-17,48,Single-ply,TX,USA,37.5,,,,37.5,1
Lacee Sanchez,F,B,Teen 16-17,56,Single-ply,OK,USA,67.5,,,,67.5,1
Abigail Seale,F,B,Teen 16-17,60,Single-ply,TX,USA,45,,,,45,1
Rachel Talley,F,B,Teen 16-17,60,Single-ply,WA,USA,40,,,,40,2
Melissa Garza #2,F,B,Teen 16-17,60,Single-ply,TX,USA,37.5,,,,37.5,3
Sarah Biddle,F,B,Teen 16-17,67.5,Single-ply,IN,USA,77.5,,,,77.5,1
Angela Barrera,F,B,Teen 16-17,44,Single-ply,TX,USA,35,,,,35,1
Kayla Sua,F,B,Teen 16-17,90+,Single-ply,WA,USA,105,110,,,105,1
Jessica Hurley,F,B,Teen 16-17,90+,Single-ply,HI,USA,102.5,107.5,,,102.5,2
Samantha Baty,F,B,Teen 16-17,90+,Single-ply,MI,USA,100,,,,100,3
Meghan Toomey,F,B,Teen 16-17,90+,Single-ply,CA,USA,97.5,,,,97.5,4
Rebekah Garcia,F,B,Teen 16-17,90+,Single-ply,TX,USA,67.5,,,,67.5,5
Chanel Lewis,F,B,Teen 18-19,48,Single-ply,TX,USA,32.5,,,,32.5,1
Ambyr Reyes,F,B,Teen 18-19,52,Single-ply,UT,USA,92.5,,,,92.5,1
Courtney Gathright,F,B,Teen 18-19,82.5,Single-ply,TX,USA,,,,,,DQ
Hanna Biddle,F,B,Teen 18-19,90,Single-ply,IN,USA,85,,,,85,1
Katie Sons,F,B,Teen 18-19,90+,Single-ply,TX,USA,137.5,,,,137.5,1
Erica Ansberry,F,B,Juniors 20-25,56,Single-ply,CA,USA,75,,,,75,1
Kelly Womack,F,B,Juniors 20-25,75,Single-ply,CA,USA,142.5,,,,142.5,1
Jaccie Tufts,F,B,Juniors 20-25,82.5,Single-ply,OH,USA,57.5,,,,57.5,1
Wendy Wiesjahn,F,B,Submasters 33-39,56,Single-ply,WI,USA,62.5,,,,62.5,1
Mary Ann Hobbs,F,B,Submasters 33-39,60,Single-ply,WA,USA,97.5,,,,97.5,1
Victoria Warshaw,F,B,Submasters 33-39,67.5,Single-ply,WA,USA,122.5,,,,122.5,1
Rachele Unson,F,B,Submasters 33-39,67.5,Single-ply,WA,USA,92.5,,,,92.5,2
Ferleshare Starks,F,B,Submasters 33-39,75,Single-ply,TX,USA,57.5,,,,57.5,1
Anna Rosén,F,B,Submasters 33-39,90+,Single-ply,,Sweden,150,,,,150,1
Yu-Xin Hao,F,B,Masters 40-46,52,Single-ply,OH,USA,67.5,,,,67.5,1
Rebecca Moore,F,B,Masters 40-46,52,Single-ply,WA,USA,65,,,,65,2
Marla McElroy,F,B,Masters 40-46,56,Single-ply,IL,USA,70,,,,70,1
Teresa Jacobs,F,B,Masters 40-46,67.5,Single-ply,WA,USA,100,,,,100,1
Virpi Pukkila,F,B,Masters 40-46,75,Single-ply,,Finland,120,,,,120,1
Cyndi Crossland,F,B,Masters 40-46,75,Single-ply,OK,USA,115,,,,115,2
Josefina Jackson,F,B,Masters 40-46,75,Single-ply,TX,USA,77.5,,,,77.5,3
Linda Bradshaw,F,B,Masters 40-46,75,Single-ply,CA,USA,60,,,,60,4
Karen Campbell,F,B,Masters 40-46,82.5,Single-ply,ME,USA,172.5,,,,172.5,1
Kelli Sandoval,F,B,Masters 40-46,90,Single-ply,OR,USA,,,,,,DQ
Karon Denniston,F,B,Masters 47-53,56,Single-ply,MI,USA,52.5,,,,52.5,1
Marsha Goodman,F,B,Masters 47-53,67.5,Single-ply,AZ,USA,55,,,,55,1
Sheri Klocke,F,B,Masters 47-53,75,Single-ply,OR,USA,122.5,,,,122.5,1
Pamela Michaels-Olson,F,B,Masters 47-53,75,Single-ply,WA,USA,100,,,,100,2
Elizabeth Harwood,F,B,Masters 47-53,75,Single-ply,WA,USA,82.5,,,,82.5,3
Lisa Staplin,F,B,Masters 47-53,75,Single-ply,MN,USA,,,,,,DQ
Pamela Robinson,F,B,Masters 47-53,44,Single-ply,CA,USA,,,,,,DQ
Margie Huston,F,B,Masters 47-53,90+,Single-ply,WA,USA,100,,,,100,1
Mary Rubcic-Tawzer,F,B,Masters 47-53,90+,Single-ply,CA,USA,70,,,,70,2
Ita Pantilat,F,B,Masters 54-60,52,Single-ply,WA,USA,97.5,,,,97.5,1
Hedy Miller,F,B,Masters 54-60,52,Single-ply,UT,USA,95,,,,95,2
Sherry Abblett,F,B,Masters 54-60,44,Single-ply,CA,USA,42.5,45,,,42.5,1
Kathy Cash,F,B,Masters 54-60,90+,Single-ply,OR,USA,95,,,,95,1
Marilyn Lewis,F,B,Masters 54-60,90+,Single-ply,WA,USA,82.5,,,,82.5,2
Wilma Lee Cadavo,F,B,Masters 54-60,90+,Single-ply,ID,USA,75,,,,75,3
Betty Lafferty,F,B,Masters 61-67,48,Single-ply,AL,USA,70,,,,70,1
Mary-Ellen Buchanan,F,B,Masters 61-67,52,Single-ply,WA,USA,57.5,,,,57.5,1
Jacqueline Templer,F,B,Masters 61-67,52,Single-ply,AZ,USA,37.5,,,,37.5,2
Gayle Clawson,F,B,Masters 61-67,75,Single-ply,AZ,USA,75,,,,75,1
Pat Robey,F,B,Masters 61-67,82.5,Single-ply,WA,USA,100,,,,100,1
Julia Aaron-Boliver,F,B,Masters 61-67,90+,Single-ply,TX,USA,47.5,,,,47.5,1
Winifred Pristell,F,B,Masters 68-74,90+,Single-ply,WA,USA,80,,,,80,1
Malvina Basso,F,B,Masters 75-79,60,Single-ply,,Brazil,32.5,,,,32.5,1
Gloria Mighell,F,B,Masters 75-79,90+,Single-ply,OR,USA,32.5,32.5,,,32.5,1
Melicent Whinston,F,B,Masters 80-84,67.5,Single-ply,OR,USA,30,32.5,,,30,1
Laurie Lamp,F,B,Law-Fire Open,56,Single-ply,WA,USA,92.5,,,,92.5,1
Robyn Peterson,F,B,Law-Fire Open,82.5,Single-ply,AZ,USA,62.5,,,,62.5,1
Julie Kimoto,F,B,Law-Fire Open,90+,Single-ply,HI,USA,112.5,117.5,,,112.5,1
Gary Bobrovitz,M,D,Open,60,Single-ply,,Canada,,,62.5,,62.5,2
Anthony Baxter,M,D,Open,67.5,Single-ply,WA,USA,,,217.5,,217.5,1
Alfredo Evangelista,M,D,Open,67.5,Single-ply,OR,USA,,,210,,210,2
Ryan Snelling,M,D,Open,75,Single-ply,MO,USA,,,275,,275,1
Richard Cirigliano,M,D,Open,75,Single-ply,CA,USA,,,275,,275,2
David Felton,M,D,Open,75,Single-ply,WI,USA,,,257.5,,257.5,3
Fulton White,M,D,Open,75,Single-ply,NV,USA,,,247.5,,247.5,4
Jonas Anderbring,M,D,Open,75,Single-ply,,Sweden,,,237.5,,237.5,5
Justin Gourley,M,D,Open,75,Single-ply,IL,USA,,,227.5,,227.5,6
Daniel Porrazzo,M,D,Open,75,Single-ply,MA,USA,,,225,,225,7
Leo Honkala,M,D,Open,75,Single-ply,,Sweden,,,197.5,,197.5,8
Leamon Woodley,M,D,Open,82.5,Single-ply,WA,USA,,,310,,310,1
Sakari Selkäinaho,M,D,Open,82.5,Single-ply,,Finland,,,255,,255,2
Aaron Pina,M,D,Open,82.5,Single-ply,CA,USA,,,250,,250,3
Tony Caprari,M,D,Open,90,Single-ply,MS,USA,,,340,,340,1
Josh Decker,M,D,Open,90,Single-ply,MI,USA,,,300,,300,2
Jared Wilsey,M,D,Open,90,Single-ply,TN,USA,,,287.5,,287.5,3
Dan Simpson,M,D,Open,90,Single-ply,OR,USA,,,217.5,,217.5,4
Dan Simpson,M,D,Open,90,Single-ply,CA,USA,,,205,,205,5
Tom Eiseman,M,D,Open,90,Single-ply,NJ,USA,,,,,,DQ
Niclas Friberg,M,D,Open,100,Single-ply,,Sweden,,,305,,305,1
Chris Morris #3,M,D,Open,100,Single-ply,PA,USA,,,297.5,,297.5,2
Steve LeMarie,M,D,Open,100,Single-ply,LA,USA,,,292.5,,292.5,3
Ben Bittner,M,D,Open,100,Single-ply,MN,USA,,,280,,280,4
Brent Howard,M,D,Open,110,Single-ply,NV,USA,,,342.5,,342.5,1
Kari Pöntinen,M,D,Open,110,Single-ply,,Finland,,,340,,340,2
Garrett Muro,M,D,Open,110,Single-ply,NV,USA,,,310,,310,3
Al Bianchi,M,D,Open,110,Single-ply,MA,USA,,,302.5,,302.5,4
Jari Rosendahl,M,D,Open,110,Single-ply,,Finland,,,300,,300,5
Jussi Tuomainen,M,D,Open,117.5,Single-ply,,Finland,,,325,,325,1
Bobby Driskill,M,D,Open,117.5,Single-ply,AL,USA,,,305,,305,2
Terry Putman,M,D,Open,117.5,Single-ply,OK,USA,,,295,,295,3
Colin Keohuloa,M,D,Open,117.5,Single-ply,HI,USA,,,282.5,,282.5,4
Joshua Carter,M,D,Open,117.5,Single-ply,MT,USA,,,267.5,,267.5,5
Daniel Reeves,M,D,Open,117.5,Single-ply,AZ,USA,,,250,,250,6
Patrick Holloway,M,D,Open,125,Single-ply,AZ,USA,,,347.5,,347.5,1
Göran Rosén,M,D,Open,125,Single-ply,,Sweden,,,325,,325,2
Jerry Pritchett,M,D,Open,140,Single-ply,AZ,USA,,,352.5,,352.5,1
Ronnie Castro,M,D,Open,140,Single-ply,CA,USA,,,315,,315,2
Carl Rex Hubbard,M,D,Open,140,Single-ply,AZ,USA,,,312.5,,312.5,3
Damir Krunic,M,D,Open,140,Single-ply,,Sweden,,,310,,310,4
Dave Forstner,M,D,Open,140,Single-ply,MI,USA,,,295,,295,5
Andy Medak,M,D,Open,140,Single-ply,WA,USA,,,292.5,,292.5,6
Joe Mickelson,M,D,Open,140,Single-ply,WA,USA,,,245,,245,7
Jani Murtomeki,M,D,Open,140+,Single-ply,,Finland,,,345,,345,1
James Greene,M,D,Open,140+,Single-ply,MT,USA,,,295,,295,2
Jacob Crabtree,M,D,Class 1,60,Single-ply,CA,USA,,,150,,150,1
Ray Segura,M,D,Class 1,67.5,Single-ply,WA,USA,,,185,,185,1
Michael DeSimone,M,D,Class 1,67.5,Single-ply,NY,USA,,,,,,DQ
Donnie Miskinis,M,D,Class 1,75,Single-ply,OH,USA,,,232.5,,232.5,1
Dave Constantineau,M,D,Class 1,75,Single-ply,WI,USA,,,225,,225,2
Travis Miller,M,D,Class 1,75,Single-ply,WI,USA,,,207.5,,207.5,3
Marloe Mosley,M,D,Class 1,75,Single-ply,TX,USA,,,195,,195,4
Mark Reuer,M,D,Class 1,75,Single-ply,SD,USA,,,187.5,,187.5,5
Ben Kammueller,M,D,Class 1,75,Single-ply,WI,USA,,,182.5,,182.5,6
Danny Borakove,M,D,Class 1,75,Single-ply,NY,USA,,,157.5,,157.5,7
Warren Fahrenfeld,M,D,Class 1,82.5,Single-ply,NJ,USA,,,285,,285,1
Dan Marxheimer,M,D,Class 1,82.5,Single-ply,WA,USA,,,250,,250,2
Seán Hickey,M,D,Class 1,82.5,Single-ply,WI,USA,,,237.5,,237.5,3
Bobby Whiting,M,D,Class 1,82.5,Single-ply,NY,USA,,,210,,210,4
Bobby Burns,M,D,Class 1,90,Single-ply,WA,USA,,,265,,265,1
Chris Mangano,M,D,Class 1,90,Single-ply,CA,USA,,,260,,260,2
Rolando Espinoza,M,D,Class 1,90,Single-ply,TX,USA,,,227.5,,227.5,3
Dan Simpson,M,D,Class 1,90,Single-ply,OR,USA,,,217.5,,217.5,4
Doug Amburgey,M,D,Class 1,90,Single-ply,OH,USA,,,160,,160,5
Brian Fahrenfeld,M,D,Class 1,100,Single-ply,NY,USA,,,282.5,,282.5,1
Ben Bittner,M,D,Class 1,100,Single-ply,MN,USA,,,280,,280,2
Hunter Beall,M,D,Class 1,100,Single-ply,LA,USA,,,265,,265,3
Steven Petersen,M,D,Class 1,100,Single-ply,TX,USA,,,260,,260,4
Jeremy Drecksel,M,D,Class 1,100,Single-ply,UT,USA,,,257.5,,257.5,5
Chuck Ortwein,M,D,Class 1,100,Single-ply,CA,USA,,,250,,250,6
Timo Niskanen,M,D,Class 1,110,Single-ply,,Sweden,,,282.5,,282.5,1
Brent Nikolaus,M,D,Class 1,110,Single-ply,WA,USA,,,265,,265,2
Eric Shimomi,M,D,Class 1,110,Single-ply,HI,USA,,,232.5,,232.5,3
Fred Riccardi,M,D,Class 1,117.5,Single-ply,NY,USA,,,250,,250,1
Eric Poitevien,M,D,Class 1,125,Single-ply,NY,USA,,,317.5,,317.5,1
Brandon Bankston,M,D,Class 1,125,Single-ply,LA,USA,,,272.5,,272.5,2
Thomas Guiney,M,D,Class 1,140,Single-ply,OK,USA,,,302.5,,302.5,1
Robert Speno,M,D,Class 1,140,Single-ply,CA,USA,,,290,,290,2
Jeffrey Place,M,D,Class 1,140+,Single-ply,OR,USA,,,295,,295,1
Leo Contreras,M,D,Class 1,140+,Single-ply,CA,USA,,,170,,170,2
Vilmar Oliveira,M,D,Disabled,82.5,Single-ply,,Brazil,,,200,,200,1
Phillip Turner,M,D,Special Olympian,82.5,Single-ply,TX,USA,,,127.5,,127.5,1
Brady Tanner,M,D,Special Olympian,110,Single-ply,KS,USA,,,250,,250,1
Joshua Ross,M,D,Special Olympian,110,Single-ply,TX,USA,,,157.5,,157.5,2
Chace Akina,M,D,Teen 12-13,52,Single-ply,HI,USA,,,132.5,,132.5,1
Dustin Pfeiffer,M,D,Teen 12-13,82.5,Single-ply,OH,USA,,,125,,125,1
Dylan Sites,M,D,Teen 14-15,56,Single-ply,OR,USA,,,142.5,,142.5,1
Jared Hockaday,M,D,Teen 14-15,75,Single-ply,MT,USA,,,152.5,,152.5,1
Hunter Pooser,M,D,Teen 14-15,110,Single-ply,AL,USA,,,192.5,,192.5,1
Ryan Reppond,M,D,Teen 16-17,60,Single-ply,CA,USA,,,165,,165,1
Ryan Lund,M,D,Teen 16-17,67.5,Single-ply,UT,USA,,,192.5,,192.5,1
Max Sandoval,M,D,Teen 16-17,67.5,Single-ply,OR,USA,,,165,,165,2
Andrew McDonald,M,D,Teen 16-17,67.5,Single-ply,WA,USA,,,137.5,,137.5,3
Bradley Bennett,M,D,Teen 16-17,75,Single-ply,OH,USA,,,185,,185,1
Danny Borakove,M,D,Teen 16-17,75,Single-ply,NY,USA,,,157.5,,157.5,2
Sanford Graves,M,D,Teen 16-17,82.5,Single-ply,CA,USA,,,200,,200,1
Judd Sato III,M,D,Teen 16-17,82.5,Single-ply,HI,USA,,,192.5,,192.5,2
Jake Garbush,M,D,Teen 16-17,90,Single-ply,WA,USA,,,250,,250,1
Chad Gaytan,M,D,Teen 16-17,90,Single-ply,CA,USA,,,160,,160,2
Mark Stamper,M,D,Teen 16-17,110,Single-ply,CA,USA,,,222.5,,222.5,1
Billy Henry,M,D,Teen 16-17,110,Single-ply,WA,USA,,,165,,165,2
William Klus,M,D,Teen 16-17,140+,Single-ply,MI,USA,,,197.5,205,197.5,1
Tohora Harawira,M,D,Teen 16-17,140+,Single-ply,,New Zealand,,,175,,175,2
Logan Anglewicz,M,D,Teen 18-19,60,Single-ply,OH,USA,,,97.5,,97.5,1
Joshua Tamayo,M,D,Teen 18-19,67.5,Single-ply,TX,USA,,,227.5,,227.5,1
Anthony Baxter,M,D,Teen 18-19,67.5,Single-ply,WA,USA,,,217.5,,217.5,2
Olawale Olofinboba,M,D,Teen 18-19,67.5,Single-ply,,Canada,,,155,,155,3
Donnie Miskinis,M,D,Teen 18-19,75,Single-ply,OH,USA,,,232.5,,232.5,1
Travis Miller,M,D,Teen 18-19,75,Single-ply,WI,USA,,,207.5,,207.5,2
Scott Johnson,M,D,Teen 18-19,75,Single-ply,CA,USA,,,192.5,,192.5,3
A. J. Mangum,M,D,Teen 18-19,82.5,Single-ply,TX,USA,,,305,,305,1
Bobby Whiting,M,D,Teen 18-19,82.5,Single-ply,NY,USA,,,210,,210,2
Ricardo Contreras Jr,M,D,Teen 18-19,82.5,Single-ply,TX,USA,,,197.5,,197.5,3
Ben McCaulley,M,D,Teen 18-19,82.5,Single-ply,WA,USA,,,182.5,,182.5,4
Nick Wilks,M,D,Teen 18-19,82.5,Single-ply,WA,USA,,,117.5,,117.5,5
Ben Rice,M,D,Teen 18-19,90,Single-ply,WA,USA,,,282.5,,282.5,1
Raymond Garcia,M,D,Teen 18-19,90,Single-ply,CA,USA,,,170,,170,2
Hunter Beall,M,D,Teen 18-19,100,Single-ply,LA,USA,,,265,,265,1
Conner Rounds,M,D,Teen 18-19,110,Single-ply,WA,USA,,,287.5,,287.5,1
Frank Ginez III,M,D,Teen 18-19,140+,Single-ply,TX,USA,,,272.5,,272.5,1
Scott Galeck,M,D,Juniors 20-25,56,Single-ply,CA,USA,,,137.5,,137.5,1
Richard Hawthorne,M,D,Juniors 20-25,60,Single-ply,MS,USA,,,250,,250,1
Casey Bochonowicz,M,D,Juniors 20-25,60,Single-ply,OH,USA,,,147.5,,147.5,2
Nick Lenhart,M,D,Juniors 20-25,67.5,Single-ply,UT,USA,,,242.5,,242.5,1
Ray Segura,M,D,Juniors 20-25,67.5,Single-ply,WA,USA,,,185,,185,2
Michael DeSimone,M,D,Juniors 20-25,67.5,Single-ply,NY,USA,,,,,,DQ
Edwin Manmano,M,D,Juniors 20-25,75,Single-ply,HI,USA,,,277.5,,277.5,1
Justin Gourley,M,D,Juniors 20-25,75,Single-ply,IL,USA,,,227.5,,227.5,2
Nick Rosencutter,M,D,Juniors 20-25,82.5,Single-ply,WI,USA,,,240,,240,1
William Hibdon,M,D,Juniors 20-25,90,Single-ply,CA,USA,,,272.5,,272.5,1
Bobby Burns,M,D,Juniors 20-25,90,Single-ply,WA,USA,,,265,,265,2
Shane Oakley,M,D,Juniors 20-25,90,Single-ply,CO,USA,,,257.5,,257.5,3
Weston Zunker,M,D,Juniors 20-25,100,Single-ply,TX,USA,,,280,,280,1
David Barth,M,D,Juniors 20-25,100,Single-ply,PA,USA,,,260,,260,2
Kyle Herzik,M,D,Juniors 20-25,100,Single-ply,NV,USA,,,232.5,,232.5,3
Jon Mokma,M,D,Juniors 20-25,100,Single-ply,MI,USA,,,227.5,,227.5,4
Adam Contreras #1,M,D,Juniors 20-25,100,Single-ply,CA,USA,,,175,,175,5
Garrett Muro,M,D,Juniors 20-25,110,Single-ply,NV,USA,,,310,,310,1
Ben Smith #10,M,D,Juniors 20-25,110,Single-ply,ME,USA,,,195,,195,2
Fred Riccardi,M,D,Juniors 20-25,117.5,Single-ply,NY,USA,,,250,,250,1
Daniel Reeves,M,D,Juniors 20-25,117.5,Single-ply,AZ,USA,,,250,,250,2
Ben Foreman,M,D,Juniors 20-25,117.5,Single-ply,,Canada,,,192.5,,192.5,3
Nicolas Lepine,M,D,Juniors 20-25,125,Single-ply,IL,USA,,,300,,300,1
Brendan Luedtke,M,D,Juniors 20-25,125,Single-ply,NV,USA,,,290,,290,2
Jonathon Jones,M,D,Juniors 20-25,125,Single-ply,CA,USA,,,272.5,,272.5,3
Carl Rex Hubbard,M,D,Juniors 20-25,140,Single-ply,AZ,USA,,,312.5,,312.5,1
Marchand Fleming,M,D,Submasters 33-39,75,Single-ply,OK,USA,,,227.5,,227.5,1
Aaron Pina,M,D,Submasters 33-39,82.5,Single-ply,CA,USA,,,250,,250,1
Keith Stevens,M,D,Submasters 33-39,82.5,Single-ply,CA,USA,,,227.5,,227.5,2
Niclas Friberg,M,D,Submasters 33-39,100,Single-ply,,Sweden,,,305,,305,1
Brian Fahrenfeld,M,D,Submasters 33-39,100,Single-ply,NY,USA,,,282.5,,282.5,2
Michael Rainey,M,D,Submasters 33-39,100,Single-ply,GA,USA,,,275,,275,3
Jeremy Drecksel,M,D,Submasters 33-39,100,Single-ply,UT,USA,,,257.5,,257.5,4
Shahid Shabazz,M,D,Submasters 33-39,100,Single-ply,IL,USA,,,230,,230,5
Kari Pöntinen,M,D,Submasters 33-39,110,Single-ply,,Finland,,,340,,340,1
Ed Barnes,M,D,Submasters 33-39,110,Single-ply,CA,USA,,,260,,260,2
Peter Tumminello,M,D,Submasters 33-39,110,Single-ply,CA,USA,,,252.5,,252.5,3
James Dunn #3,M,D,Submasters 33-39,117.5,Single-ply,TX,USA,,,315,,315,1
Eric Poitevien,M,D,Submasters 33-39,125,Single-ply,NY,USA,,,317.5,,317.5,1
Brandon Bankston,M,D,Submasters 33-39,125,Single-ply,LA,USA,,,272.5,,272.5,2
Dave Forstner,M,D,Submasters 33-39,140,Single-ply,MI,USA,,,295,,295,1
Robert Speno,M,D,Submasters 33-39,140,Single-ply,CA,USA,,,290,,290,2
Guy Powell,M,D,Submasters 33-39,140,Single-ply,WI,USA,,,262.5,,262.5,3
Keoni Reich,M,D,Submasters 33-39,140+,Single-ply,HI,USA,,,327.5,,327.5,1
Keith Cunningham,M,D,Masters 40-46,75,Single-ply,WA,USA,,,252.5,,252.5,1
Daniel Porrazzo,M,D,Masters 40-46,75,Single-ply,MA,USA,,,225,,225,2
Jeffrey Paull,M,D,Masters 40-46,75,Single-ply,CA,USA,,,215,,215,3
Robert Sunshine,M,D,Masters 40-46,75,Single-ply,NY,USA,,,200,,200,4
Joseph LaMonica,M,D,Masters 40-46,75,Single-ply,,Canada,,,197.5,,197.5,5
Warren Fahrenfeld,M,D,Masters 40-46,82.5,Single-ply,NJ,USA,,,285,,285,1
Sakari Selkäinaho,M,D,Masters 40-46,82.5,Single-ply,,Finland,,,255,,255,2
Chris Goyes,M,D,Masters 40-46,82.5,Single-ply,TX,USA,,,237.5,,237.5,3
Dan Guches,M,D,Masters 40-46,90,Single-ply,OR,USA,,,265,,265,1
Rolando Espinoza,M,D,Masters 40-46,90,Single-ply,TX,USA,,,227.5,,227.5,2
John Pfeiffer,M,D,Masters 40-46,90,Single-ply,OH,USA,,,152.5,,152.5,3
Steve LeMarie,M,D,Masters 40-46,100,Single-ply,LA,USA,,,292.5,,292.5,1
Al Tortorelli,M,D,Masters 40-46,100,Single-ply,CA,USA,,,287.5,,287.5,2
Steven Petersen,M,D,Masters 40-46,100,Single-ply,TX,USA,,,260,,260,3
Harlan South,M,D,Masters 40-46,100,Single-ply,IL,USA,,,252.5,,252.5,4
Al Bianchi,M,D,Masters 40-46,110,Single-ply,MA,USA,,,302.5,,302.5,1
Donnie Hamblin,M,D,Masters 40-46,110,Single-ply,AZ,USA,,,227.5,,227.5,2
Terry Putman,M,D,Masters 40-46,117.5,Single-ply,OK,USA,,,295,,295,1
Patrick Holloway,M,D,Masters 40-46,125,Single-ply,AZ,USA,,,347.5,,347.5,1
Göran Rosén,M,D,Masters 40-46,125,Single-ply,,Sweden,,,325,,325,2
Joe Garcia,M,D,Masters 40-46,125,Single-ply,OR,USA,,,272.5,,272.5,3
Boyd Hurley,M,D,Masters 40-46,125,Single-ply,HI,USA,,,260,,260,4
Jason Laskowski,M,D,Masters 40-46,125,Single-ply,TX,USA,,,,,,DQ
Thomas Guiney,M,D,Masters 40-46,140,Single-ply,OK,USA,,,302.5,,302.5,1
Jeff Peshek,M,D,Masters 40-46,140,Single-ply,OH,USA,,,285,,285,2
Jeffrey Place,M,D,Masters 40-46,140+,Single-ply,OR,USA,,,295,,295,1
Richard Cirigliano,M,D,Masters 47-53,75,Single-ply,CA,USA,,,275,,275,1
David Felton,M,D,Masters 47-53,75,Single-ply,WI,USA,,,257.5,,257.5,2
Fulton White,M,D,Masters 47-53,75,Single-ply,NV,USA,,,247.5,,247.5,3
Dave Constantineau,M,D,Masters 47-53,75,Single-ply,WI,USA,,,225,,225,4
Marloe Mosley,M,D,Masters 47-53,75,Single-ply,TX,USA,,,195,,195,5
Leamon Woodley,M,D,Masters 47-53,82.5,Single-ply,WA,USA,,,310,,310,1
David Brekke,M,D,Masters 47-53,82.5,Single-ply,CA,USA,,,230,,230,2
Mark Lo,M,D,Masters 47-53,82.5,Single-ply,HI,USA,,,227.5,,227.5,3
Tim Epting,M,D,Masters 47-53,90,Single-ply,TX,USA,,,185,,185,1
Neil Schoenebeck,M,D,Masters 47-53,100,Single-ply,MI,USA,,,290,,290,1
Chuck Ortwein,M,D,Masters 47-53,100,Single-ply,CA,USA,,,250,,250,2
Robert Harris,M,D,Masters 47-53,100,Single-ply,NV,USA,,,240,,240,3
Jim Curley,M,D,Masters 47-53,100,Single-ply,CO,USA,,,230,,230,4
Dave Rodgers,M,D,Masters 47-53,100,Single-ply,OR,USA,,,227.5,,227.5,5
Al Dawson,M,D,Masters 47-53,110,Single-ply,WA,USA,,,285,,285,1
Samuel Schultz,M,D,Masters 47-53,110,Single-ply,OR,USA,,,237.5,,237.5,2
Gary Stevens,M,D,Masters 47-53,110,Single-ply,WY,USA,,,237.5,,237.5,3
Eric Shimomi,M,D,Masters 47-53,110,Single-ply,HI,USA,,,232.5,,232.5,4
Steve Gaytan,M,D,Masters 47-53,110,Single-ply,CA,USA,,,230,,230,5
Bobby Driskill,M,D,Masters 47-53,117.5,Single-ply,AL,USA,,,305,,305,1
Phillip Arroyo,M,D,Masters 47-53,117.5,Single-ply,WA,USA,,,245,,245,2
Andy Medak,M,D,Masters 47-53,140,Single-ply,WA,USA,,,292.5,,292.5,1
Richard Lukland,M,D,Masters 47-53,140,Single-ply,OH,USA,,,282.5,,282.5,2
Blair Fisher,M,D,Masters 47-53,140,Single-ply,,Canada,,,265,,265,3
Joe Mickelson,M,D,Masters 47-53,140,Single-ply,WA,USA,,,245,,245,4
James Mersberg,M,D,Masters 47-53,140+,Single-ply,HI,USA,,,275,,275,1
Frank Principati,M,D,Masters 54-60,56,Single-ply,PA,USA,,,137.5,,137.5,1
Chuck Wong,M,D,Masters 54-60,60,Single-ply,MN,USA,,,202.5,,202.5,1
Gary Bobrovitz,M,D,Masters 54-60,60,Single-ply,,Canada,,,62.5,,62.5,2
Alfredo Evangelista,M,D,Masters 54-60,67.5,Single-ply,OR,USA,,,210,,210,1
Gary Miller #2,M,D,Masters 54-60,67.5,Single-ply,NV,USA,,,162.5,,162.5,2
Gregory Kleyn,M,D,Masters 54-60,75,Single-ply,IL,USA,,,255,,255,1
Flavio Da Costa Baptista,M,D,Masters 54-60,82.5,Single-ply,,Brazil,,,170,,170,1
Rudy Kadlub,M,D,Masters 54-60,90,Single-ply,OR,USA,,,230,,230,1
Kenneth Kirk,M,D,Masters 54-60,90,Single-ply,CA,USA,,,162.5,,162.5,2
Jon Wolbers,M,D,Masters 54-60,100,Single-ply,,Canada,,,252.5,,252.5,1
Peter Murphy,M,D,Masters 54-60,100,Single-ply,CA,USA,,,242.5,,242.5,2
John Phillips,M,D,Masters 54-60,100,Single-ply,OH,USA,,,230,,230,3
Marvin Hollan,M,D,Masters 54-60,110,Single-ply,TX,USA,,,242.5,,242.5,1
David Wolf,M,D,Masters 54-60,110,Single-ply,WY,USA,,,235,,235,2
Thomas Wright,M,D,Masters 54-60,110,Single-ply,KS,USA,,,167.5,,167.5,3
Gilbert Anderson,M,D,Masters 54-60,117.5,Single-ply,UT,USA,,,272.5,,272.5,1
Sam Pecktol,M,D,Masters 54-60,125,Single-ply,OR,USA,,,295,,295,1
Manny Burruel,M,D,Masters 54-60,140,Single-ply,CA,USA,,,277.5,,277.5,1
Leo Contreras,M,D,Masters 54-60,140+,Single-ply,CA,USA,,,170,,170,1
Moses Timbal,M,D,Masters 61-67,75,Single-ply,HI,USA,,,220,,220,1
Martin Montgomery,M,D,Masters 61-67,75,Single-ply,IN,USA,,,210,,210,2
James Christian #1,M,D,Masters 61-67,75,Single-ply,TX,USA,,,205,,205,3
Ray Gandeza Sr,M,D,Masters 61-67,75,Single-ply,HI,USA,,,182.5,,182.5,4
Stefan Lemire,M,D,Masters 61-67,75,Single-ply,UT,USA,,,132.5,,132.5,5
Dennis Johnson,M,D,Masters 61-67,82.5,Single-ply,WI,USA,,,250,,250,1
Jack Rankin,M,D,Masters 61-67,82.5,Single-ply,WA,USA,,,217.5,,217.5,2
Bob Hochstein,M,D,Masters 61-67,90,Single-ply,IL,USA,,,255,,255,1
James Rouse,M,D,Masters 61-67,90,Single-ply,IL,USA,,,237.5,,237.5,2
Alfred Franke,M,D,Masters 61-67,90,Single-ply,NV,USA,,,217.5,,217.5,3
Vincent Breaux,M,D,Masters 61-67,100,Single-ply,LA,USA,,,255,,255,1
Clifford Ferris,M,D,Masters 61-67,110,Single-ply,CA,USA,,,192.5,,192.5,1
Bud Davis,M,D,Masters 61-67,117.5,Single-ply,UT,USA,,,292.5,,292.5,1
Lindy Blas,M,D,Masters 68-74,56,Single-ply,NV,USA,,,117.5,,117.5,1
Arlindo da Silva,M,D,Masters 68-74,75,Single-ply,,Brazil,,,170,,170,1
Dan Martin,M,D,Masters 68-74,82.5,Single-ply,NV,USA,,,237.5,,237.5,1
Ron Ringewold,M,D,Masters 68-74,82.5,Single-ply,MI,USA,,,217.5,,217.5,2
Larry Joiner,M,D,Masters 68-74,82.5,Single-ply,CA,USA,,,122.5,,122.5,3
Tom O'Keefe,M,D,Masters 68-74,90,Single-ply,CO,USA,,,155,,155,1
Jim Huggins,M,D,Masters 68-74,100,Single-ply,WA,USA,,,190,,190,1
Robert Cortes,M,D,Masters 75-79,75,Single-ply,CA,USA,,,202.5,,202.5,1
Leo Honkala,M,D,Masters 75-79,75,Single-ply,,Sweden,,,197.5,,197.5,2
Richard Simon,M,D,Masters 75-79,82.5,Single-ply,CA,USA,,,140,,140,1
Russell Combest,M,D,Masters 75-79,100,Single-ply,OH,USA,,,200,,200,1
Lou Corulli,M,D,Masters 75-79,110,Single-ply,WA,USA,,,160,,160,1
Arthur Whinston,M,D,Masters 80-84,67.5,Single-ply,OR,USA,,,,,,DQ
Devin Tallerico,M,D,Law-Fire Open,110,Single-ply,CA,USA,,,250,,250,1
Marcus Austin,M,D,Law-Fire Open,140,Single-ply,OK,USA,,,230,,230,1
Aaron Wolfe,M,D,Law-Fire Open,140+,Single-ply,HI,USA,,,302.5,,302.5,1
Alfred Jackson,M,D,Law-Fire Submasters,82.5,Single-ply,WA,USA,,,265,,265,1
Barran Stone,M,D,Law-Fire Submasters,100,Single-ply,TX,USA,,,220,,220,1
Devin Tallerico,M,D,Law-Fire Submasters,110,Single-ply,CA,USA,,,250,,250,1
Marcus Austin,M,D,Law-Fire Submasters,140,Single-ply,OK,USA,,,230,,230,1
Keoni Reich,M,D,Law-Fire Submasters,140+,Single-ply,HI,USA,,,327.5,,327.5,1
Aaron Wolfe,M,D,Law-Fire Submasters,140+,Single-ply,HI,USA,,,302.5,,302.5,2
Chris Russo,M,D,Law-Fire 40-47,110,Single-ply,NJ,USA,,,247.5,,247.5,1
William Denniston,M,D,Law-Fire 48-55,100,Single-ply,MI,USA,,,207.5,,207.5,1
Marvin Hollan,M,D,Law-Fire 48-55,110,Single-ply,TX,USA,,,242.5,,242.5,1
Manny Burruel,M,D,Law-Fire 48-55,140,Single-ply,CA,USA,,,277.5,,277.5,1
James Rouse,M,D,Law-Fire 56+,90,Single-ply,IL,USA,,,237.5,,237.5,1
Danna Snow,F,D,Open,56,Single-ply,WA,USA,,,145,,145,1
Nora Smiriga,F,D,Open,56,Single-ply,CA,USA,,,97.5,,97.5,2
Mary Ann Hobbs,F,D,Open,60,Single-ply,WA,USA,,,147.5,,147.5,1
Velma Panlasigui,F,D,Open,60,Single-ply,HI,USA,,,130,,130,2
Liisa Penttinen,F,D,Open,67.5,Single-ply,,Finland,,,195,,195,1
Leslie Hofheins,F,D,Open,67.5,Single-ply,UT,USA,,,192.5,,192.5,2
Teresa Jacobs,F,D,Open,67.5,Single-ply,WA,USA,,,185,,185,3
Victoria Warshaw,F,D,Open,67.5,Single-ply,WA,USA,,,182.5,,182.5,4
Rachele Unson,F,D,Open,67.5,Single-ply,WA,USA,,,150,,150,5
Laura Thierolf,F,D,Open,67.5,Single-ply,WA,USA,,,150,,150,6
Lesa Dillon,F,D,Open,67.5,Single-ply,TX,USA,,,115,,115,7
Querubin Rodriguez,F,D,Open,75,Single-ply,TX,USA,,,137.5,,137.5,1
Jamie Clawson,F,D,Open,75,Single-ply,MT,USA,,,137.5,,137.5,2
Karen Campbell,F,D,Open,82.5,Single-ply,ME,USA,,,172.5,,172.5,1
Annie Bowman,F,D,Open,82.5,Single-ply,WA,USA,,,160,,160,2
Robyn Peterson,F,D,Open,82.5,Single-ply,AZ,USA,,,115,,115,3
Elizabeth Cabe,F,D,Open,44,Single-ply,HI,USA,,,107.5,,107.5,1
Josefin Brander,F,D,Open,90+,Single-ply,,Sweden,,,245,,245,1
Anna Rosén,F,D,Open,90+,Single-ply,,Sweden,,,230,,230,2
Jessica Hurley,F,D,Open,90+,Single-ply,HI,USA,,,182.5,,182.5,3
Kayla Sua,F,D,Open,90+,Single-ply,WA,USA,,,182.5,,182.5,4
Alexandra Pecktol,F,D,Teen 12-13,52,Single-ply,OR,USA,,,100,105,100,1
Ali Miskinis,F,D,Teen 12-13,56,Single-ply,OH,USA,,,105,,105,1
Veera Selkainaho,F,D,Teen 14-15,52,Single-ply,,Finland,,,90,,90,1
Jacqueline Wickens,F,D,Teen 14-15,82.5,Single-ply,NV,USA,,,160,,160,1
Cheyenne Tavares,F,D,Teen 14-15,44,Single-ply,HI,USA,,,107.5,112.5,107.5,1
Angela Rocha,F,D,Teen 16-17,48,Single-ply,TX,USA,,,110,,110,1
Abigail Seale,F,D,Teen 16-17,60,Single-ply,TX,USA,,,102.5,,102.5,1
Victoria Roumbanis,F,D,Teen 16-17,60,Single-ply,CA,USA,,,102.5,,102.5,2
Melissa Garza #2,F,D,Teen 16-17,60,Single-ply,TX,USA,,,95,97.5,95,3
Rachel Talley,F,D,Teen 16-17,60,Single-ply,WA,USA,,,90,92.5,90,4
Sarah Biddle,F,D,Teen 16-17,67.5,Single-ply,IN,USA,,,125,,125,1
Olivia Houseman,F,D,Teen 16-17,75,Single-ply,WA,USA,,,122.5,,122.5,1
Jessica Hurley,F,D,Teen 16-17,90,Single-ply,HI,USA,,,192.5,,192.5,1
Angela Barrera,F,D,Teen 16-17,44,Single-ply,TX,USA,,,75,77.5,75,1
Kayla Sua,F,D,Teen 16-17,90+,Single-ply,WA,USA,,,172.5,,172.5,1
Alisha McGlothlin,F,D,Teen 16-17,90+,Single-ply,WA,USA,,,142.5,,142.5,2
Meghan Toomey,F,D,Teen 16-17,90+,Single-ply,CA,USA,,,132.5,,132.5,3
Rebekah Garcia,F,D,Teen 16-17,90+,Single-ply,TX,USA,,,127.5,,127.5,4
Chanel Lewis,F,D,Teen 18-19,48,Single-ply,TX,USA,,,90,,90,1
Hannah Biddle,F,D,Teen 18-19,90,Single-ply,IN,USA,,,122.5,,122.5,1
Renee Good,F,D,Juniors 20-25,60,Single-ply,TN,USA,,,80,,80,1
Zandra Cebuano,F,D,Juniors 20-25,67.5,Single-ply,CA,USA,,,147.5,,147.5,1
Jaccie Tufts,F,D,Juniors 20-25,82.5,Single-ply,OH,USA,,,130,,130,1
Ashley Aguas,F,D,Juniors 20-25,44,Single-ply,CA,USA,,,105,110,105,1
Wendy Wiesjahn,F,D,Submasters 33-39,56,Single-ply,WI,USA,,,127.5,,127.5,1
Mary Ann Hobbs,F,D,Submasters 33-39,60,Single-ply,WA,USA,,,147.5,,147.5,1
Velma Panlasigui,F,D,Submasters 33-39,60,Single-ply,HI,USA,,,130,,130,2
Leslie Hofheins,F,D,Submasters 33-39,67.5,Single-ply,UT,USA,,,192.5,,192.5,1
Victoria Warshaw,F,D,Submasters 33-39,67.5,Single-ply,WA,USA,,,175,,175,2
Rachele Unson,F,D,Submasters 33-39,67.5,Single-ply,WA,USA,,,150,,150,3
Ferleshare Starks,F,D,Submasters 33-39,75,Single-ply,TX,USA,,,145,,145,1
An Rosen,F,D,Submasters 33-39,90+,Single-ply,,Sweden,,,230,,230,1
Leila Mc Kindra,F,D,Submasters 33-39,90+,Single-ply,IN,USA,,,182.5,,182.5,2
Teresa Jacobs,F,D,Masters 40-46,67.5,Single-ply,WA,USA,,,185,,185,1
Shelly Adamczak,F,D,Masters 40-46,67.5,Single-ply,MI,USA,,,142.5,,142.5,2
Lesa Dillon,F,D,Masters 40-46,67.5,Single-ply,TX,USA,,,115,,115,3
Josefina Jackson,F,D,Masters 40-46,75,Single-ply,TX,USA,,,120,,120,1
Jennifer Taylor,F,D,Masters 40-46,82.5,Single-ply,OR,USA,,,182.5,,182.5,1
Karen Campbell,F,D,Masters 40-46,82.5,Single-ply,ME,USA,,,172.5,,172.5,2
Kelli Sandoval,F,D,Masters 40-46,90,Single-ply,OR,USA,,,165,,165,1
Elizabeth Cabe,F,D,Masters 40-46,44,Single-ply,HI,USA,,,107.5,,107.5,1
Jeanne Morris,F,D,Masters 47-53,52,Single-ply,WA,USA,,,115,,115,1
Leticia Rosales-Buie,F,D,Masters 47-53,56,Single-ply,CA,USA,,,130,,130,1
Karon Denniston,F,D,Masters 47-53,56,Single-ply,MI,USA,,,80,,80,2
Marsha Goodman,F,D,Masters 47-53,67.5,Single-ply,AZ,USA,,,92.5,,92.5,1
Pamela Michaels-Olson,F,D,Masters 47-53,75,Single-ply,WA,USA,,,162.5,,162.5,1
Elizabeth Harwood,F,D,Masters 47-53,75,Single-ply,WA,USA,,,150,,150,2
Sheri Klocke,F,D,Masters 47-53,75,Single-ply,OR,USA,,,150,,150,3
Margie Huston,F,D,Masters 47-53,90+,Single-ply,WA,USA,,,142.5,,142.5,1
Mary Rubcic-Tawzer,F,D,Masters 47-53,90+,Single-ply,CA,USA,,,115,,115,2
Ita Pantilat,F,D,Masters 54-60,52,Single-ply,WA,USA,,,130,,130,1
Marilyn Lewis,F,D,Masters 54-60,90+,Single-ply,WA,USA,,,160,,160,1
Kathy Cash,F,D,Masters 54-60,90+,Single-ply,OR,USA,,,140,,140,2
Betty Lafferty,F,D,Masters 61-67,48,Single-ply,AL,USA,,,92.5,95,92.5,1
Gayle Clawson,F,D,Masters 61-67,75,Single-ply,AZ,USA,,,145,,145,1
Dana Backiel,F,D,Masters 61-67,75,Single-ply,WA,USA,,,140,,140,2
Judith Petray,F,D,Masters 61-67,75,Single-ply,CA,USA,,,130,,130,3
Nora Smiriga,F,D,Masters 68-74,56,Single-ply,CA,USA,,,97.5,102.5,97.5,1
Winifred Pristell,F,D,Masters 68-74,90+,Single-ply,WA,USA,,,122.5,,122.5,1
Malvina Basso,F,D,Masters 75-79,60,Single-ply,,Brazil,,,70,75,70,1
Laurie Lamp,F,D,Law-Fire Open,56,Single-ply,WA,USA,,,110,,110,1
Robyn Peterson,F,D,Law-Fire Open,82.5,Single-ply,AZ,USA,,,115,,115,1
Leticia Rosales-Buie,F,D,Law-Fire 40-47,56,Single-ply,CA,USA,,,130,,130,1
Kris Pruitt,F,D,Law-Fire 40-47,90+,Single-ply,WA,USA,,,120,,120,1
