Division,WeightClassKg,Place,Name,Team,BodyweightKg,Best3SquatKg,Best3BenchKg,Best3DeadliftKg,TotalKg,Equipment,Event,Sex,BirthDate
Girls,44.23,1,Cheyanne Bliss,Needville,43.09,65.77,40.82,68.04,174.63,Single-ply,SBD,F,
Girls,44.23,2,Hadley Renni,Sweeny,41.37,56.7,38.56,77.11,172.37,Single-ply,SBD,F,
Girls,44.23,DQ,Megan Rappelet,Bridge City,41.91,,,,,Single-ply,SBD,F,
Girls,44.23,DQ,Kayla Nguyen,Bridge City,42.46,,,,,Single-ply,SBD,F,
Girls,47.85,1,Kyndall Moffett,Livingston,47.49,99.79,61.23,115.67,276.69,Single-ply,SBD,F,
Girls,47.85,2,Michelle McBroom,West Columbia,47.63,102.06,54.43,88.45,244.94,Single-ply,SBD,F,
Girls,47.85,3,Xandria Garcia,Bay City,47.81,90.72,43.09,99.79,233.6,Single-ply,SBD,F,
Girls,47.85,4,Shaylin McCoy,Sour Lake Hardin-Jefferson,47.13,77.11,43.09,92.99,213.19,Single-ply,SBD,F,
Girls,47.85,5,Sadie Cary,Liberty,46.9,72.57,36.29,99.79,208.65,Single-ply,SBD,F,
Girls,47.85,6,Josie Watts,Bridge City,47.26,74.84,34.02,90.72,199.58,Single-ply,SBD,F,
Girls,47.85,DQ,Kenady Davis,Lumberton,47.08,,,,,Single-ply,SBD,F,
Girls,47.85,DQ,Mia Hamlin,Wharton,47.58,,,,,Single-ply,SBD,F,
Girls,47.85,DQ,Estrella Labatos,Bridge City,46.9,,,,,Single-ply,SBD,F,
Girls,51.94,1,Fernanda Galvez,Splendora,51.44,108.86,52.16,117.93,278.96,Single-ply,SBD,F,
Girls,51.94,2,Madison Lee,Cleveland Tarkington,49.8,92.99,54.43,108.86,256.28,Single-ply,SBD,F,
Girls,51.94,3,Julia Gigliotta,Lumberton,49.35,86.18,49.9,97.52,233.6,Single-ply,SBD,F,
Girls,51.94,4,DaSasha Janice,West Orange-Stark,49.76,88.45,34.02,92.99,215.46,Single-ply,SBD,F,
Girls,51.94,5,Jasmine Valencia,Liberty,48.99,79.38,45.36,79.38,204.12,Single-ply,SBD,F,
Girls,51.94,6,Jamie Ener,Bridge City,51.8,77.11,31.75,92.99,201.85,Single-ply,SBD,F,
Girls,51.94,7,Jesslyn Bullard,Cleveland Tarkington,51.17,74.84,52.16,72.57,199.58,Single-ply,SBD,F,
Girls,51.94,DQ,Ally Yeaman,Bridge City,48.76,,,,,Single-ply,SBD,F,
Girls,51.94,DQ,Kira Marksberry,Splendora,50.76,92.99,,,,Single-ply,SBD,F,
Girls,51.94,DQ,Lauren Reighard,Splendora,48.99,,,,,Single-ply,SBD,F,
Girls,51.94,DQ,Madison Rudkin,West Columbia,51.8,,,,,Single-ply,SBD,F,
Girls,51.94,DQ,Destanee Maurer,Sweeny,51.12,104.33,65.77,,,Single-ply,SBD,F,
Girls,56.02,1,Raylie Pagan,Splendora,54.88,115.67,56.7,115.67,288.03,Single-ply,SBD,F,
Girls,56.02,2,Cheyenne Lowrance,Shepherd,54.11,104.33,58.97,115.67,278.96,Single-ply,SBD,F,
Girls,56.02,3,Tori Moore,Splendora,55.16,102.06,61.23,108.86,272.16,Single-ply,SBD,F,
Girls,56.02,4,Christasia Collins,Jasper,55.29,102.06,52.16,102.06,256.28,Single-ply,SBD,F,
Girls,56.02,5,Isabella Lopez,Sour Lake Hardin-Jefferson,55.11,88.45,40.82,111.13,240.4,Single-ply,SBD,F,
Girls,56.02,6,Macayla Edwards,Liberty,55.93,99.79,36.29,102.06,238.14,Single-ply,SBD,F,
Girls,56.02,DQ,Ja'Noria Harrell,Livingston,52.93,,,,,Single-ply,SBD,F,
Girls,56.02,DQ,Annie Bebee,Silsbee,54.7,,,,,Single-ply,SBD,F,
Girls,56.02,DQ,Sharla Ruiz,Shepherd,54.11,,,,,Single-ply,SBD,F,
Girls,56.02,DQ,Shelbie Ferguson,Shepherd,52.44,,,,,Single-ply,SBD,F,
Girls,56.02,DQ,Emilee Whittington,Bridge City,52.25,,,,,Single-ply,SBD,F,
Girls,56.02,DQ,Celeste Grana,Liberty,53.98,92.99,,,,Single-ply,SBD,F,
Girls,60.1,1,Tori Rash,Needville,58.69,120.2,70.31,108.86,299.37,Single-ply,SBD,F,
Girls,60.1,2,Sadie Stone,Bridge City,57.83,113.4,56.7,124.74,294.84,Single-ply,SBD,F,
Girls,60.1,3,Madison White,Silsbee,58.33,122.47,52.16,113.4,288.03,Single-ply,SBD,F,
Girls,60.1,4,Gia Wilson,Splendora,59.06,102.06,72.57,108.86,283.5,Single-ply,SBD,F,
Girls,60.1,5,Lorena Ramirez,Splendora,59.28,102.06,54.43,120.2,276.69,Single-ply,SBD,F,
Girls,60.1,6,Karrenton Fillyaw,Hamshire-Fannett,57.2,99.79,49.9,120.2,269.89,Single-ply,SBD,F,
Girls,60.1,7,Trista Maxey,Sour Lake Hardin-Jefferson,57.29,108.86,43.09,111.13,263.08,Single-ply,SBD,F,
Girls,60.1,8,Kelly Bible,Sweeny,60.1,86.18,56.7,90.72,233.6,Single-ply,SBD,F,
Girls,60.1,DQ,Maria Gutierrez,Livingston,57.74,,,,,Single-ply,SBD,F,
Girls,60.1,DQ,Abby Allen,Needville,57.7,,,,,Single-ply,SBD,F,
Girls,60.1,DQ,Alexis Ehrlich,Shepherd,58.01,,,,,Single-ply,SBD,F,
Girls,60.1,DQ,Ruth Hamilton,Bridge City,59.87,,,,,Single-ply,SBD,F,
Girls,67.36,1,Harmony Hysten,Sweeny,65.45,151.95,74.84,127.01,353.8,Single-ply,SBD,F,
Girls,67.36,2,Allie Botello,Livingston,66.59,131.54,61.23,138.35,331.12,Single-ply,SBD,F,
Girls,67.36,3,Lizbeth Amezquita,Bay City,67.36,131.54,74.84,124.74,331.12,Single-ply,SBD,F,
Girls,67.36,4,Serenity Whitworth,Splendora,62.51,127.01,70.31,129.27,326.59,Single-ply,SBD,F,
Girls,67.36,5,Alissa Cassell,Splendora,65.77,129.27,68.04,124.74,322.05,Single-ply,SBD,F,
Girls,67.36,6,Lucero Villafana,Splendora,63.87,111.13,68.04,127.01,306.17,Single-ply,SBD,F,
Girls,67.36,7,Ashlynn Flores,Bay City,64.23,122.47,61.23,117.93,301.64,Single-ply,SBD,F,
Girls,67.36,8,Anna Green,Sweeny,63.59,104.33,65.77,129.27,299.37,Single-ply,SBD,F,
Girls,67.36,9,Makenzy Franklin,Shepherd,66.32,117.93,61.23,117.93,297.1,Single-ply,SBD,F,
Girls,67.36,10,Abbi Smith,Cleveland Tarkington,66.54,120.2,54.43,120.2,294.84,Single-ply,SBD,F,
Girls,67.36,DQ,Cameron Baker,Cleveland Tarkington,66.18,115.67,,,,Single-ply,SBD,F,
Girls,67.36,DQ,Kaylene Gaviria,Splendora,63.55,,,,,Single-ply,SBD,F,
Girls,67.36,DQ,Chloey Verde,Lumberton,65.45,,,,,Single-ply,SBD,F,
Girls,75.07,1,Shelby Dean,Shepherd,70.31,111.13,79.38,165.56,356.07,Single-ply,SBD,F,
Girls,75.07,2,Cora Sievertson,Shepherd,71.35,140.61,77.11,131.54,349.27,Single-ply,SBD,F,
Girls,75.07,3,Ariana Williams,Sweeny,70.22,138.35,72.57,133.81,344.73,Single-ply,SBD,F,
Girls,75.07,4,Alondra Camacho,Splendora,71.4,129.27,72.57,138.35,340.19,Single-ply,SBD,F,
Girls,75.07,5,Makenzie Keel,Splendora,70.67,124.74,72.57,136.08,333.39,Single-ply,SBD,F,
Girls,75.07,6,Jasmine Clark,Shepherd,73.75,113.4,68.04,111.13,292.57,Single-ply,SBD,F,
Girls,75.07,DQ,Vivianna Sandoval,Splendora,67.77,,,,,Single-ply,SBD,F,
Girls,75.07,DQ,Alexis Argueta,Splendora,71.76,124.74,,,,Single-ply,SBD,F,
Girls,75.07,DQ,Kylie Jones,Splendora,73.3,147.42,,,,Single-ply,SBD,F,
Girls,75.07,DQ,Makenzie Anderson,West Columbia,74.71,,,,,Single-ply,SBD,F,
Girls,75.07,DQ,Meirabella Rouane,Needville,67.81,,,,,Single-ply,SBD,F,
Girls,75.07,DQ,Taylor Reed,Stafford,74.84,,,,,Single-ply,SBD,F,
Girls,82.33,1,Leah Hensarling,Splendora,79.06,181.44,88.45,140.61,410.5,Single-ply,SBD,F,
Girls,82.33,2,Hailey Santimauro,Sweeny,80.47,136.08,95.25,131.54,362.87,Single-ply,SBD,F,
Girls,82.33,3,Aris Batts,West Orange-Stark,79.38,129.27,47.63,136.08,312.98,Single-ply,SBD,F,
Girls,82.33,4,Annika Willett,Cleveland Tarkington,77.52,115.67,70.31,124.74,310.71,Single-ply,SBD,F,
Girls,82.33,5,Ella Sneed,Shepherd,82.24,115.67,65.77,127.01,308.44,Single-ply,SBD,F,
Girls,82.33,6,Jaysonlyn Cormier,Silsbee,76.2,102.06,68.04,122.47,292.57,Single-ply,SBD,F,
Girls,82.33,7,Paxton Joslin,Cleveland Tarkington,77.11,106.59,61.23,113.4,281.23,Single-ply,SBD,F,
Girls,82.33,8,Carly Jeffcoat,Sour Lake Hardin-Jefferson,80.06,106.59,45.36,120.2,272.16,Single-ply,SBD,F,
Girls,82.33,DQ,Rebecca Slaughter,Cleveland Tarkington,79.2,117.93,56.7,,,Single-ply,SBD,F,
Girls,82.33,DQ,Hannah Kincannon,Bridge City,75.21,,,,,Single-ply,SBD,F,
Girls,82.33,DQ,Marlinda Dunham,Livingston,81.92,120.2,56.7,,,Single-ply,SBD,F,
Girls,82.33,DQ,Priscilla Gomez,Splendora,75.66,111.13,65.77,,,Single-ply,SBD,F,
Girls,90.04,1,Sarah Briggs,Sweeny,83.6,140.61,92.99,136.08,369.68,Single-ply,SBD,F,
Girls,90.04,2,Madison Eason,Splendora,88.86,140.61,86.18,140.61,367.41,Single-ply,SBD,F,
Girls,90.04,3,Miryam Lopez,Needville,85,131.54,81.65,122.47,335.66,Single-ply,SBD,F,
Girls,90.04,4,Gabby Kratzer,Livingston,87.54,136.08,61.23,131.54,328.85,Single-ply,SBD,F,
Girls,90.04,5,Abrial Galvez,Bay City,88.95,136.08,52.16,113.4,301.64,Single-ply,SBD,F,
Girls,90.04,6,Neida Trejo,Splendora,88.45,117.93,65.77,115.67,299.37,Single-ply,SBD,F,
Girls,90.04,7,Sophia Young,Splendora,82.46,102.06,65.77,115.67,283.5,Single-ply,SBD,F,
Girls,90.04,8,Shelby Kaack,Needville,89.77,113.4,63.5,90.72,267.62,Single-ply,SBD,F,
Girls,90.04,DQ,Sophia Pittner,Hamshire-Fannett,83.46,,,,,Single-ply,SBD,F,
Girls,90.04,DQ,Katelyn Pollard,Shepherd,87,,,,,Single-ply,SBD,F,
Girls,90.04,DQ,Brianna Navarro,Bay City,87.27,,,,,Single-ply,SBD,F,
Girls,100.02,1,Lorelei Irby,Sweeny,95.35,192.78,104.33,170.1,467.2,Single-ply,SBD,F,
Girls,100.02,2,Hope Anderson,Cleveland Tarkington,94.62,174.63,86.18,124.74,385.55,Single-ply,SBD,F,
Girls,100.02,3,Thalia Pina,Freeport Brazosport,99.38,158.76,72.57,142.88,374.21,Single-ply,SBD,F,
Girls,100.02,4,Kayla Hays,Splendora,95.21,142.88,90.72,129.27,362.87,Single-ply,SBD,F,
Girls,100.02,5,Alissa White,Lumberton,96.66,136.08,83.91,124.74,344.73,Single-ply,SBD,F,
Girls,100.02,6,Chaley Cleckley,Sour Lake Hardin-Jefferson,98.79,140.61,63.5,127.01,331.12,Single-ply,SBD,F,
Girls,100.02,7,Heidi Strait,Splendora,98.07,120.2,70.31,120.2,310.71,Single-ply,SBD,F,
Girls,100.02,8,Haizel Padron,Bridge City,90.49,90.72,54.43,115.67,260.82,Single-ply,SBD,F,
Girls,100.02,DQ,Kaylin Davalos,Livingston,93.39,,,,,Single-ply,SBD,F,
Girls,100.02,DQ,Aj Eaves-Hardy,Lumberton,94.26,,,,,Single-ply,SBD,F,
Girls,100.02,DQ,Cami Clark,Shepherd,95.25,140.61,74.84,,,Single-ply,SBD,F,
Girls,100.02,DQ,Abbigayle Rice,Sour Lake Hardin-Jefferson,97.75,104.33,45.36,,,Single-ply,SBD,F,
Girls,117.71,1,Madison Mirelez,Bay City,117.03,176.9,86.18,136.08,399.16,Single-ply,SBD,F,
Girls,117.71,2,Asianna Stewart,Sweeny,105.23,140.61,104.33,129.27,374.21,Single-ply,SBD,F,
Girls,117.71,3,Haven Myers,Splendora,110.95,136.08,79.38,147.42,362.87,Single-ply,SBD,F,
Girls,117.71,4,Brianna Moreno,Splendora,104.87,129.27,83.91,136.08,349.27,Single-ply,SBD,F,
Girls,117.71,5,Payton Olivier,La Marque,102.33,129.27,70.31,142.88,342.46,Single-ply,SBD,F,
Girls,117.71,6,Chloe Kirchner,Cleveland Tarkington,103.69,124.74,72.57,129.27,326.59,Single-ply,SBD,F,
Girls,117.71,7,Jazmine Strother,Silsbee,112.76,120.2,74.84,115.67,310.71,Single-ply,SBD,F,
Girls,117.71,8,Madison Mewbourn,Sour Lake Hardin-Jefferson,106.68,122.47,58.97,115.67,297.1,Single-ply,SBD,F,
Girls,117.71,9,Evelyn Lecea,Bridge City,104.51,104.33,43.09,115.67,263.08,Single-ply,SBD,F,
Girls,117.71,DQ,Takirah Seale,Jasper,101.97,117.93,72.57,,,Single-ply,SBD,F,
Girls,117.71,DQ,Arely Santiago,Lumberton,110.95,102.06,,,,Single-ply,SBD,F,
Girls,117.71,DQ,Alexis Whittlesey,Lumberton,100.24,113.4,56.7,,,Single-ply,SBD,F,
Girls,117.71,DQ,Tara Boone,Needville,100.61,,,,,Single-ply,SBD,F,
Girls,117.71,DQ,Taliyah Thomas,Stafford,117.48,,,,,Single-ply,SBD,F,
Girls,117.71+,1,Hannah McCullough,Sour Lake Hardin-Jefferson,119.29,197.31,117.93,170.1,485.34,Single-ply,SBD,F,
Girls,117.71+,2,Toni Vargas,Freeport Brazosport,119.75,170.1,70.31,129.27,369.68,Single-ply,SBD,F,
Girls,117.71+,3,Ashlyn Moore,Sweeny,124.38,149.69,88.45,124.74,362.87,Single-ply,SBD,F,
Girls,117.71+,4,Nortazia McGhee,West Orange-Stark,124.38,111.13,49.9,140.61,301.64,Single-ply,SBD,F,
Girls,117.71+,5,Kaitlyn Vela,Freeport Brazosport,135.62,65.77,52.16,88.45,206.38,Single-ply,SBD,F,
Girls,117.71+,DQ,Starr Lee,Hamshire-Fannett,143.79,,,,,Single-ply,SBD,F,
Girls,117.71+,DQ,Kaitlyn Lowe,Needville,126.19,99.79,36.29,,,Single-ply,SBD,F,
Girls,117.71+,DQ,Lauren Walters,Shepherd,117.84,,,,,Single-ply,SBD,F,
Girls,117.71+,DQ,India Milton,Silsbee,171.82,113.4,68.04,,,Single-ply,SBD,F,
Girls,117.71+,DQ,T'Shyia Evans,Silsbee,146.06,115.67,70.31,,,Single-ply,SBD,F,
