Division,WeightClassKg,Place,Name,Team,BodyweightKg,Best3SquatKg,Best3BenchKg,Best3DeadliftKg,TotalKg,Equipment,Event,Sex
Boys,51.71,1,Anthony Garcia,Weslaco,51.71,181.44,115.67,188.24,485.34,Single-ply,SBD,M
Boys,51.71,2,Cody Juarez,Alice,50.35,199.58,102.06,176.9,478.54,Single-ply,SBD,M
Boys,51.71,3,Michael Casillas,Victoria West,51.62,167.83,92.99,183.7,444.52,Single-ply,SBD,M
Boys,51.71,4,Allen Guillen,Brownsville Lopez,51.03,183.7,72.57,183.7,439.98,Single-ply,SBD,M
Boys,51.71,5,Oscar Martel,Laredo United South,50.03,170.1,97.52,163.29,430.91,Single-ply,SBD,M
Boys,51.71,6,Osvaldo Lopez,Brownsville Hanna,51.71,158.76,90.72,172.37,421.84,Single-ply,SBD,M
Boys,51.71,7,Esteban Urquieta,Corpus Christi Tuloso-Midway,51.07,183.7,72.57,161.03,417.3,Single-ply,SBD,M
Boys,51.71,8,Justin Hernandez,Weslaco East,50.76,158.76,79.38,172.37,410.5,Single-ply,SBD,M
Boys,51.71,9,Benny Lara,Victoria West,50.53,165.56,97.52,142.88,405.97,Single-ply,SBD,M
Boys,51.71,10,Gilbert Gonzalez,Edinburg Vela,47.72,190.51,111.13,102.06,403.7,Single-ply,SBD,M
Boys,51.71,11,Leo Martinez,Rio Grande City,51.21,142.88,95.25,151.95,390.09,Single-ply,SBD,M
Boys,51.71,12,Ramiro Trevino,Laredo Nixon,50.21,145.15,81.65,147.42,374.21,Single-ply,SBD,M
Boys,55.79,1,Joel Sanchez,Brownsville Veterans Memorial,55.61,199.58,97.52,215.46,512.56,Single-ply,SBD,M
Boys,55.79,2,Joshua Morin,PSJA North,55.75,183.7,117.93,195.04,496.68,Single-ply,SBD,M
Boys,55.79,3,Leo Alaniz,Brownsville Lopez,55.7,197.31,106.59,190.51,494.42,Single-ply,SBD,M
Boys,55.79,4,Michael Mitchell,San Antonio Southside,54.02,183.7,97.52,201.85,483.08,Single-ply,SBD,M
Boys,55.79,5,Joseph Serino,Brownsville Hanna,55.79,165.56,102.06,206.38,474,Single-ply,SBD,M
Boys,55.79,6,Tyler Salazar,Donna,54.39,183.7,92.99,183.7,460.4,Single-ply,SBD,M
Boys,55.79,7,Jose Bautista #1,San Antonio East Central,55.52,174.63,99.79,183.7,458.13,Single-ply,SBD,M
Boys,55.79,8,Eulicez Gonzalez,San Antonio Southside,54.7,167.83,102.06,183.7,453.59,Single-ply,SBD,M
Boys,55.79,9,Misael Marquez,Brownsville Pace,55.11,185.97,111.13,156.49,453.59,Single-ply,SBD,M
Boys,55.79,10,Marco Pina,Donna North,55.79,170.1,102.06,170.1,442.25,Single-ply,SBD,M
Boys,55.79,DQ,Angel Medillin,Edinburg Vela,54.79,,,,,Single-ply,SBD,M
Boys,59.87,1,Jose Alvarado #2,Brownsville Lopez,59.6,260.82,131.54,217.72,610.08,Single-ply,SBD,M
Boys,59.87,2,Moc Moo,Port Lavaca Calhoun,59.74,213.19,122.47,204.12,539.77,Single-ply,SBD,M
Boys,59.87,3,Mario Saldivar Jr,Laredo Alexander,59.87,192.78,108.86,210.92,512.56,Single-ply,SBD,M
Boys,59.87,4,Ricky Ortiz #1,Edcouch-Elsa,59.6,199.58,113.4,197.31,510.29,Single-ply,SBD,M
Boys,59.87,5,Ricky Cuellar,Brownsville Pace,59.56,199.58,122.47,183.7,505.76,Single-ply,SBD,M
Boys,59.87,6,Marcus Ysaguirre,Donna,59.65,208.65,106.59,188.24,503.49,Single-ply,SBD,M
Boys,59.87,7,Kevin Hernandez,Floresville,59.87,183.7,120.2,170.1,474,Single-ply,SBD,M
Boys,59.87,8,Nicholas Garcia,San Antonio Southside,59.87,185.97,97.52,183.7,467.2,Single-ply,SBD,M
Boys,59.87,DQ,Robert Saenz,Sharyland Pioneer,56.84,,,,,Single-ply,SBD,M
Boys,59.87,DQ,Demetrio Guerrero,Edinburg,59.78,183.7,,,,Single-ply,SBD,M
Boys,59.87,DQ,Felix Rizo,Brownsville Pace,58.83,,,,,Single-ply,SBD,M
Boys,67.13,1,Jonathan Zelaya,Victoria East,65.63,274.42,142.88,229.06,646.37,Single-ply,SBD,M
Boys,67.13,2,Hugo Salas,Brownsville Lopez,65.82,256.28,133.81,231.33,621.42,Single-ply,SBD,M
Boys,67.13,3,Abraham Hernandez,La Joya Palmview,64.77,240.4,115.67,249.48,605.55,Single-ply,SBD,M
Boys,67.13,4,Brandon Palomares,Seguin,66.27,235.87,124.74,242.67,603.28,Single-ply,SBD,M
Boys,67.13,5,Josue Tobias,Laredo Nixon,66.5,222.26,142.88,238.14,603.28,Single-ply,SBD,M
Boys,67.13,6,Robert Alaniz,Weslaco East,66.68,217.72,129.27,226.8,573.79,Single-ply,SBD,M
Boys,67.13,7,Freddy Gonzalez,Weslaco East,67.09,213.19,151.95,208.65,573.79,Single-ply,SBD,M
Boys,67.13,8,Jose Cumpean,Port Lavaca Calhoun,67.13,226.8,136.08,208.65,571.53,Single-ply,SBD,M
Boys,67.13,9,Sergio Guerrero,Mission Veterans Memorial,67.13,226.8,115.67,213.19,555.65,Single-ply,SBD,M
Boys,67.13,10,Cody Elizalde,Seguin,65.5,213.19,115.67,215.46,544.31,Single-ply,SBD,M
Boys,67.13,11,Jose Porras,Brownsville Hanna,66.41,215.46,106.59,222.26,544.31,Single-ply,SBD,M
Boys,67.13,12,Cristian Alvarado,Corpus Christi Calallen,65,206.38,111.13,217.72,535.24,Single-ply,SBD,M
Boys,67.13,DQ,Michael Chavez,Brownsville Hanna,66.68,,,,,Single-ply,SBD,M
Boys,74.84,1,Daniel Leita,Port Lavaca Calhoun,74.43,283.5,158.76,290.3,732.55,Single-ply,SBD,M
Boys,74.84,2,Jacob Gracia,Weslaco,74.43,258.55,136.08,272.16,666.78,Single-ply,SBD,M
Boys,74.84,3,Alex Gonzales,Alice,71.8,251.74,136.08,238.14,625.96,Single-ply,SBD,M
Boys,74.84,4,John Salazar,Los Fresnos,74.21,233.6,136.08,249.48,619.15,Single-ply,SBD,M
Boys,74.84,5,Jorge Almanza,Edinburg Economedes,73.62,235.87,142.88,233.6,612.35,Single-ply,SBD,M
Boys,74.84,6,Jorge Cavazos,Mercedes,71.94,240.4,145.15,217.72,603.28,Single-ply,SBD,M
Boys,74.84,7,Sean De La Garza,Mission Veterans Memorial,73.21,226.8,158.76,215.46,601.01,Single-ply,SBD,M
Boys,74.84,8,Ramses Ramos,Brownsville Lopez,72.85,251.74,113.4,233.6,598.74,Single-ply,SBD,M
Boys,74.84,9,Francisco Marin,Weslaco,70.81,235.87,136.08,219.99,591.94,Single-ply,SBD,M
Boys,74.84,10,Ricardo Miranda,Los Fresnos,74.84,213.19,129.27,249.48,591.94,Single-ply,SBD,M
Boys,74.84,11,Nick Gonzales,Floresville,73.94,213.19,133.81,242.67,589.67,Single-ply,SBD,M
Boys,74.84,12,Leonardo Diaz,Brownsville Lopez,73.21,238.14,131.54,204.12,573.79,Single-ply,SBD,M
Boys,82.1,1,Gabriel Cantu,Corpus Christi Calallen,78.97,281.23,161.03,303.91,746.16,Single-ply,SBD,M
Boys,82.1,2,Gio Martinez,Brownsville Porter,81.01,258.55,158.76,272.16,689.46,Single-ply,SBD,M
Boys,82.1,3,Chayce Grevey,Victoria West,80.83,235.87,156.49,256.28,648.64,Single-ply,SBD,M
Boys,82.1,4,Adrian Sustaita,Castroville Medina Valley,82.1,249.48,149.69,249.48,648.64,Single-ply,SBD,M
Boys,82.1,5,Diego Hernandez,La Joya Palmview,77.88,254.01,156.49,226.8,637.3,Single-ply,SBD,M
Boys,82.1,6,Pablo Garza,Brownsville Pace,82.1,226.8,158.76,235.87,621.42,Single-ply,SBD,M
Boys,82.1,7,Ken'twaun Freeman,Victoria West,81.42,226.8,133.81,251.74,612.35,Single-ply,SBD,M
Boys,82.1,8,Angel Mendez,Edinburg,81.56,244.94,149.69,217.72,612.35,Single-ply,SBD,M
Boys,82.1,9,Eddie Galvan,Brownsville Hanna,80.29,249.48,129.27,219.99,598.74,Single-ply,SBD,M
Boys,82.1,10,John Acuna,Brownsville Porter,78.2,235.87,142.88,217.72,596.47,Single-ply,SBD,M
Boys,82.1,11,Justin Rodriguez,Corpus Christi Tuloso-Midway,81.87,244.94,129.27,219.99,594.21,Single-ply,SBD,M
Boys,82.1,12,Ryan Moreno,Los Fresnos,79.79,222.26,129.27,240.4,591.94,Single-ply,SBD,M
Boys,82.1,DQ,Alex Rivas,Seguin,79.97,235.87,133.81,,,Single-ply,SBD,M
Boys,89.81,1,Roy Pedraza,Weslaco East,86.68,283.5,183.7,260.82,728.02,Single-ply,SBD,M
Boys,89.81,2,Jesse Luna,Brownsville Lopez,88,269.89,154.22,276.69,700.8,Single-ply,SBD,M
Boys,89.81,3,Fernando Hernandez,La Joya Juarez-Lincoln,89.45,258.55,163.29,276.69,698.53,Single-ply,SBD,M
Boys,89.81,4,Trey Caballero,Weslaco,89.45,256.28,172.37,263.08,691.73,Single-ply,SBD,M
Boys,89.81,5,Nathan Silva,Brownsville Hanna,88.09,285.76,138.35,256.28,680.39,Single-ply,SBD,M
Boys,89.81,6,Obed Hernandez,Sharyland Pioneer,88.68,278.96,145.15,249.48,673.58,Single-ply,SBD,M
Boys,89.81,7,Federico Ruiz Jr,Corpus Christi Calallen,88.86,267.62,136.08,267.62,671.32,Single-ply,SBD,M
Boys,89.81,8,David Cardenas,Brownsville Pace,89.13,272.16,142.88,240.4,655.44,Single-ply,SBD,M
Boys,89.81,9,Luis Guzman,San Antonio Southside,88.22,260.82,154.22,231.33,646.37,Single-ply,SBD,M
Boys,89.81,10,Ernesto Preciado,Pharr Valley View,88.95,249.48,158.76,235.87,644.1,Single-ply,SBD,M
Boys,89.81,11,Hagen Brown,Floresville,88.59,249.48,151.95,233.6,635.03,Single-ply,SBD,M
Boys,89.81,12,Omar Salazar,Brownsville Lopez,88.9,265.35,133.81,235.87,635.03,Single-ply,SBD,M
Boys,99.79,1,Leo Gonzalez,Brownsville Hanna,96.8,299.37,158.76,299.37,757.5,Single-ply,SBD,M
Boys,99.79,2,Ricky Arreola,Brownsville Hanna,96.89,312.98,181.44,256.28,750.7,Single-ply,SBD,M
Boys,99.79,3,Eddie Garcia,Port Lavaca Calhoun,98.97,294.84,176.9,274.42,746.16,Single-ply,SBD,M
Boys,99.79,4,Daniel Ramos,Brownsville Lopez,98.7,294.84,185.97,258.55,739.36,Single-ply,SBD,M
Boys,99.79,5,George Villela,Gregory-Portland,98.11,292.57,165.56,249.48,707.6,Single-ply,SBD,M
Boys,99.79,6,Christian Oviedo,Victoria East,98.16,269.89,176.9,233.6,680.39,Single-ply,SBD,M
Boys,99.79,7,Christian Godinez,Brownsville Lopez,99.2,278.96,161.03,240.4,680.39,Single-ply,SBD,M
Boys,99.79,8,Osvaldo Gomez,Edinburg Economedes,98.79,256.28,158.76,254.01,669.05,Single-ply,SBD,M
Boys,99.79,9,Carlos Zarate,Mission Sharyland,96.89,254.01,149.69,254.01,657.71,Single-ply,SBD,M
Boys,99.79,10,Ricky Cardoza,Weslaco East,98.84,249.48,172.37,235.87,657.71,Single-ply,SBD,M
Boys,99.79,11,Noah Cisneros,McAllen Memorial,99.47,260.82,156.49,215.46,632.76,Single-ply,SBD,M
Boys,99.79,DQ,Mateo Garcia,San Antonio Memorial,98.47,285.76,138.35,,,Single-ply,SBD,M
Boys,109.77,1,Juan Martinez,Donna North,107.95,306.17,161.03,290.3,757.5,Single-ply,SBD,M
Boys,109.77,2,Adrian Arredondo,Brownsville Hanna,108.45,310.71,190.51,256.28,757.5,Single-ply,SBD,M
Boys,109.77,3,Sam Rodriguez,La Joya,109.5,297.1,183.7,260.82,741.62,Single-ply,SBD,M
Boys,109.77,4,Jacob Banda,Weslaco East,108.59,276.69,163.29,274.42,714.41,Single-ply,SBD,M
Boys,109.77,5,Adrien Martinez,Brownsville Hanna,107.37,328.85,140.61,242.67,712.14,Single-ply,SBD,M
Boys,109.77,6,Cody Alvarado,Edcouch-Elsa,109.77,294.84,147.42,244.94,687.19,Single-ply,SBD,M
Boys,109.77,7,Leo Colom,Port Lavaca Calhoun,103.87,263.08,151.95,269.89,684.92,Single-ply,SBD,M
Boys,109.77,8,Marcos Garza,Edinburg Economedes,106.91,272.16,163.29,249.48,684.92,Single-ply,SBD,M
Boys,109.77,9,Gus Silva,Donna,108.68,285.76,163.29,231.33,680.39,Single-ply,SBD,M
Boys,109.77,10,Francisco Torrecilla,Laredo Nixon,107.27,272.16,131.54,263.08,666.78,Single-ply,SBD,M
Boys,109.77,11,Aliver Chapa,La Joya Juarez-Lincoln,105.19,258.55,163.29,235.87,657.71,Single-ply,SBD,M
Boys,124.74,1,Jacob Rodriguez,Corpus Christi Tuloso-Midway,124.19,378.75,201.85,274.42,855.02,Single-ply,SBD,M
Boys,124.74,2,Fabian Castillo,Edinburg Economedes,122.15,299.37,190.51,265.35,755.23,Single-ply,SBD,M
Boys,124.74,3,Pablo Trevino,Edinburg Vela,122.47,288.03,174.63,272.16,734.82,Single-ply,SBD,M
Boys,124.74,4,Jason Suniga,Victoria West,120.2,317.51,192.78,219.99,730.28,Single-ply,SBD,M
Boys,124.74,5,Jorge Soto,Edcouch-Elsa,116.98,278.96,192.78,247.21,718.94,Single-ply,SBD,M
Boys,124.74,6,Christian Castro,Brownsville Pace,124.74,294.84,158.76,260.82,714.41,Single-ply,SBD,M
Boys,124.74,7,Jonathan Ojeda,Brownsville Pace,120.93,294.84,158.76,249.48,703.07,Single-ply,SBD,M
Boys,124.74,8,Justin Garza,Brownsville Rivera,122.61,317.51,136.08,249.48,703.07,Single-ply,SBD,M
Boys,124.74,9,Andres Zuniga,PSJA North,122.83,294.84,172.37,235.87,703.07,Single-ply,SBD,M
Boys,124.74,10,Luis Salinas,Rio Grande City,120.56,254.01,170.1,254.01,678.12,Single-ply,SBD,M
Boys,124.74,11,Jorge Flores,San Antonio Memorial,124.15,281.23,145.15,235.87,662.24,Single-ply,SBD,M
Boys,124.74,DQ,Austin Sulewski,Brownsville Pace,123.15,,,,,Single-ply,SBD,M
Boys,124.74+,1,Josh Trevino,Brownsville Lopez,141.11,340.19,197.31,288.03,825.54,Single-ply,SBD,M
Boys,124.74+,2,Eli Olivo,Donna North,142.47,317.51,226.8,249.48,793.79,Single-ply,SBD,M
Boys,124.74+,3,Brandon Perez,Weslaco,171.91,308.44,192.78,272.16,773.37,Single-ply,SBD,M
Boys,124.74+,4,Alfredo Martinez Lara,Los Fresnos,136.4,324.32,213.19,233.6,771.11,Single-ply,SBD,M
Boys,124.74+,5,Michael Vega,McAllen Rowe,141.66,310.71,206.38,215.46,732.55,Single-ply,SBD,M
Boys,124.74+,6,Odie De La Rosa,Castroville Medina Valley,151.09,288.03,185.97,251.74,725.75,Single-ply,SBD,M
Boys,124.74+,7,Sebastian Garcia,Brownsville Hanna,133.17,288.03,165.56,240.4,694,Single-ply,SBD,M
Boys,124.74+,8,Malakye Adams,Victoria East,124.92,272.16,183.7,226.8,682.66,Single-ply,SBD,M
Boys,124.74+,9,Mike Kessler,Castroville Medina Valley,148.51,317.51,154.22,208.65,680.39,Single-ply,SBD,M
Boys,124.74+,10,Drew Hathaway,Victoria West,128.32,249.48,185.97,229.06,664.51,Single-ply,SBD,M
Boys,124.74+,DQ,Jose Salvador,Laredo United South,137.57,283.5,,,,Single-ply,SBD,M
