Division,WeightClassKg,Place,Name,Team,BodyweightKg,Best3SquatKg,Best3BenchKg,Best3DeadliftKg,TotalKg,Equipment,Event,Sex
Boys,51.71,1,Damian Tamez,Fort Worth Boswell,48.63,99.79,49.9,124.74,274.42,Single-ply,SBD,M
Boys,51.71,2,Kyle Hendrix,Weatherford,51.26,92.99,63.5,88.45,244.94,Single-ply,SBD,M
Boys,59.87,1,DeLonte Christmas,Fort Worth Boswell,55.88,136.08,74.84,127.01,337.93,Single-ply,SBD,M
Boys,59.87,1,Fred Brownlee,Weatherford,59.42,145.15,86.18,158.76,390.09,Single-ply,SBD,M
Boys,59.87,2,Nick Thomas #4,Weatherford,58.65,136.08,70.31,140.61,347,Single-ply,SBD,M
Boys,59.87,3,Paul Espinoza,Fort Worth Boswell,58.06,117.93,63.5,136.08,317.51,Single-ply,SBD,M
Boys,59.87,4,Zack Bodine,Weatherford,56.61,102.06,79.38,104.33,285.76,Single-ply,SBD,M
Boys,59.87,5,Matt Salinas,Fort Worth Boswell,58.06,99.79,56.7,122.47,278.96,Single-ply,SBD,M
Boys,59.87,6,John Ware,Weatherford,59.87,,58.97,108.86,167.83,Single-ply,BD,M
Boys,74.84,1,Kyius McNeal,Fort Worth Boswell,67.22,181.44,97.52,199.58,478.54,Single-ply,SBD,M
Boys,67.13,2,Tre Kindle,Fort Worth Boswell,63.32,163.29,95.25,199.58,458.13,Single-ply,SBD,M
Boys,74.84,3,Gage McQuade,Fort Worth Boswell,67.31,181.44,104.33,163.29,449.06,Single-ply,SBD,M
Boys,67.13,4,Ricardo Camas,Weatherford,66.22,158.76,102.06,170.1,430.91,Single-ply,SBD,M
Boys,67.13,5,Eugene Geis,Granbury,62.73,145.15,79.38,158.76,383.29,Single-ply,SBD,M
Boys,67.13,6,Travis Donahue,Granbury,67.13,133.81,97.52,151.95,383.29,Single-ply,SBD,M
Boys,67.13,7,Matt Tornik,Granbury,66.77,102.06,72.57,120.2,294.84,Single-ply,SBD,M
Boys,67.13,8,Kendall McDonald,Weatherford,62.32,127.01,,136.08,263.08,Single-ply,SD,M
Boys,82.1,1,DJ Allen,Fort Worth Boswell,75.02,213.19,108.86,204.12,526.17,Single-ply,SBD,M
Boys,74.84,2,Dusty Schauer,Weatherford,70.85,174.63,92.99,183.7,451.32,Single-ply,SBD,M
Boys,74.84,3,Draven Pointer,Weatherford,72.94,161.03,104.33,183.7,449.06,Single-ply,SBD,M
Boys,74.84,4,Manuel Rosas,Weatherford,68.76,136.08,104.33,145.15,385.55,Single-ply,SBD,M
Boys,74.84,5,Sam Allen,Granbury,73.03,142.88,88.45,154.22,385.55,Single-ply,SBD,M
Boys,74.84,6,Joel Velencia,Granbury,73.16,115.67,86.18,142.88,344.73,Single-ply,SBD,M
Boys,82.1,1,Dustin Martinez,Fort Worth Boswell,81.01,188.24,136.08,192.78,517.1,Single-ply,SBD,M
Boys,82.1,2,Colton Humphrey,Fort Worth Boswell,80.74,161.03,106.59,192.78,460.4,Single-ply,SBD,M
Boys,82.1,3,Daniel Valdez,Granbury,80.33,190.51,88.45,176.9,455.86,Single-ply,SBD,M
Boys,82.1,4,Jesse Valdez,Granbury,76.2,188.24,90.72,165.56,444.52,Single-ply,SBD,M
Boys,82.1,5,Cody Trahan,Fort Worth Boswell,80.92,165.56,106.59,158.76,430.91,Single-ply,SBD,M
Boys,82.1,6,Anthony Sanchez,Fort Worth Boswell,76.48,163.29,104.33,161.03,428.64,Single-ply,SBD,M
Boys,82.1,7,Derek Johnson,Fort Worth Boswell,78.2,142.88,83.91,149.69,376.48,Single-ply,SBD,M
Boys,89.81,1,Garrett Hadley,Weatherford,86.82,181.44,117.93,195.04,494.42,Single-ply,SBD,M
Boys,89.81,2,Wesley May,Weatherford,88,170.1,104.33,190.51,464.93,Single-ply,SBD,M
Boys,89.81,3,Chase Shipman,Granbury,89.36,145.15,104.33,181.44,430.91,Single-ply,SBD,M
Boys,89.81,4,Payton Gilmore,Granbury,87,142.88,74.84,172.37,390.09,Single-ply,SBD,M
Boys,89.81,5,James Milson,Granbury,83.73,,92.99,165.56,258.55,Single-ply,BD,M
Boys,99.79,1,Clayton Hensley,Weatherford,98.34,208.65,149.69,224.53,582.87,Single-ply,SBD,M
Boys,99.79,2,Kent Sanner,Weatherford,97.57,190.51,122.47,208.65,521.63,Single-ply,SBD,M
Boys,99.79,3,Justin Sanchez,Fort Worth Boswell,95.25,190.51,113.4,204.12,508.02,Single-ply,SBD,M
Boys,99.79,4,Jason Washington,Weatherford,97.66,167.83,120.2,167.83,455.86,Single-ply,SBD,M
Boys,99.79,5,Peyton Stierwalt,Fort Worth Boswell,93.71,163.29,90.72,185.97,439.98,Single-ply,SBD,M
Boys,99.79,6,Levi Miller,Weatherford,91.63,149.69,104.33,149.69,403.7,Single-ply,SBD,M
Boys,99.79,7,Wyatt Everett,Granbury,91.04,136.08,95.25,149.69,381.02,Single-ply,SBD,M
Boys,99.79,8,Roy Buchanan,Granbury,99.34,,92.99,149.69,242.67,Single-ply,BD,M
Boys,99.79,9,Brendon Seago,Granbury,99.79,,83.91,124.74,208.65,Single-ply,BD,M
Boys,109.77,1,Jay Powell,Weatherford,104.55,213.19,131.54,208.65,553.38,Single-ply,SBD,M
Boys,109.77,2,Zach Applewhite,Fort Worth Boswell,107.05,188.24,147.42,188.24,523.9,Single-ply,SBD,M
Boys,109.77,3,Landon Lambert,Granbury,108.95,181.44,113.4,199.58,494.42,Single-ply,SBD,M
Boys,109.77,4,Antonio Cansino,Weatherford,109.36,197.31,92.99,188.24,478.54,Single-ply,SBD,M
Boys,109.77,5,Brody Maples,Fort Worth Boswell,108.86,181.44,108.86,165.56,455.86,Single-ply,SBD,M
Boys,109.77,6,Trevor Harris,Weatherford,107.95,142.88,90.72,142.88,376.48,Single-ply,SBD,M
Boys,109.77,7,Alex Balboa,Granbury,104.73,172.37,111.13,,283.5,Single-ply,SB,M
Boys,124.74,1,Ruby Martinez,Fort Worth Boswell,111.58,204.12,124.74,190.51,519.36,Single-ply,SBD,M
Boys,124.74,2,Brendon Raymond,Weatherford,117.21,158.76,115.67,172.37,446.79,Single-ply,SBD,M
Boys,124.74,3,Jordon Papke,Granbury,117.93,163.29,104.33,158.76,426.38,Single-ply,SBD,M
Boys,124.74,4,Zach Campbell,Fort Worth Boswell,122.92,145.15,92.99,163.29,401.43,Single-ply,SBD,M
Boys,124.74,5,Ben Desrochers,Weatherford,116.57,136.08,88.45,127.01,351.53,Single-ply,SBD,M
Boys,124.74+,1,Jace Ford,Weatherford,131.77,231.33,131.54,215.46,578.33,Single-ply,SBD,M
Boys,124.74+,2,Jesse Ioanis,Fort Worth Boswell,131.54,217.72,108.86,183.7,510.29,Single-ply,SBD,M
