Division,WeightClassKg,Place,Name,Team,BodyweightKg,Best3SquatKg,Best3BenchKg,Best3DeadliftKg,TotalKg,Equipment,Event,Sex
Girls,44.23,1,Yesenia Pena,Del Rio,43.36,117.93,61.23,104.33,283.5,Single-ply,SBD,F
Girls,44.23,2,Amber Flores,Uvalde,43,95.25,36.29,102.06,233.6,Single-ply,SBD,F
Girls,44.23,3,Aaliyah Garcia,Crystal City,43.91,83.91,38.56,104.33,226.8,Single-ply,SBD,F
Girls,44.23,4,Sandra Paul,Beeville Jones,38.46,83.91,27.22,88.45,199.58,Single-ply,SBD,F
Girls,44.23,5,Merisa Maldonado,Uvalde,40.91,65.77,27.22,81.65,174.63,Single-ply,SBD,F
Girls,44.23,6,Priscilla Herrera,Laredo Cigarroa,41.37,54.43,27.22,61.23,142.88,Single-ply,SBD,F
Girls,44.23,DQ,Jessica Gallegos,Laredo Johnson,43.36,,,,,Single-ply,SBD,F
Girls,47.85,1,Yvette Flores,Crystal City,47.85,124.74,68.04,124.74,317.51,Single-ply,SBD,F
Girls,47.85,2,Emily Cartwright,San Antonio East Central,44.63,83.91,34.02,92.99,210.92,Single-ply,SBD,F
Girls,47.85,3,Janet de la Sancha,Lytle,46.18,88.45,34.02,86.18,208.65,Single-ply,SBD,F
Girls,47.85,4,Celeste Correa,Carrizo Springs,47.26,72.57,31.75,90.72,195.04,Single-ply,SBD,F
Girls,47.85,5,Katherine Rodriguez,Carrizo Springs,45.72,65.77,29.48,92.99,188.24,Single-ply,SBD,F
Girls,47.85,6,Tiffany Benavides,Carrizo Springs,47.36,56.7,29.48,81.65,167.83,Single-ply,SBD,F
Girls,47.85,DQ,Sidney Knight,Marion,47.63,,,,,Single-ply,SBD,F
Girls,47.85,DQ,Selena Williams,Del Rio,45.36,,,,,Single-ply,SBD,F
Girls,47.85,DQ,Alexis Martinez,Somerset,47.63,,,,,Single-ply,SBD,F
Girls,47.85,DQ,Keegan Shinn,San Antonio Southwest,47.36,,,,,Single-ply,SBD,F
Girls,47.85,DQ,Glenda Hernandez,Uvalde,44.54,,,,,Single-ply,SBD,F
Girls,47.85,DQ,Makenzie Gregg,Marion,47.63,,,,,Single-ply,SBD,F
Girls,47.85,DQ,Victoria Garza,Devine,46.45,77.11,,,,Single-ply,SBD,F
Girls,47.85,DQ,Samantha Solis,Laredo Cigarroa,45.27,47.63,,,,Single-ply,SBD,F
Girls,47.85,DQ,Chrissy Garcia,Lytle,46.45,,,,,Single-ply,SBD,F
Girls,47.85,DQ,Kaitlyn Pelitire,Beeville Jones,46.81,131.54,,,,Single-ply,SBD,F
Girls,47.85,DQ,Kaylani Avila,Crystal City,47.63,83.91,,,,Single-ply,SBD,F
Girls,47.85,DQ,Isanelli Martinez,Crystal City,46.27,45.36,,,,Single-ply,SBD,F
Girls,51.94,1,Julissa Ortiz,Beeville Jones,51.44,138.35,74.84,158.76,371.95,Single-ply,SBD,F
Girls,51.94,2,Catrina Garcia,Pearsall,51.89,142.88,65.77,133.81,342.46,Single-ply,SBD,F
Girls,51.94,3,Sydney Martinez,Crystal City,51.94,124.74,56.7,140.61,322.05,Single-ply,SBD,F
Girls,51.94,4,Karina Garay,Carrizo Springs,50.71,122.47,70.31,122.47,315.25,Single-ply,SBD,F
Girls,51.94,5,Marlene Rodriguez,San Antonio Southwest,51.89,117.93,47.63,136.08,301.64,Single-ply,SBD,F
Girls,51.94,6,Sylvia Gil,San Antonio Kennedy,51.07,113.4,63.5,122.47,299.37,Single-ply,SBD,F
Girls,51.94,7,Brooke Brown,Floresville,49.9,117.93,45.36,124.74,288.03,Single-ply,SBD,F
Girls,51.94,8,Nallely Gallegos,Laredo Johnson,48.08,72.57,40.82,102.06,215.46,Single-ply,SBD,F
Girls,51.94,9,Skylar Shaw,Marion,51.26,68.04,34.02,92.99,195.04,Single-ply,SBD,F
Girls,51.94,10,Danie Gerardo,Brackettville Brackett,48.17,83.91,31.75,72.57,188.24,Single-ply,SBD,F
Girls,51.94,DQ,Patricia Gembler,Bandera,51.71,,,,,Single-ply,SBD,F
Girls,51.94,DQ,Breanna Adams,Bastrop,51.71,,,,,Single-ply,SBD,F
Girls,51.94,DQ,Monique Covarrubias,Lytle,51.71,,,,,Single-ply,SBD,F
Girls,51.94,DQ,Mariela Davila,San Antonio Southwest,51.71,,,,,Single-ply,SBD,F
Girls,51.94,DQ,Ericka Garcia,Lytle,51.71,,,,,Single-ply,SBD,F
Girls,51.94,DQ,Yasneea Galvan,Laredo Cigarroa,48.81,,,,,Single-ply,SBD,F
Girls,56.02,1,Aly Urrabazo,Crystal City,55.7,136.08,74.84,133.81,344.73,Single-ply,SBD,F
Girls,56.02,2,Haley Sharp,Beeville Jones,55.07,145.15,65.77,122.47,333.39,Single-ply,SBD,F
Girls,56.02,3,Amanda Perez,Laredo Nixon,54.98,102.06,61.23,117.93,281.23,Single-ply,SBD,F
Girls,56.02,4,Sophia Chavez,Uvalde,55.97,111.13,45.36,115.67,272.16,Single-ply,SBD,F
Girls,56.02,5,Erica Hewtty,Devine,55.79,106.59,54.43,99.79,260.82,Single-ply,SBD,F
Girls,56.02,6,Alessandra Vargas,San Antonio Southwest,54.25,102.06,47.63,99.79,249.48,Single-ply,SBD,F
Girls,56.02,7,Tori Luce,Brackettville Brackett,54.98,97.52,49.9,102.06,249.48,Single-ply,SBD,F
Girls,56.02,8,Norma Martinez,Laredo Johnson,54.98,92.99,43.09,111.13,247.21,Single-ply,SBD,F
Girls,56.02,9,Celine Samarripa,Devine,54.61,88.45,52.16,102.06,242.67,Single-ply,SBD,F
Girls,56.02,10,Dominique Esquivel,Devine,55.79,88.45,52.16,99.79,240.4,Single-ply,SBD,F
Girls,56.02,11,Caitlyn Krueger,Marion,54.79,86.18,36.29,97.52,219.99,Single-ply,SBD,F
Girls,56.02,12,Larissa Gonzales,Carrizo Springs,55.79,65.77,38.56,97.52,201.85,Single-ply,SBD,F
Girls,56.02,13,Ariana Perez,Uvalde,53.43,79.38,34.02,81.65,195.04,Single-ply,SBD,F
Girls,56.02,14,Ashleigh Garza,Laredo Nixon,54.61,68.04,34.02,83.91,185.97,Single-ply,SBD,F
Girls,56.02,DQ,Megan Walton,Bastrop,55.79,,,,,Single-ply,SBD,F
Girls,56.02,DQ,Kk Adams,Bandera,55.79,,,,,Single-ply,SBD,F
Girls,56.02,DQ,Taylor Martinez,San Antonio Kennedy,55.79,,,,,Single-ply,SBD,F
Girls,56.02,DQ,Destiny Andrews,San Antonio Memorial,55.79,,,,,Single-ply,SBD,F
Girls,56.02,DQ,Martha Sanchez,San Antonio Memorial,55.79,,,,,Single-ply,SBD,F
Girls,56.02,DQ,Jessandra Gamble,San Antonio Memorial,55.79,,,,,Single-ply,SBD,F
Girls,56.02,DQ,Belen Morales,San Antonio Kennedy,52.3,124.74,63.5,,,Single-ply,SBD,F
Girls,56.02,DQ,Allison Bartell,Floresville,55.25,,,,,Single-ply,SBD,F
Girls,60.1,1,Pamela Avila,Crystal City,57.88,124.74,58.97,124.74,308.44,Single-ply,SBD,F
Girls,60.1,2,Kelly Huerta,Carrizo Springs,58.69,115.67,63.5,117.93,297.1,Single-ply,SBD,F
Girls,60.1,3,Honey Brown,San Antonio Southwest,58.15,108.86,43.09,113.4,265.35,Single-ply,SBD,F
Girls,60.1,4,Mercedes Hernandez,San Antonio East Central,56.61,99.79,47.63,113.4,260.82,Single-ply,SBD,F
Girls,60.1,5,Codee Baker,Floresville,59.6,108.86,47.63,97.52,254.01,Single-ply,SBD,F
Girls,60.1,6,Ivanna Contreras,San Antonio East Central,59.6,97.52,54.43,102.06,254.01,Single-ply,SBD,F
Girls,60.1,7,Ashlynn Haese,Marion,59.6,92.99,47.63,111.13,251.74,Single-ply,SBD,F
Girls,60.1,8,Ashley Laubach,Marion,57.33,99.79,34.02,106.59,240.4,Single-ply,SBD,F
Girls,60.1,9,Diana Ferrell,San Antonio Southwest,59.78,90.72,45.36,104.33,240.4,Single-ply,SBD,F
Girls,60.1,10,Darian Leija,San Antonio East Central,57.06,86.18,47.63,102.06,235.87,Single-ply,SBD,F
Girls,60.1,11,Cora Christensen,Castroville Medina Valley,59.78,90.72,38.56,102.06,231.33,Single-ply,SBD,F
Girls,60.1,12,Janevaeh Rodriquez,Castroville Medina Valley,59.96,77.11,45.36,104.33,226.8,Single-ply,SBD,F
Girls,60.1,13,Dellanie Flemming,Castroville Medina Valley,56.97,88.45,45.36,90.72,224.53,Single-ply,SBD,F
Girls,60.1,14,Demi Douglas,San Antonio Memorial,56.88,63.5,38.56,88.45,190.51,Single-ply,SBD,F
Girls,60.1,15,Ruiz Daniella,Laredo Nixon,59.06,65.77,31.75,90.72,188.24,Single-ply,SBD,F
Girls,60.1,16,Natalie Lira #2,Del Rio,56.15,56.7,31.75,88.45,176.9,Single-ply,SBD,F
Girls,60.1,DQ,Julia Gosselink,Bastrop,59.87,,,,,Single-ply,SBD,F
Girls,60.1,DQ,Beileigh Toenes,Bandera,59.87,,,,,Single-ply,SBD,F
Girls,60.1,DQ,Fernanda Salazar,San Antonio Memorial,59.87,,,,,Single-ply,SBD,F
Girls,60.1,DQ,Chelsea Mendez,San Antonio Kennedy,59.87,,,,,Single-ply,SBD,F
Girls,60.1,DQ,Joanna Arrendondo,Crystal City,58.42,,,,,Single-ply,SBD,F
Girls,67.36,1,Bethany Martinez,Bandera,65.41,138.35,83.91,161.03,383.29,Single-ply,SBD,F
Girls,67.36,2,Christy Alvarez,Crystal City,62.41,136.08,72.57,145.15,353.8,Single-ply,SBD,F
Girls,67.36,3,Kianna Lara,Crystal City,66.68,149.69,72.57,124.74,347,Single-ply,SBD,F
Girls,67.36,4,Vivian Nunez,Crystal City,66.95,136.08,68.04,124.74,328.85,Single-ply,SBD,F
Girls,67.36,5,Madison Luce,Brackettville Brackett,62.6,124.74,54.43,120.2,299.37,Single-ply,SBD,F
Girls,67.36,6,Emory Menchaca,Somerset,64.5,90.72,81.65,120.2,292.57,Single-ply,SBD,F
Girls,67.36,7,Kiana Monreal,Devine,64.32,113.4,45.36,129.27,288.03,Single-ply,SBD,F
Girls,67.36,8,Crystal Carrillo,Laredo Cigarroa,66.32,111.13,49.9,124.74,285.76,Single-ply,SBD,F
Girls,67.36,9,Elizabeth Alejandro,Carrizo Springs,65.32,113.4,54.43,111.13,278.96,Single-ply,SBD,F
Girls,67.36,10,Esperansa Jaso,Brackettville Brackett,60.6,113.4,56.7,106.59,276.69,Single-ply,SBD,F
Girls,67.36,11,Alyssa Aicher,Floresville,67.31,102.06,54.43,117.93,274.42,Single-ply,SBD,F
Girls,67.36,12,Inez Barfield,San Antonio Southwest,62.6,95.25,47.63,122.47,265.35,Single-ply,SBD,F
Girls,67.36,13,Jennifer Montellano,Crystal City,64.77,104.33,56.7,102.06,263.08,Single-ply,SBD,F
Girls,67.36,14,Alexandra Torres-Mercardo,Castroville Medina Valley,67.13,97.52,52.16,106.59,256.28,Single-ply,SBD,F
Girls,67.36,15,Uilani Koani Bonnelycke,Lytle,62.78,113.4,43.09,90.72,247.21,Single-ply,SBD,F
Girls,67.36,16,Paige Sheppard,Castroville Medina Valley,65.68,102.06,45.36,99.79,247.21,Single-ply,SBD,F
Girls,67.36,17,Sammie Portman,San Antonio East Central,67.31,92.99,49.9,102.06,244.94,Single-ply,SBD,F
Girls,67.36,18,Kelsi Pfanzelt,Castroville Medina Valley,64.77,81.65,49.9,104.33,235.87,Single-ply,SBD,F
Girls,67.36,19,Madison Sanchez,Somerset,60.42,83.91,47.63,97.52,229.06,Single-ply,SBD,F
Girls,67.36,DQ,Angel Romero,San Antonio Kennedy,67.13,,,,,Single-ply,SBD,F
Girls,67.36,DQ,Lexie Martinez,Uvalde,67.13,,,,,Single-ply,SBD,F
Girls,67.36,DQ,Heavenly Corpus,San Antonio Kennedy,67.13,,,,,Single-ply,SBD,F
Girls,67.36,DQ,Kortney Slagle,Bandera,67.13,,,,,Single-ply,SBD,F
Girls,67.36,DQ,Payton Seekatz,Bastrop,67.13,,,,,Single-ply,SBD,F
Girls,67.36,DQ,Robin Black,Floresville,67.13,,,,,Single-ply,SBD,F
Girls,67.36,DQ,Kerrigan Brown,San Antonio East Central,67.36,,,,,Single-ply,SBD,F
Girls,67.36,DQ,Bernadette Guerra,Pearsall,67.13,,,,,Single-ply,SBD,F
Girls,67.36,DQ,Mariah Amador,Lytle,67.13,,,,,Single-ply,SBD,F
Girls,67.36,DQ,Alexis Felan,Uvalde,62.6,,,,,Single-ply,SBD,F
Girls,67.36,DQ,Avery Contreras,Uvalde,65.05,120.2,49.9,,,Single-ply,SBD,F
Girls,67.36,DQ,Alondra Maldonado,Laredo Cigarroa,64.68,,,,,Single-ply,SBD,F
Girls,67.36,DQ,Katherine Maldonado,Laredo Johnson,65.77,102.06,,,,Single-ply,SBD,F
Girls,67.36,DQ,Melanie Garcia,Laredo Johnson,63.96,,,,,Single-ply,SBD,F
Girls,67.36,DQ,Ally Elkins,Bandera,65.77,81.65,38.56,,,Single-ply,SBD,F
Girls,67.36,DQ,Tess Dennis,Bastrop,61.05,,,,,Single-ply,SBD,F
Girls,67.36,DQ,Madison Shone,Bastrop,67.13,,,,,Single-ply,SBD,F
Girls,67.36,DQ,Ruby San Miguel,Castroville Medina Valley,60.69,,,,,Single-ply,SBD,F
Girls,67.36,DQ,Kaylinn Garcia,Crystal City,63.32,63.5,,,,Single-ply,SBD,F
Girls,75.07,1,Destiny Andrade,Castroville Medina Valley,73.21,147.42,72.57,131.54,351.53,Single-ply,SBD,F
Girls,75.07,2,Molly Fuller,Devine,72.76,136.08,70.31,136.08,342.46,Single-ply,SBD,F
Girls,75.07,3,Lauryn Botello,Beeville Jones,74.75,138.35,70.31,108.86,317.51,Single-ply,SBD,F
Girls,75.07,4,Ashley De La Cruz,Beeville Jones,73.12,122.47,65.77,120.2,308.44,Single-ply,SBD,F
Girls,75.07,5,Maria Bernal,Laredo Nixon,74.66,104.33,61.23,117.93,283.5,Single-ply,SBD,F
Girls,75.07,6,Destiny Barber,Bastrop,68.86,108.86,49.9,122.47,281.23,Single-ply,SBD,F
Girls,75.07,7,Marisa Rios,Lytle,73.21,115.67,54.43,108.86,278.96,Single-ply,SBD,F
Girls,75.07,8,Erika Moya,Laredo Cigarroa,74.12,115.67,47.63,115.67,278.96,Single-ply,SBD,F
Girls,75.07,9,Nadia Gonzales,Uvalde,67.95,115.67,47.63,113.4,276.69,Single-ply,SBD,F
Girls,75.07,10,Scarlette Roman,Uvalde,72.76,117.93,47.63,108.86,274.42,Single-ply,SBD,F
Girls,75.07,11,Rebecca Fowler,Devine,74.66,106.59,54.43,113.4,274.42,Single-ply,SBD,F
Girls,75.07,12,Bianca Jijon,Castroville Medina Valley,72.94,95.25,43.09,133.81,272.16,Single-ply,SBD,F
Girls,75.07,13,Victoria Villarreal,Somerset,70.49,68.04,63.5,136.08,267.62,Single-ply,SBD,F
Girls,75.07,14,Erika Prado,Pearsall,72.67,104.33,49.9,108.86,263.08,Single-ply,SBD,F
Girls,75.07,15,Kristen Lira,Carrizo Springs,71.03,90.72,45.36,117.93,254.01,Single-ply,SBD,F
Girls,75.07,16,Christine Carillo,Laredo Cigarroa,72.85,97.52,43.09,111.13,251.74,Single-ply,SBD,F
Girls,75.07,17,Madysen De Vorah,Somerset,74.93,90.72,58.97,102.06,251.74,Single-ply,SBD,F
Girls,75.07,18,Leia Gomez,Castroville Medina Valley,73.21,95.25,43.09,104.33,242.67,Single-ply,SBD,F
Girls,75.07,19,Abigail Suarez,Laredo Nixon,72.67,90.72,45.36,99.79,235.87,Single-ply,SBD,F
Girls,75.07,20,Marissa Aguilera,Castroville Medina Valley,68.86,81.65,43.09,90.72,215.46,Single-ply,SBD,F
Girls,75.07,21,Kaitlin Jones,Floresville,74.84,61.23,40.82,92.99,195.04,Single-ply,SBD,F
Girls,75.07,DQ,Madaelyn Zaragoza,Del Rio,68.04,,,,,Single-ply,SBD,F
Girls,75.07,DQ,Jessica Stein,Castroville Medina Valley,71.3,,,,,Single-ply,SBD,F
Girls,75.07,DQ,Kiana Lopez,Crystal City,75.07,,,,,Single-ply,SBD,F
Girls,75.07,DQ,Leah Alaniz,San Antonio East Central,75.07,,,,,Single-ply,SBD,F
Girls,75.07,DQ,Alondra Moralez,San Antonio Memorial,71.67,88.45,,,,Single-ply,SBD,F
Girls,75.07,DQ,Alysa Arizpe,Laredo Johnson,70.85,95.25,,,,Single-ply,SBD,F
Girls,82.33,1,Krystal Ortiz,Beeville Jones,81.19,170.1,106.59,183.7,460.4,Single-ply,SBD,F
Girls,82.33,2,Robyn Young,Marion,79.29,149.69,65.77,170.1,385.55,Single-ply,SBD,F
Girls,82.33,3,Gaby Santos,Del Rio,78.83,122.47,68.04,129.27,319.78,Single-ply,SBD,F
Girls,82.33,4,Sabrina Rackley,Devine,80.2,122.47,74.84,117.93,315.25,Single-ply,SBD,F
Girls,82.33,5,Connie Viesca,Pearsall,81.74,138.35,49.9,124.74,312.98,Single-ply,SBD,F
Girls,82.33,6,Sara Valencia,Beeville Jones,81.65,129.27,56.7,102.06,288.03,Single-ply,SBD,F
Girls,82.33,7,Dora Alonso,Floresville,81.92,111.13,45.36,129.27,285.76,Single-ply,SBD,F
Girls,82.33,8,Celeste Bustamante,San Antonio East Central,79.47,111.13,63.5,97.52,272.16,Single-ply,SBD,F
Girls,82.33,9,Liliana Silva,Laredo Johnson,77.47,111.13,43.09,111.13,265.35,Single-ply,SBD,F
Girls,82.33,10,Jalynn Felan,Castroville Medina Valley,79.47,95.25,47.63,108.86,251.74,Single-ply,SBD,F
Girls,82.33,11,Sally Telles,Pearsall,75.3,102.06,47.63,99.79,249.48,Single-ply,SBD,F
Girls,82.33,12,Bridney Martinez,Laredo Johnson,80.74,95.25,45.36,102.06,242.67,Single-ply,SBD,F
Girls,82.33,13,Hailey Batot,Bastrop,80.1,92.99,45.36,99.79,238.14,Single-ply,SBD,F
Girls,82.33,14,Victoria Berrera,Castroville Medina Valley,82.19,88.45,45.36,95.25,229.06,Single-ply,SBD,F
Girls,82.33,15,Kristen Center,Lytle,81.28,65.77,49.9,99.79,215.46,Single-ply,SBD,F
Girls,82.33,16,Krissy Rodriguez,Pearsall,78.65,70.31,49.9,77.11,197.31,Single-ply,SBD,F
Girls,82.33,DQ,Destiny Aleman,Somerset,82.1,,,,,Single-ply,SBD,F
Girls,82.33,DQ,Deja Morrow,Bandera,81.1,,,,,Single-ply,SBD,F
Girls,90.04,1,Irma Arredondo,Crystal City,89.72,197.31,83.91,158.76,439.98,Single-ply,SBD,F
Girls,90.04,2,Jacqueline Montejano,Del Rio,87.82,172.37,77.11,183.7,433.18,Single-ply,SBD,F
Girls,90.04,3,Amber Ramirez,Beeville Jones,88,165.56,92.99,154.22,412.77,Single-ply,SBD,F
Girls,90.04,4,Katelin Van Dong,Lytle,88.54,165.56,68.04,158.76,392.36,Single-ply,SBD,F
Girls,90.04,5,Avery Hiemer,Floresville,84.46,172.37,68.04,142.88,383.29,Single-ply,SBD,F
Girls,90.04,6,Mariana Botello,Beeville Jones,87.54,165.56,81.65,111.13,358.34,Single-ply,SBD,F
Girls,90.04,7,Yazmine Garcia,Pearsall,83.1,142.88,68.04,136.08,347,Single-ply,SBD,F
Girls,90.04,8,Reva Salazar,Beeville Jones,85.82,147.42,63.5,120.2,331.12,Single-ply,SBD,F
Girls,90.04,9,Page Cote,Devine,86,147.42,72.57,108.86,328.85,Single-ply,SBD,F
Girls,90.04,10,Destiny Terrazas,Brackettville Brackett,84.46,142.88,61.23,120.2,324.32,Single-ply,SBD,F
Girls,90.04,11,Callie Baker,Floresville,83.19,113.4,52.16,108.86,274.42,Single-ply,SBD,F
Girls,90.04,12,Alicia Chavarria,Laredo Johnson,84.37,108.86,45.36,106.59,260.82,Single-ply,SBD,F
Girls,90.04,13,Illea Lugo,Somerset,86.64,86.18,56.7,90.72,233.6,Single-ply,SBD,F
Girls,90.04,14,Leandra Sharp,Marion,83.82,86.18,36.29,99.79,222.26,Single-ply,SBD,F
Girls,90.04,15,Madison Bauwens,Marion,83.46,65.77,36.29,90.72,192.78,Single-ply,SBD,F
Girls,90.04,16,Danneli DeLeon,Laredo Nixon,87.72,63.5,27.22,97.52,188.24,Single-ply,SBD,F
Girls,90.04,DQ,Makailah Sarmiento,Hondo,89.81,,,,,Single-ply,SBD,F
Girls,90.04,DQ,DeAndra Burciaga,San Antonio Memorial,89.81,,,,,Single-ply,SBD,F
Girls,90.04,DQ,Crystal Sierra,San Antonio Kennedy,89.09,,,,,Single-ply,SBD,F
Girls,90.04,DQ,Lisa Ponce,Pearsall,89.81,,,,,Single-ply,SBD,F
Girls,90.04,DQ,Destiny Sepulveda,Crystal City,88.27,97.52,,,,Single-ply,SBD,F
Girls,100.02,1,Bernise Leija,Crystal City,93.98,185.97,70.31,149.69,405.97,Single-ply,SBD,F
Girls,100.02,2,Jessica Soto,Lytle,94.8,174.63,77.11,131.54,383.29,Single-ply,SBD,F
Girls,100.02,3,La Shawn Henry,Crystal City,98.52,127.01,61.23,117.93,306.17,Single-ply,SBD,F
Girls,100.02,4,Kassandra Huerta,San Antonio East Central,94.44,117.93,61.23,113.4,292.57,Single-ply,SBD,F
Girls,100.02,5,Nora Luina,Uvalde,95.89,113.4,63.5,115.67,292.57,Single-ply,SBD,F
Girls,100.02,6,Liliana Martinez,Carrizo Springs,91.17,115.67,52.16,115.67,283.5,Single-ply,SBD,F
Girls,100.02,7,Kendra Kluting,Laredo Nixon,92.44,106.59,49.9,106.59,263.08,Single-ply,SBD,F
Girls,100.02,8,Destiny Ramirez,Pearsall,94.8,77.11,49.9,102.06,229.06,Single-ply,SBD,F
Girls,100.02,9,Britney Molina,Laredo Johnson,92.17,74.84,34.02,108.86,217.72,Single-ply,SBD,F
Girls,100.02,DQ,Sabrina Moreno,San Antonio Kennedy,99.79,,,,,Single-ply,SBD,F
Girls,100.02+,1,Ebony Cortez,Floresville,125.46,206.38,113.4,179.17,498.95,Single-ply,SBD,F
Girls,100.02+,2,Jasmine Medina,San Antonio Southwest,111.67,158.76,77.11,151.95,387.82,Single-ply,SBD,F
Girls,100.02+,3,Raejaenicke Boisley,San Antonio Southwest,120.02,124.74,65.77,140.61,331.12,Single-ply,SBD,F
Girls,100.02+,4,Natalia Fernandez,Castroville Medina Valley,105.87,117.93,61.23,108.86,288.03,Single-ply,SBD,F
Girls,100.02+,5,Kya Guerra,Del Rio,130,108.86,38.56,108.86,256.28,Single-ply,SBD,F
Girls,100.02+,6,Ericka Valdivia,Laredo Nixon,112.13,92.99,45.36,111.13,249.48,Single-ply,SBD,F
Girls,100.02+,DQ,Lori Torres,Laredo Cigarroa,109.59,102.06,,,,Single-ply,SBD,F
Girls,,NS,Bridget Gonzales,Laredo Nixon,,,,,,Single-ply,SBD,F
Girls,,NS,Yajaira Martinez,Laredo Nixon,,,,,,Single-ply,SBD,F
Girls,,NS,Frida Marin,Laredo Nixon,,,,,,Single-ply,SBD,F
