Division,WeightClassKg,Place,Name,Team,BodyweightKg,Best3SquatKg,Best3BenchKg,Best3DeadliftKg,TotalKg,Equipment,Event,Sex,BirthDate
Girls,44.23,1,Arely Ortega,Edinburg Quest College Prep,43.91,127.01,61.23,122.47,310.71,Single-ply,SBD,F,
Girls,44.23,2,Valery Cano,Edinburg Idea College Prep,43.23,106.59,68.04,124.74,299.37,Single-ply,SBD,F,
Girls,44.23,3,Dora Patlan,Lytle,42.77,115.67,65.77,102.06,283.5,Single-ply,SBD,F,
Girls,44.23,4,Sophia Padilla,Natalia,43.05,95.25,45.36,117.93,258.55,Single-ply,SBD,F,
Girls,44.23,5,Caitlyn Luarca,Freer,43.54,102.06,47.63,108.86,258.55,Single-ply,SBD,F,
Girls,44.23,6,Sara Perez,Freer,42.73,99.79,52.16,104.33,256.28,Single-ply,SBD,F,
Girls,44.23,7,Victoria Ruiz,Hebbronville,43.09,90.72,56.7,102.06,249.48,Single-ply,SBD,F,
Girls,44.23,8,Marina Lopez,Skidmore-Tynan,43.36,92.99,43.09,86.18,222.26,Single-ply,SBD,F,
Girls,44.23,9,Stephanie Ortega,Edinburg Quest College Prep,43.82,90.72,38.56,83.91,213.19,Single-ply,SBD,F,
Girls,44.23,10,Allison Luna,Agua Dulce,43.95,77.11,34.02,92.99,204.12,Single-ply,SBD,F,
Girls,44.23,11,Natalie Garza,Dilley,41.37,83.91,34.02,81.65,199.58,Single-ply,SBD,F,
Girls,44.23,12,Natalie Lopez,Agua Dulce,43.36,74.84,40.82,81.65,197.31,Single-ply,SBD,F,
Girls,44.23,13,Davira Gonzalez,Cotulla,44.09,70.31,31.75,92.99,195.04,Single-ply,SBD,F,
Girls,47.85,1,Bryanna Perez,Natalia,46.86,122.47,74.84,142.88,340.19,Single-ply,SBD,F,
Girls,47.85,2,Meg Martinez,Natalia,46.49,117.93,68.04,113.4,299.37,Single-ply,SBD,F,
Girls,47.85,3,Aryana Hernandez,Mathis,47.17,117.93,56.7,108.86,283.5,Single-ply,SBD,F,
Girls,47.85,4,Ashley Lopez,Three Rivers,46.45,113.4,52.16,111.13,276.69,Single-ply,SBD,F,
Girls,47.85,5,Genesis Perez,Natalia,46.22,111.13,52.16,102.06,265.35,Single-ply,SBD,F,
Girls,47.85,6,Joanna Flores,Agua Dulce,47.31,99.79,49.9,115.67,265.35,Single-ply,SBD,F,
Girls,47.85,7,Valeria Long,Hebbronville,47.36,104.33,47.63,99.79,251.74,Single-ply,SBD,F,
Girls,47.85,8,Ahliyah Wheeler,Edinburg Quest College Prep,47.36,97.52,47.63,99.79,244.94,Single-ply,SBD,F,
Girls,47.85,9,Sara Vela,Banquete,45.68,86.18,38.56,97.52,222.26,Single-ply,SBD,F,
Girls,47.85,10,Erin Garza,Knippa,46.63,83.91,40.82,90.72,215.46,Single-ply,SBD,F,
Girls,51.94,1,Edna Herschberger,Pettus,51.12,129.27,83.91,156.49,369.68,Single-ply,SBD,F,
Girls,51.94,2,K'La Lavigne,Mathis,51.07,145.15,65.77,124.74,335.66,Single-ply,SBD,F,
Girls,51.94,3,Dashae Atkinson,Hebbronville,51.07,129.27,72.57,120.2,322.05,Single-ply,SBD,F,
Girls,51.94,4,Regan Boissiere,Universal City Randolph,50.94,122.47,54.43,142.88,319.78,Single-ply,SBD,F,
Girls,51.94,5,Emily Wheeler,Natalia,50.3,136.08,65.77,108.86,310.71,Single-ply,SBD,F,
Girls,51.94,6,Amaris Garza,Edinburg Idea College Prep,51.12,117.93,61.23,131.54,310.71,Single-ply,SBD,F,
Girls,51.94,7,Jalesca Schorsh,Natalia,50.3,122.47,68.04,117.93,308.44,Single-ply,SBD,F,
Girls,51.94,8,Daniela Aguilar,Hebbronville,51.07,136.08,58.97,111.13,306.17,Single-ply,SBD,F,
Girls,51.94,9,Ava Blevins,Goliad,51.62,120.2,70.31,115.67,306.17,Single-ply,SBD,F,
Girls,51.94,10,Raven Boissiere,Universal City Randolph,51.17,97.52,54.43,138.35,290.3,Single-ply,SBD,F,
Girls,51.94,11,Hailey Rivas,Edinburg Quest College Prep,51.44,111.13,47.63,115.67,274.42,Single-ply,SBD,F,
Girls,51.94,12,Mia Garza,Bishop,51.26,113.4,52.16,102.06,267.62,Single-ply,SBD,F,
Girls,51.94,13,Jaslyn Ochoa,Dilley,51.53,104.33,43.09,108.86,256.28,Single-ply,SBD,F,
Girls,51.94,14,Jesselen Tijerina,La Villa,51.71,88.45,43.09,113.4,244.94,Single-ply,SBD,F,
Girls,51.94,DQ,Cheyenne Dickey,Marion,50.89,117.93,,,,Single-ply,SBD,F,
Girls,56.02,1,Caitlin Berry,Bishop,55.97,172.37,117.93,172.37,462.66,Single-ply,SBD,F,
Girls,56.02,2,Dylan Wesselski,Corpus Christi London,54.98,145.15,77.11,142.88,365.14,Single-ply,SBD,F,
Girls,56.02,3,Lauren Garza,Freer,53.89,142.88,68.04,131.54,342.46,Single-ply,SBD,F,
Girls,56.02,4,Kristal Rodriguez,Dilley,55.16,122.47,81.65,136.08,340.19,Single-ply,SBD,F,
Girls,56.02,5,Angelica Padilla,Natalia,54.07,142.88,58.97,133.81,335.66,Single-ply,SBD,F,
Girls,56.02,6,Samantha Diaz,Bishop,54.79,142.88,61.23,131.54,335.66,Single-ply,SBD,F,
Girls,56.02,7,Kiara Ross,Mathis,54.16,131.54,56.7,140.61,328.85,Single-ply,SBD,F,
Girls,56.02,8,Alyzza Ortiz,Edinburg Quest College Prep,55.97,131.54,70.31,127.01,328.85,Single-ply,SBD,F,
Girls,56.02,9,Angelina Zapata,Natalia,54.3,129.27,61.23,127.01,317.51,Single-ply,SBD,F,
Girls,56.02,10,Somaira Vega,Mathis,54.98,122.47,58.97,122.47,303.91,Single-ply,SBD,F,
Girls,56.02,11,Bella Martinez,Natalia,52.44,104.33,68.04,122.47,294.84,Single-ply,SBD,F,
Girls,56.02,12,Kelly Alarcon,Hebbronville,55.57,117.93,58.97,111.13,288.03,Single-ply,SBD,F,
Girls,56.02,13,Hailey Manka,Natalia,54.39,102.06,65.77,106.59,274.42,Single-ply,SBD,F,
Girls,56.02,14,Karina Longoria,Center Point,54.07,108.86,61.23,102.06,272.16,Single-ply,SBD,F,
Girls,60.1,1,Isis Sandiford,Edinburg Idea College Prep,58.92,181.44,97.52,170.1,449.06,Single-ply,SBD,F,
Girls,60.1,2,Jennifer Benavidez,Cotulla,59.15,149.69,74.84,151.95,376.48,Single-ply,SBD,F,
Girls,60.1,3,Raina Rivera,Bishop,59.42,147.42,77.11,140.61,365.14,Single-ply,SBD,F,
Girls,60.1,4,Madison Salinas,Hebbronville,59.1,136.08,72.57,149.69,358.34,Single-ply,SBD,F,
Girls,60.1,5,Ally Marlowe,Center Point,57.24,142.88,74.84,136.08,353.8,Single-ply,SBD,F,
Girls,60.1,6,Arlene Ramirez,Hebbronville,58.24,142.88,72.57,136.08,351.53,Single-ply,SBD,F,
Girls,60.1,7,Julie Rivera,Natalia,58.6,151.95,63.5,124.74,340.19,Single-ply,SBD,F,
Girls,60.1,8,Mia Rincones,Edinburg Idea College Prep,58.88,138.35,72.57,127.01,337.93,Single-ply,SBD,F,
Girls,60.1,9,Reyna Martel,Dilley,58.51,136.08,52.16,142.88,331.12,Single-ply,SBD,F,
Girls,60.1,10,Rayven Van Heeswyk,Jourdanton,60.06,131.54,63.5,136.08,331.12,Single-ply,SBD,F,
Girls,60.1,11,Anamarie Rodriguez,Dilley,59.69,129.27,54.43,129.27,312.98,Single-ply,SBD,F,
Girls,60.1,12,Madison Lopez,Hebbronville,59.78,117.93,65.77,124.74,308.44,Single-ply,SBD,F,
Girls,60.1,13,Chloe Williams,Center Point,56.88,117.93,61.23,102.06,281.23,Single-ply,SBD,F,
Girls,60.1,DQ,Bradi Freeman,Altair Rice,58.97,131.54,56.7,,,Single-ply,SBD,F,
Girls,67.36,1,Stephanie Benavidez,Cotulla,64.5,174.63,88.45,154.22,417.3,Single-ply,SBD,F,
Girls,67.36,2,Viviana Hernandez,Goliad,64.64,163.29,79.38,161.03,403.7,Single-ply,SBD,F,
Girls,67.36,3,Kylie Bosquez,Jourdanton,62.23,183.7,72.57,145.15,401.43,Single-ply,SBD,F,
Girls,67.36,4,Mea Villarreal,Mathis,65.59,151.95,77.11,142.88,371.95,Single-ply,SBD,F,
Girls,67.36,5,Sindy Garcia,Edinburg Idea College Prep,65.68,154.22,81.65,136.08,371.95,Single-ply,SBD,F,
Girls,67.36,6,Brooke Gisler,Karnes City,65.41,161.03,77.11,131.54,369.68,Single-ply,SBD,F,
Girls,67.36,7,Magali Medrano,Bishop,64.5,142.88,83.91,140.61,367.41,Single-ply,SBD,F,
Girls,67.36,8,Sofia Almendarez,Natalia,63.09,142.88,77.11,142.88,362.87,Single-ply,SBD,F,
Girls,67.36,9,Lee Ramirez,Karnes City,65.77,142.88,70.31,149.69,362.87,Single-ply,SBD,F,
Girls,67.36,10,Leslie Flores,Santa Rosa,66.27,151.95,52.16,145.15,349.27,Single-ply,SBD,F,
Girls,67.36,11,Bianca Cordova,Cotulla,64.14,142.88,65.77,138.35,347,Single-ply,SBD,F,
Girls,67.36,12,Lizzy Bustamante,Center Point,63.5,161.03,61.23,122.47,344.73,Single-ply,SBD,F,
Girls,67.36,13,Cesi Ramirez,Center Point,61.51,136.08,58.97,127.01,322.05,Single-ply,SBD,F,
Girls,67.36,DQ,Jaylan Camp,Jourdanton,65.14,158.76,,,,Single-ply,SBD,F,
Girls,75.07,1,Isabella Rodriguez,Stockdale,70.26,154.22,83.91,156.49,394.63,Single-ply,SBD,F,
Girls,75.07,2,Annaliese Andersen,Marion,69.67,145.15,83.91,154.22,383.29,Single-ply,SBD,F,
Girls,75.07,3,Jermetryca McKnight,San Antonio Cole,71.76,145.15,72.57,156.49,374.21,Single-ply,SBD,F,
Girls,75.07,4,Yaritsa Alanis,Santa Gertrudis Academy,72.85,156.49,65.77,151.95,374.21,Single-ply,SBD,F,
Girls,75.07,5,Gabrielle Santoya,Natalia,73.44,151.95,79.38,142.88,374.21,Single-ply,SBD,F,
Girls,75.07,6,Kaylin Yanta,Poth,73.84,149.69,81.65,142.88,374.21,Single-ply,SBD,F,
Girls,75.07,7,Summer Green,Corpus Christi London,71.53,149.69,65.77,136.08,351.53,Single-ply,SBD,F,
Girls,75.07,8,Emilee Whitehead,Goliad,74.07,145.15,70.31,133.81,349.27,Single-ply,SBD,F,
Girls,75.07,9,Summer Castro,Altair Rice,73.57,142.88,65.77,136.08,344.73,Single-ply,SBD,F,
Girls,75.07,10,Reina Romero,Mathis,71.4,142.88,68.04,131.54,342.46,Single-ply,SBD,F,
Girls,75.07,11,Aubrey Luna,Agua Dulce,72.85,127.01,65.77,145.15,337.93,Single-ply,SBD,F,
Girls,75.07,12,Shakira Pena,Mathis,73.48,124.74,74.84,124.74,324.32,Single-ply,SBD,F,
Girls,75.07,13,Yesenia Garcia,La Villa,70.49,117.93,81.65,52.16,251.74,Single-ply,SBD,F,
Girls,75.07,DQ,Jacqueline Ybarra,Edinburg Idea College Prep,71.53,,,,,Single-ply,SBD,F,
Girls,82.33,1,Beatrice Garcia,Bishop,79.2,192.78,99.79,158.76,451.32,Single-ply,SBD,F,
Girls,82.33,2,Gabriella Munoz,Natalia,78.29,192.78,86.18,142.88,421.84,Single-ply,SBD,F,
Girls,82.33,3,Dezarae Perez,Natalia,77.16,163.29,108.86,138.35,410.5,Single-ply,SBD,F,
Girls,82.33,4,Guadalupe Mendiola,Flatonia,77.66,167.83,81.65,158.76,408.23,Single-ply,SBD,F,
Girls,82.33,5,Brianna Leal,Freer,81.74,147.42,99.79,147.42,394.63,Single-ply,SBD,F,
Girls,82.33,6,Lonna Gonzalez,San Diego,80.33,161.03,88.45,136.08,385.55,Single-ply,SBD,F,
Girls,82.33,7,Kaitlyn Munoz,Bishop,78.02,149.69,83.91,142.88,376.48,Single-ply,SBD,F,
Girls,82.33,8,Anahi Cruz,Karnes City,77.34,165.56,72.57,136.08,374.21,Single-ply,SBD,F,
Girls,82.33,9,Aubrey Benavidez,Santa Gertrudis Academy,76.93,163.29,70.31,136.08,369.68,Single-ply,SBD,F,
Girls,82.33,10,Sunette Garza,Santa Gertrudis Academy,77.66,149.69,61.23,158.76,369.68,Single-ply,SBD,F,
Girls,82.33,11,Lexi Ramirez,Dilley,75.48,149.69,68.04,129.27,347,Single-ply,SBD,F,
Girls,82.33,12,Megan Frerich,Odem,77.84,124.74,74.84,145.15,344.73,Single-ply,SBD,F,
Girls,82.33,13,Mikayla Esparza,Bishop,80.1,136.08,74.84,115.67,326.59,Single-ply,SBD,F,
Girls,82.33,DQ,Katie Gonzales,Mathis,81.1,133.81,70.31,,,Single-ply,SBD,F,
Girls,90.04,1,Harlie Guerra,Bishop,85.09,195.04,108.86,167.83,471.74,Single-ply,SBD,F,
Girls,90.04,2,Jasmine Ramon,Natalia,88.13,183.7,86.18,161.03,430.91,Single-ply,SBD,F,
Girls,90.04,3,Alexandra Hall,Edinburg Quest College Prep,89.27,172.37,90.72,158.76,421.84,Single-ply,SBD,F,
Girls,90.04,4,Alina Carrera,Taft,86.27,163.29,88.45,158.76,410.5,Single-ply,SBD,F,
Girls,90.04,5,Regina Seidel,Cotulla,88,165.56,83.91,154.22,403.7,Single-ply,SBD,F,
Girls,90.04,6,Marivel Perez,Mathis,82.83,145.15,92.99,158.76,396.89,Single-ply,SBD,F,
Girls,90.04,7,Reeana Esquivel,Edinburg Idea College Prep,86.32,161.03,90.72,145.15,396.89,Single-ply,SBD,F,
Girls,90.04,8,Jasmin Martinez,Aransas Pass,89.18,151.95,74.84,145.15,371.95,Single-ply,SBD,F,
Girls,90.04,9,Teresa Valadez,Center Point,85.64,154.22,79.38,136.08,369.68,Single-ply,SBD,F,
Girls,90.04,10,Jessica Morales,Odem,87.63,158.76,74.84,136.08,369.68,Single-ply,SBD,F,
Girls,90.04,11,Mady Steele,Center Point,87.91,151.95,86.18,117.93,356.07,Single-ply,SBD,F,
Girls,90.04,12,Lauren Wells,Jourdanton,86.95,142.88,68.04,122.47,333.39,Single-ply,SBD,F,
Girls,90.04,13,Gabriella Moreno,Freer,82.87,127.01,56.7,133.81,317.51,Single-ply,SBD,F,
Girls,100.02,1,Raschel Lerma,Freer,95.35,192.78,90.72,165.56,449.06,Single-ply,SBD,F,
Girls,100.02,2,Elia Soliz,San Diego,95.35,167.83,97.52,158.76,424.11,Single-ply,SBD,F,
Girls,100.02,3,Olivia Monsevais,Karnes City,92.8,174.63,79.38,154.22,408.23,Single-ply,SBD,F,
Girls,100.02,4,Emili Oliver,Lytle,93.85,183.7,72.57,151.95,408.23,Single-ply,SBD,F,
Girls,100.02,5,Rian Garza,Kenedy,96.66,165.56,77.11,136.08,378.75,Single-ply,SBD,F,
Girls,100.02,6,Miranda Billegas,Kenedy,97.66,156.49,92.99,129.27,378.75,Single-ply,SBD,F,
Girls,100.02,7,Jenivae Rodriguez,Cotulla,92.26,151.95,86.18,127.01,365.14,Single-ply,SBD,F,
Girls,100.02,8,Kristin Salaiz,Ben Bolt-Palito Blanco,96.43,142.88,65.77,151.95,360.61,Single-ply,SBD,F,
Girls,100.02,9,Micaela Mayorga,Banquete,98.52,142.88,61.23,142.88,347,Single-ply,SBD,F,
Girls,100.02,10,Caitlin Lara,Mathis,92.99,136.08,74.84,115.67,326.59,Single-ply,SBD,F,
Girls,100.02,DQ,Danae Caro,Falfurrias,95.62,,,,,Single-ply,SBD,F,
Girls,100.02,DQ,Lillian Gonzalez,Cotulla,97.89,167.83,90.72,,,Single-ply,SBD,F,
Girls,117.71,1,Melanie Morales,Edinburg Idea College Prep,115.3,224.53,136.08,188.24,548.85,Single-ply,SBD,F,
Girls,117.71,2,Jackie Salazar,Ben Bolt-Palito Blanco,114.94,226.8,104.33,167.83,498.95,Single-ply,SBD,F,
Girls,117.71,3,Jiselle Gonzales,Natalia,102.15,188.24,95.25,154.22,437.72,Single-ply,SBD,F,
Girls,117.71,4,Daphnie Laymon,Freer,100.33,174.63,79.38,161.03,415.04,Single-ply,SBD,F,
Girls,117.71,5,Trinity Meduna,Rocksprings,105.01,165.56,102.06,147.42,415.04,Single-ply,SBD,F,
Girls,117.71,6,Saylene Torres,Dilley,114.58,165.56,74.84,158.76,399.16,Single-ply,SBD,F,
Girls,117.71,7,Allison Elizondo,San Diego,111.36,165.56,72.57,140.61,378.75,Single-ply,SBD,F,
Girls,117.71,8,Yaretzy Gomez,La Villa,109.59,147.42,61.23,142.88,351.53,Single-ply,SBD,F,
Girls,117.71,9,Rebecca Ruiz,Rocksprings,100.79,136.08,79.38,131.54,347,Single-ply,SBD,F,
Girls,117.71,10,Ju-Lin Guajardo,Banquete,110.45,117.93,52.16,117.93,288.03,Single-ply,SBD,F,
Girls,117.71,11,Sydney Ybarra,Dilley,102.97,115.67,45.36,124.74,285.76,Single-ply,SBD,F,
Girls,117.71,DQ,Victoria Olivarez,Santa Rosa,103.6,,,,,Single-ply,SBD,F,
Girls,117.71,DQ,India Hamilton,Goliad,109.54,,,,,Single-ply,SBD,F,
Girls,117.71+,1,Joslynn Contreras,La Villa,118.66,165.56,92.99,158.76,417.3,Single-ply,SBD,F,
Girls,117.71+,2,Aracely Nieto,George West,125.19,176.9,72.57,158.76,408.23,Single-ply,SBD,F,
Girls,117.71+,3,Katelyn Pratz,Mathis,133.9,154.22,77.11,136.08,367.41,Single-ply,SBD,F,
Girls,117.71+,4,Kylie Jones,Schulenburg,134.9,136.08,47.63,122.47,306.17,Single-ply,SBD,F,
Girls,117.71+,5,Alyssa Moreno,Bishop,154.49,113.4,79.38,113.4,306.17,Single-ply,SBD,F,
Girls,117.71+,DQ,Bethany Gonzales,Santa Gertrudis Academy,139.53,206.38,,,,Single-ply,SBD,F,
