Name,WeightClassKg,Division,AgeRange,Sex,Best3SquatKg,Best3BenchKg,Best3DeadliftKg,TotalKg,Event,Equipment,Place
Jeremy Wilson,100,M_JEM_APF,20-23,M,,176.9,,176.9,B,Multi-ply,1
Keith Ivers,75,M_TEM_X_APF,13-19,M,204.57,117.93,226.8,549.3,SBD,Multi-ply,1
Nick Ray,90,M_TEM_X_APF,13-19,M,24.95,113.4,208.65,347,SBD,Multi-ply,1
Chris Hess,110,M_TEM_X_APF,13-19,M,242.67,161.03,233.6,637.3,SBD,Multi-ply,1
Randall Compton,90,M_MEM_X_APF,40-999,M,254.01,170.1,229.06,653.17,SBD,Multi-ply,1
Chris Lajoie,110,M_OEM_APF,,M,24.95,249.48,65.77,340.19,SBD,Multi-ply,2
Beau Boyle,110,M_OEM_APF,,M,306.18,170.1,249.48,725.75,SBD,Multi-ply,1
