Sex,WeightClassKg,JapaneseName,Name,Team,BirthYear,BodyweightKg,Squat1Kg,Squat2Kg,Squat3Kg,Bench1Kg,Bench2Kg,Bench3Kg,Deadlift1Kg,Deadlift2Kg,Deadlift3Kg,Best3SquatKg,Best3BenchKg,Best3DeadliftKg,TotalKg,Division,Place,Event,Equipment
M,59,中家 康二,,MBC POWER,1974,58.5,145,150,155,125,130,-132.5,190,197.5,207.5,155,130,207.5,492.5,Masters 1,1,SBD,Raw
M,59,日野田 亮,,京都パワーリフティングクラブ,1976,58.6,170,180,185,100,105,107.5,180,190,-200,185,107.5,190,482.5,Masters 1,2,SBD,Raw
M,59,小野 雅史,,個人,1978,58.5,135,145,147.5,95,105,110,190,200,-205,147.5,110,200,457.5,Masters 1,3,SBD,Raw
M,59,後藤 直樹,,ちからこぶ,1973,58.35,-130,-135,135,90,97.5,100,170,185,-190,135,100,185,420,Masters 1,4,SBD,Raw
M,59,富田 英吉,,Team raws,1971,57.95,120,130,137.5,80,85,87.5,160,172.5,175,137.5,87.5,175,400,Masters 1,5,SBD,Raw
M,59,鈴木 研太郎,,スパインハウス,1975,58.5,110,120,125,70,75,-80,150,162.5,-170,125,75,162.5,362.5,Masters 1,6,SBD,Raw
M,59,加納 勉,,個人,1970,57,-110,110,-120,75,80,90,130,160,-185,110,90,160,360,Masters 1,7,SBD,Raw
M,59,石川 康二,,Cure-Care,1975,,,,,,,,,,,,,,,Masters 1,NS,SBD,Raw
M,59,水野 貴章,,ゴールドジム成田千葉,1967,58.75,160,170,175,115,120,-122.5,195,-205,-205,175,120,195,490,Masters 2,1,SBD,Raw
M,59,霜浦 宣也,,雷神ファクトリー,1969,55.95,140,150,160,100,105,-107.5,180,200,-210,160,105,200,465,Masters 2,2,SBD,Raw
M,59,山口 和久,,トレーニングジムゼロイン,1960,57.6,-130,-130,130,82.5,87.5,-90,200,210,220,130,87.5,220,437.5,Masters 2,3,SBD,Raw
M,59,矢部 実,,ＭＡＴ,1963,58.6,-150,-150,150,95,100,-102.5,180,185,187.5,150,100,187.5,437.5,Masters 2,4,SBD,Raw
M,59,高嶋 明,,西部組,1968,58.4,135,145,-150,95,100,-102.5,180,-190,-190,145,100,180,425,Masters 2,5,SBD,Raw
M,59,村上 和彦,,個人,1965,57.1,120,-140,140,100,105,-110,160,170,175,140,105,175,420,Masters 2,6,SBD,Raw
M,59,椎木 智良,,ストロングライン,1964,58.7,-125,125,-135,107.5,112.5,115,145,155,-162.5,125,115,155,395,Masters 2,7,SBD,Raw
M,59,大野 隆,,チームみそカツ,1964,58.55,115,125,130,115,-120,-120,135,-145,,130,115,135,380,Masters 2,8,SBD,Raw
M,59,亀田 司,,チーム度肝,1961,58.85,100,107.5,112.5,90,95,100,132.5,-142.5,150,112.5,100,150,362.5,Masters 2,9,SBD,Raw
M,59,新城 和政,,個人,1961,56.55,102.5,110,-112.5,-75,75,-80,125,132.5,137.5,110,75,137.5,322.5,Masters 2,10,SBD,Raw
M,59,浦木 光博,,アイアンジム,1957,58.4,125,135,140,85,90,92.5,175,185,-190,140,92.5,185,417.5,Masters 3,1,SBD,Raw
M,59,金城 幸雄,,POWER SPORT,1954,57.75,110,120,-125,85,90,-95,150,160,167.5,120,90,167.5,377.5,Masters 3,2,SBD,Raw
M,59,石川 健作,,エスフォルサール,1956,57.55,107.5,117.5,122.5,70,75,-77.5,155,165,172.5,122.5,75,172.5,370,Masters 3,3,SBD,Raw
M,59,根本 直高,,ボディメイクSpilit,1952,58.1,110,-120,-120,80,-87.5,87.5,150,160,165,110,87.5,165,362.5,Masters 3,4,SBD,Raw
M,59,川上 京司,Kyoji Kawakami,個人,1950,57,100,115,120,92.5,97.5,-100,130,142.5,-152.5,120,97.5,142.5,360,Masters 3,5,SBD,Raw
M,59,浦野 雅彦,,フジモトジム,1959,58.8,105,-115,115,80,82.5,-85,140,150,-155,115,82.5,150,347.5,Masters 3,6,SBD,Raw
M,59,原 吉則,,高松トレーニングクラブ,1958,58.6,90,100,105,60,70,72.5,140,150,155,105,72.5,155,332.5,Masters 3,7,SBD,Raw
M,59,丸本 秀敏,,個人,1947,58.65,150,-170,-170,70,-80,-80,130,140,-150,150,70,140,360,Masters 4,1,SBD,Raw
M,59,平松 久直,,個人,1948,57.4,95,102.5,105,87.5,90,92.5,125,135,142.5,105,92.5,142.5,340,Masters 4,2,SBD,Raw
M,59,内山 新太郎,,ノーリミッツ,1947,58.5,90,100,-105,65,70,-72.5,130,140,145,100,70,145,315,Masters 4,3,SBD,Raw
M,59,田畑 眞人,,アイアンジム,1943,58.2,65,70,72.5,70,75,80,90,100,107.5,72.5,80,107.5,260,Masters 4,4,SBD,Raw
M,66,両角 保宏,,個人,1977,65.2,175,185,-190,100,110,115,225,232.5,240,185,115,240,540,Masters 1,1,SBD,Raw
M,66,森宗 雅也,,三菱重工高砂製作所,1979,65.55,185,195,-200,115,125,130,200,215,-220,195,130,215,540,Masters 1,2,SBD,Raw
M,66,上野 辰彦,,個人,1976,65.4,160,170,180,110,115,120,180,190,-200,180,120,190,490,Masters 1,3,SBD,Raw
M,66,深河 正,,マッスルプロダクション,1972,64.95,140,150,157.5,135,140,142.5,175,185,-190,157.5,142.5,185,485,Masters 1,4,SBD,Raw
M,66,三谷 正樹,,個人,1973,65.5,155,-165,165,100,105,-107.5,190,200,210,165,105,210,480,Masters 1,5,SBD,Raw
M,66,藤川 慶二,,バリバリジム,1971,65.45,150,-160,160,100,107.5,110,160,180,-190,160,110,180,450,Masters 1,6,SBD,Raw
M,66,向山 元,,江別協会,1974,64.35,135,145,150,102.5,105,-107.5,-170,170,-190,150,105,170,425,Masters 1,7,SBD,Raw
M,66,古橋 剛,,アニコム先進医療研究所,1976,62.65,140,-150,-150,90,95,-100,155,180,-190,140,95,180,415,Masters 1,8,SBD,Raw
M,66,山本 隆太,,雷神ファクトリー,1977,65.8,140,150,-155,80,90,-92.5,165,-180,-180,150,90,165,405,Masters 1,9,SBD,Raw
M,66,大山 政登,,BIG FIVE,1970,62.8,140,150,160,80,90,-100,140,-150,-150,160,90,140,390,Masters 1,10,SBD,Raw
M,66,森下 哲哉,,TSUJI’S GYM,1971,65.4,135,140,-145,105,-110,-110,135,140,145,140,105,145,390,Masters 1,11,SBD,Raw
M,66,森永 健,,TPGYM,1975,65.75,120,-142.5,,95,102.5,,150,,,120,102.5,150,372.5,Masters 1,12,SBD,Raw
M,66,岡本 慶輔,,ストロングライン,1979,,,,,,,,,,,,,,,Masters 1,NS,SBD,Raw
M,66,川島 督司,,IZUMO自立支援センター,1975,,,,,,,,,,,,,,,Masters 1,NS,SBD,Raw
M,66,川村 清司,,チームレスキュージム,1968,64.45,170,-180,-180,120,127.5,130,190,205,-223,170,130,205,505,Masters 2,1,SBD,Raw
M,66,岩佐 一彦,,Mind Body宮崎,1966,61.1,150,155,160,110,115,-120,170,180,192.5,160,115,192.5,467.5,Masters 2,2,SBD,Raw
M,66,丹羽 弘典,,高松トレーニングクラブ,1961,65.5,145,155,160,90,95,97.5,190,200,-210,160,97.5,200,457.5,Masters 2,3,SBD,Raw
M,66,長瀬 祐司,,The Strongest Warriors,1964,64.75,145,150,-155,125,130,-132.5,175,-182.5,-182.5,150,130,175,455,Masters 2,4,SBD,Raw
M,66,長江 正和,,マッスルプロダクション神戸板宿,1968,64.4,135,-145,145,90,95,102.5,180,195,205,145,102.5,205,452.5,Masters 2,5,SBD,Raw
M,66,西田 学,,マッスルプロダクション神戸板宿,1966,65.55,130,145,155,105,112.5,115,160,170,180,155,115,180,450,Masters 2,6,SBD,Raw
M,66,吉田 夏樹,,川西市バーベル協会,1967,65.6,145,155,160,105,107.5,110,165,175,-180,160,110,175,445,Masters 2,7,SBD,Raw
M,66,清水 健二,,チーム愛媛,1968,65.3,145,155,160,95,-100,-100,185,-195,-202.5,160,95,185,440,Masters 2,8,SBD,Raw
M,66,竹川 佳克,,パワーフィットネス,1968,65.55,135,142.5,145,92.5,97.5,-102.5,170,180,185,145,97.5,185,427.5,Masters 2,9,SBD,Raw
M,66,九野 毅,,PEACE GYM,1968,65.3,110,-115,115,130,135,-143,145,150,-160,115,135,150,400,Masters 2,10,SBD,Raw
M,66,三好 正彦,,個人,1963,62.85,120,130,-135,85,90,-95,150,160,165,130,90,165,385,Masters 2,11,SBD,Raw
M,66,松井 徹也,,個人,1969,64.85,-120,120,-125,100,105,-107.5,-150,-150,150,120,105,150,375,Masters 2,12,SBD,Raw
M,66,小川 明幸,,ゴールドジム神戸元町,1965,65.6,100,-115,-115,90,95,-100,120,135,-145,100,95,135,330,Masters 2,13,SBD,Raw
M,66,小島 学,,京都パワーリフティングクラブ,1964,,,,,,,,,,,,,,,Masters 2,NS,SBD,Raw
M,66,小原 越史,,個人,1969,,,,,,,,,,,,,,,Masters 2,NS,SBD,Raw
M,66,蜂須 貢,Mitsugu Hachisu,個人）,1950,64.8,155,165,172.5,110,117.5,-122.5,180,195,200,172.5,117.5,200,490,Masters 3,1,SBD,Raw
M,66,鈴木 光,,ゴールドジムイースト東京,1959,65.2,-110,110,-140,110,-125,-125,110,140,150,110,110,150,370,Masters 3,2,SBD,Raw
M,66,渡辺 正一,,MFクラブ,1958,64.9,-155,-155,-155,115,120,-125,160,170,-180,,120,170,,Masters 3,DQ,SBD,Raw
M,66,沖浦 克治,,チームレスキュージム,1945,65.75,150,165,176,80,85,-87.5,170,-187.5,-187.5,176,85,170,431,Masters 4,1,SBD,Raw
M,66,高橋 忠廣,,仙台市体育館PC,1942,65.7,120,-130,130,80,90,100,145,155,160,130,100,160,390,Masters 4,2,SBD,Raw
M,66,古市 三郎,,個人,1943,64.75,110,120,125,75,80,82.5,140,-150,155,125,82.5,155,362.5,Masters 4,3,SBD,Raw
M,66,高木 寛夫,,ゴールドジム成田千葉,1938,63.8,100,110,115,75,77.5,-80,-130,130,-135,115,77.5,130,322.5,Masters 4,4,SBD,Raw
M,66,山本 正,,ちからこぶ,1941,,,,,,,,,,,,,,,Masters 4,NS,SBD,Raw
M,74,松山 聡,,TEAM I-CHIBA-N,1972,73.5,192.5,207.5,-212.5,157.5,167.5,170,210,-232.5,237.5,207.5,170,237.5,615,Masters 1,1,SBD,Raw
M,74,小泉 安弘,,CLUBポイズン,1975,73.45,192.5,202.5,207.5,140,150,155,230,250,-255,207.5,155,250,612.5,Masters 1,2,SBD,Raw
M,74,岡林 達郎,,元気クラブ,1972,73.05,165,185,195,135,145,-147.5,190,210,215,195,145,215,555,Masters 1,3,SBD,Raw
M,74,牧野 一晃,,THE CHANPIONS,1974,73.1,185,195,-200,130,135,137.5,197.5,210,-215,195,137.5,210,542.5,Masters 1,4,SBD,Raw
M,74,滝田 治之,,個人,1979,73.35,180,190,200,125,130,-135,200,210,-215,200,130,210,540,Masters 1,5,SBD,Raw
M,74,里見 正樹,,西部組,1976,72.6,167.5,177.5,182.5,117.5,125,127.5,205,220,-225,182.5,127.5,220,530,Masters 1,6,SBD,Raw
M,74,佐藤 康志,,スパインハウス,1978,73,160,-170,-170,110,-115,-117.5,190,200,-205,160,110,200,470,Masters 1,7,SBD,Raw
M,74,張替 孝之,,TEAM I-CHIBA-N,1974,73.35,180,-185,-185,100,102.5,-105,180,-190,,180,102.5,180,462.5,Masters 1,8,SBD,Raw
M,74,林 康之,,個人,1971,68.75,130,140,145,105,110,-115,170,182.5,-190,145,110,182.5,437.5,Masters 1,9,SBD,Raw
M,74,渡辺 匡宏,,THE STRONGEST WARRIORS,1977,72.65,110,120,-130,135,-142.5,-145,135,145,-147.5,120,135,145,400,Masters 1,10,SBD,Raw
M,74,三井 知明,,MX FUSION GYM,1971,,,,,,,,,,,,,,,Masters 1,NS,SBD,Raw
M,74,伊藤 学,,リアルスイング,1962,73.65,210,220.5,225,125,130,132.5,235,247.5,253,225,132.5,253,610.5,Masters 2,1,SBD,Raw
M,74,小田川 洋司,,個人,1965,72.05,205,215,222.5,110,120,-122.5,210,230,-240,222.5,120,230,572.5,Masters 2,2,SBD,Raw
M,74,伊藤 知樹,,デンソー刈谷パワークラブ,1969,73.8,180,195,-197.5,130,135,-137.5,215,-225,-225,195,135,215,545,Masters 2,3,SBD,Raw
M,74,内藤 雅文,,フジモトジム,1960,73.55,180,-192.5,-192.5,-125,130,-135,220,230,-235,180,130,230,540,Masters 2,4,SBD,Raw
M,74,辻 善衛,,TSUJI’S GYM,1969,72.9,185,197.5,-200,112.5,117.5,-120,200,-215,-230,197.5,117.5,200,515,Masters 2,5,SBD,Raw
M,74,堀 正人,,マッスルプロダクション,1967,72.65,175,182.5,-187.5,105,-110,110,-192.5,200,-205,182.5,110,200,492.5,Masters 2,6,SBD,Raw
M,74,大友 義明,,CLUBポイズン,1967,73.75,170,180,-182.5,110,115,-120,-190,190,-200,180,115,190,485,Masters 2,7,SBD,Raw
M,74,大八木 正泰,,東名アスレチック,1961,73.55,-150,150,152.5,90,97.5,100,180,200,-210,152.5,100,200,452.5,Masters 2,8,SBD,Raw
M,74,田中 博文,,シロクマパワージム,1962,70.95,110,120,130,110,117.5,-120,150,160,-165,130,117.5,160,407.5,Masters 2,9,SBD,Raw
M,74,成澤 真一,,個人,1965,71.7,130,-140,140,-90,90,-100,170,-190,-190,140,90,170,400,Masters 2,10,SBD,Raw
M,74,生田 禎明,,スポーツジムB＆F,1968,72.8,130,-140,-150,90,95,-100,140,160,175,130,95,175,400,Masters 2,11,SBD,Raw
M,74,林 英生,,個人,1961,72.4,-120,120,132.5,102.5,110,-112.5,140,150,-157.5,132.5,110,150,392.5,Masters 2,12,SBD,Raw
M,74,伊藤 祥一,,個人,1967,,,,,,,,,,,,,,,Masters 2,NS,SBD,Raw
M,74,古田 晴彦,,マグナムフィットセンター,1959,73.7,140,145,150,130,135,-140.5,145,155,-160,150,135,155,440,Masters 3,1,SBD,Raw
M,74,安倉 明徳,,烈剛河内,1958,72.5,160,170,-180,80,85,-90,165,175,-182.5,170,85,175,430,Masters 3,2,SBD,Raw
M,74,大村 和久,,トヨタ自動車（株）ボディビル部,1956,72.7,130,140,145,115,120,-122.5,125,140,147.5,145,120,147.5,412.5,Masters 3,3,SBD,Raw
M,74,田中 宏幸,,日本製鉄君津ボディビル同好会,1958,72.3,125,140,150,90,95,100,160,-180,-180,150,100,160,410,Masters 3,4,SBD,Raw
M,74,信原 英之,Hideyuki Nobuhara,パワーハウス赤穂,1952,73.35,110,120,130,135,-142.5,142.5,110,125,135,130,142.5,135,407.5,Masters 3,5,SBD,Raw
M,74,斉藤 信一,,小樽パワー協会,1957,72.7,125,135,140,90,95,-100,140,-160,160,140,95,160,395,Masters 3,6,SBD,Raw
M,74,飯野 充,,チームミラクル,1954,71.5,125,130,-135,97.5,102.5,-105,150,155,157.5,130,102.5,157.5,390,Masters 3,7,SBD,Raw
M,74,ファラー ジョセフ,,個人,1957,72.45,100,110,120,85,95,-100,130,150,160,120,95,160,375,Masters 3,8,SBD,Raw
M,74,場集田 寿,,個人,1957,72.5,105,115,120,90,95,-100,120,130,135,120,95,135,350,Masters 3,9,SBD,Raw
M,74,藤田 正之,,パワーハウス,1957,72.4,100,110,115,92.5,97.5,100,110,120,125,115,100,125,340,Masters 3,10,SBD,Raw
M,74,岩本 雅彦,,個人,1959,73.35,-140,-150,-150,85,95,100,170,180,-190,,100,180,,Masters 3,DQ,SBD,Raw
M,74,芝山 鉄之助,,CONTINENTAL GYM,1952,,,,,,,,,,,,,,,Masters 3,NS,SBD,Raw
M,74,佐藤 邦良,Kuniyoshi Sato,マッスルジム前橋PC,1943,73.85,140,160,170,90,102.5,107.5,170,190,205,170,107.5,205,482.5,Masters 4,1,SBD,Raw
M,74,右田 一道,,エスフォルサール,1949,72.15,95,105,110,72.5,77.5,80,115,125,130,110,80,130,320,Masters 4,2,SBD,Raw
M,74,石田 光司,,パワーハウス,1944,72.1,-95,-95,,,,,,,,,,,,Masters 4,DQ,SBD,Raw
M,83,越野 貴史,,マッスルプロダクション神戸板宿,1974,81.1,210,215,220,140,-145,-145,220,-230,-230,220,140,220,580,Masters 1,1,SBD,Raw
M,83,宮月 武夫,,フェニックスジム,1977,82.55,195,205,212.5,135,140,-145,190,205,-230,212.5,140,205,557.5,Masters 1,2,SBD,Raw
M,83,加藤 健児,,PEACE GYM,1979,80.5,170,185,-200,115,120,125,215,230,235,185,125,235,545,Masters 1,3,SBD,Raw
M,83,櫻井 正樹,,ヘルメストレーニングプラザ,1973,81.25,180,200,-205,130,135,-140,200,-215,-215,200,135,200,535,Masters 1,4,SBD,Raw
M,83,藤原 和人,,雷神ウァクトリー,1976,82.85,160,170,180,-125,125,135,200,210,-212.5,180,135,210,525,Masters 1,5,SBD,Raw
M,83,小森 秀人,,マッスルプロダクション神戸板宿,1973,77.85,175,185,-190,125,-130,-130,185,200,-215,185,125,200,510,Masters 1,6,SBD,Raw
M,83,高橋 克佳,,十勝パワーリフティング協会,1975,81.3,150,160,165,120,125,-130,175,200,-205,165,125,200,490,Masters 1,7,SBD,Raw
M,83,中根 伸吾,,西東京パワー倶楽部,1973,82.4,162.5,-170,170,115,120,-125,200,-210,-210,170,120,200,490,Masters 1,8,SBD,Raw
M,83,高橋 秀輔,,パワーハウス,1977,82.85,135,140,145,117.5,122.5,-125,190,200,-205,145,122.5,200,467.5,Masters 1,9,SBD,Raw
M,83,橋本 鉄平,,TPGYM,1979,76.7,150,-160,160,120,130,-140,150,160,165,160,130,165,455,Masters 1,10,SBD,Raw
M,83,藤川 賢治,,西東京パワー倶楽部,1970,82.1,150,160,-165,85,-90,-90,190,200,-205,160,85,200,445,Masters 1,11,SBD,Raw
M,83,萩元 太一,,日本製鉄君津ボディビル同好会,1975,80.1,190,200,-210,,,,,,,200,,,,Masters 1,DQ,SBD,Raw
M,83,鈴木 康之,,TEAM I-CHIBA-N,1965,81.45,200,207.5,212.5,110,120,-122.5,220,-235,-235,212.5,120,220,552.5,Masters 2,1,SBD,Raw
M,83,原田 勢司,,個人,1961,81.8,170,180,-185,110,117.5,-122.5,205,215,-220,180,117.5,215,512.5,Masters 2,2,SBD,Raw
M,83,林 豊,,個人,1968,80.65,155,162.5,-167.5,95,100,102.5,175,182.5,-185,162.5,102.5,182.5,447.5,Masters 2,3,SBD,Raw
M,83,菅原 一宣,,キムン・カムイ旭川,1955,80.7,105,,,65,,,130,,,105,65,130,300,Masters 3,4,SBD,Raw
M,83,谷川 達朗,,富山パレス,1952,76.85,170,180,185,100,110,112.5,170,180,190,185,112.5,190,487.5,Masters 3,1,SBD,Raw
M,83,伊藤 順三,,個人,1954,78.8,130,140,-145,115,120,125,160,170,-175,140,125,170,435,Masters 3,2,SBD,Raw
M,83,荒石 一由,,スパインハウス,1958,81.15,90,-100,100,90,95,-100,160,170,180,100,95,180,375,Masters 3,3,SBD,Raw
M,83,北野 利雄,,仙台市体育館PC,1946,82.5,175,-190,-201,80,95,-105,180,200,-210,175,95,200,470,Masters 4,1,SBD,Raw
M,83,松本 幸信,,個人,1948,76.85,-120,120,-130,120,-125,-125,130,140,-160,120,120,140,380,Masters 4,2,SBD,Raw
M,83,藤本 章夫,,フジモトジム,1949,76.2,100,105,110,95,100,102.5,150,160,,110,102.5,160,372.5,Masters 4,3,SBD,Raw
M,93,宇佐美 清孝,,MBC POWER,1970,92.2,235,252.5,260,175,186.5,-190,265,280,-290,260,186.5,280,726.5,Masters 1,1,SBD,Raw
M,93,佐名木 宗貴,,関西大学S＆C,1978,91.35,215,225,235,140,147.5,152.5,235,245,255,235,152.5,255,642.5,Masters 1,2,SBD,Raw
M,93,神尾 昭宏,,TEAM I-CHIBA-N,1970,92.15,222.5,-232.5,232.5,125,127.5,-130,230,245,250,232.5,127.5,250,610,Masters 1,3,SBD,Raw
M,93,中谷 章,,パワーボム!ジム,1974,89.95,200,205,210,170,172.5,175,200,210,-215,210,175,210,595,Masters 1,4,SBD,Raw
M,93,中島 更造,,チーム岡山,1970,91.3,195,202.5,205,150,157.5,160,205,220,225,205,160,225,590,Masters 1,5,SBD,Raw
M,93,石垣 広三,,エスフォルサール,1974,91.8,205,-220,220,145,150,-152.5,200,210,217.5,220,150,217.5,587.5,Masters 1,6,SBD,Raw
M,93,小泉 彰,,ノーリミッツ,1971,89.95,185,195,200,140,145,-150,200,210,220,200,145,220,565,Masters 1,7,SBD,Raw
M,93,板津 昌也,,PEACE GYM,1976,90.75,200,-207.5,,125,130,-135,160,200,-217.5,200,130,200,530,Masters 1,8,SBD,Raw
M,93,佐々木 陽一,,個人,1976,88.1,-170,170,180,110,120,-127.5,175,192.5,-205,180,120,192.5,492.5,Masters 1,9,SBD,Raw
M,93,山田 洋平,,スパインハウス,1978,91.05,160,170,-175,125,130,135,180,-190,-190,170,135,180,485,Masters 1,10,SBD,Raw
M,93,長谷川 靖,,CLUBポイズン,1966,91.9,220,230,235,140,147.5,-150,205,235,-240,235,147.5,235,617.5,Masters 2,1,SBD,Raw
M,93,川上 歩,,BIG BEAR GYM,1968,91.75,172.5,182.5,192.5,152.5,165.5,-167.5,180,195,205,192.5,165.5,205,563,Masters 2,2,SBD,Raw
M,93,野口 真,,マッスルプロダクション石川,1968,89.05,190,205,-215,130,135,-137.5,200,210,220,205,135,220,560,Masters 2,3,SBD,Raw
M,93,大高 太郎,,個人,1968,84.9,-200,200,212.5,130,135,140,180,195,-205,212.5,140,195,547.5,Masters 2,4,SBD,Raw
M,93,佐藤 浩幸,,ちからこぶ,1962,88.2,180,185,-190,140,-147.5,147.5,180,190,200,185,147.5,200,532.5,Masters 2,5,SBD,Raw
M,93,中野 政幸,,個人,1969,86.55,170,-180,180,-130,130,-140,180,190,200,180,130,200,510,Masters 2,6,SBD,Raw
M,93,坂田 修二,,マッスルプロダクション神戸板宿,1969,91.65,180,190,-195,125,130,-137.5,185,-200,-200,190,130,185,505,Masters 2,7,SBD,Raw
M,93,大池 善彦,,東名アスレチック,1960,90.55,155,165,-170,120,125,-130,190,200,-210,165,125,200,490,Masters 2,8,SBD,Raw
M,93,岡本 弘行,,個人,1969,86.6,155,165,170,105,110,112.5,175,190,200,170,112.5,200,482.5,Masters 2,9,SBD,Raw
M,93,大西 一隆,,十勝パワーリフティング協会,1966,89.85,155,160,-170,90,95,-100,170,180,-185,160,95,180,435,Masters 2,10,SBD,Raw
M,93,渡辺 和利,,今治パワーリフティングクラブ,1952,88.1,160,170,180,105,110,112.5,170,180,190,180,112.5,190,482.5,Masters 3,1,SBD,Raw
M,93,出口 敞文,,江別パワーリフティング協会,1947,86.55,150,155,160,90,95,-97.5,212.5,222.5,-225,160,95,222.5,477.5,Masters 4,1,SBD,Raw
M,105,陣内 秀聡,,フジモトジム,1975,104.45,240,260,270,160,170,175,240,260,270,270,175,270,715,Masters 1,1,SBD,Raw
M,105,小早川 公則,,MBC POWER,1976,101.85,250,265,270,155,157.5,160,250,270,-285,270,160,270,700,Masters 1,2,SBD,Raw
M,105,山下 英士,,トレーニングジムKENKODO,1974,99.95,230,240,245,160,170,175,260,270,-277.5,245,175,270,690,Masters 1,3,SBD,Raw
M,105,金山 尚治,,マッスルプロダクション神戸板宿,1978,100.85,215,230,-235,160,170,-175,210,250,260,230,170,260,660,Masters 1,4,SBD,Raw
M,105,岡本 康央,,TPGYM,1972,104.05,200,230,240,160,170,-177.5,220,250,-260,240,170,250,660,Masters 1,5,SBD,Raw
M,105,小笠 剛志,,パワーハウス赤穂,1974,97.65,195,215,-222.5,140,145,147.5,200,220,-227.5,215,147.5,220,582.5,Masters 1,6,SBD,Raw
M,105,森 拓也,,パワーハウス,1972,104.2,190,200,202.5,135,140,142.5,200,215,220,202.5,142.5,220,565,Masters 1,7,SBD,Raw
M,105,三浦 大輔,,青森デッドリフターズ,1974,103.1,170,185,200,120,130,135,150,170,-190,200,135,170,505,Masters 1,8,SBD,Raw
M,105,西田 昇一郎,,日本製鉄君津ボディビル同好会,1976,,,,,,,,,,,,,,,Masters 1,NS,SBD,Raw
M,105,吉松 武志,,港腕パワークラブ,1968,103.3,205,215,222.5,160,165,170,200,210,220,222.5,170,220,612.5,Masters 2,1,SBD,Raw
M,105,伊藤 禎浩,,個人,1969,96.95,195,205,215,152.5,160,167.5,192.5,202.5,210,215,167.5,210,592.5,Masters 2,2,SBD,Raw
M,105,鈴木 章夫,,個人,1964,101.85,180,190,-200,120,125,130,200,210,-225,190,130,210,530,Masters 2,3,SBD,Raw
M,105,蟹江 秀信,,MBC POWER,1963,104.05,180,200,210,100,-112.5,-112.5,180,210,-222.5,210,100,210,520,Masters 2,4,SBD,Raw
M,105,三橋 信之,,JUNGLE GYM,1962,99.7,160,-180,180,105,112.5,117.5,180,210,-230,180,117.5,210,507.5,Masters 2,5,SBD,Raw
M,105,二宮 正晴,,デンソー刈谷パワークラブ,1961,,,,,,,,,,,,,,,Masters 2,NS,SBD,Raw
M,105,香西 和義,,エイブルスポーツクラブ岡山,1956,98,192.5,202.5,207.5,120,125,-130,192.5,210,-215,207.5,125,210,542.5,Masters 3,1,SBD,Raw
M,105,盛 龍也,,個人,1958,94.5,140,150,155,70,75,80,150,160,165,155,80,165,400,Masters 3,2,SBD,Raw
M,120,宮本 覚道,,あかつき幼稚園,1978,114.05,220,232.5,-242.5,-182.5,-182.5,182.5,180,200,210,232.5,182.5,210,625,Masters 1,1,SBD,Raw
M,120,中村 敏雄,,TXP,1970,105.8,170,180,-190,140,150,-155,170,180,-190,180,150,180,510,Masters 1,2,SBD,Raw
M,120,伊藤 憲治,,十勝パワーリフティング協会,1969,116.5,200,220,225,100,-140,-140,230,-250,,225,100,230,555,Masters 2,1,SBD,Raw
M,120+,秋山 継徳,,青森デッドリフターズ,1979,130.95,200,220,240,140,155,170,200,230,260,240,170,260,670,Masters 1,1,SBD,Raw
M,120+,海老田 旭,Akira Ebita,TXP,1979,131.5,200,210,222.5,150,162.5,175,200,215,230,222.5,175,230,627.5,Masters 1,2,SBD,Raw
M,120+,塩谷 晴久,,TXP,1974,150.5,170,180,190,120,130,135,180,207.5,-220,190,135,207.5,532.5,Masters 1,3,SBD,Raw
F,47,可児 理恵,Rie Kani,ぴくしぃ整形外科,1979,46.75,113,117,120,72.5,77.5,80.5,142.5,150,156.5,120,80.5,156.5,357,Masters 1,1,SBD,Raw
F,47,西村 政子,Masako Nishimura,LAKE SIDEPOWER,1974,45.65,87.5,-90,-92.5,57.5,62.5,-65,120,-132.5,132.5,87.5,62.5,132.5,282.5,Masters 1,2,SBD,Raw
F,47,藤原 久美子,,横浜マリントレーニングジム,1971,44.95,92.5,100,-105,47.5,-52.5,52.5,105,-115,-115,100,52.5,105,257.5,Masters 1,3,SBD,Raw
F,47,中田 佳見,,岩崎BC津山,1971,46.75,65,-75,-75,60,62.5,-65,90,95,100,65,62.5,100,227.5,Masters 1,4,SBD,Raw
F,47,波名城 ひとみ,,パワーハウス,1970,46.65,67.5,72.5,75,52.5,-55,55,70,75,80,75,55,80,210,Masters 1,5,SBD,Raw
F,47,辻 紀子,,TSUJI’S GYM,1964,45.85,90,95,100,52.5,55,57.5,112.5,117.5,120,100,57.5,120,277.5,Masters 2,1,SBD,Raw
F,47,岡本 美樹,,リアルスイング,1965,46.8,75,77.5,80,57.5,60,62.5,122.5,127.5,-137.5,80,62.5,127.5,270,Masters 2,2,SBD,Raw
F,47,三木 真紀,,TXP,1966,46.4,62.5,67.5,72.5,40,42.5,45,75,85,-90,72.5,45,85,202.5,Masters 2,3,SBD,Raw
F,47,萩原 千史,,Team Raws,1966,46.4,45,50,55,25,30,-35,75,85,92.5,55,30,92.5,177.5,Masters 2,4,SBD,Raw
F,47,滝沢 嘉恵,Yoshie Takizawa,アサマトレーニングクラブ,1957,46.15,70,77.5,83.5,50,52.5,55.5,90,97.5,102.5,83.5,55.5,102.5,241.5,Masters 3,1,SBD,Raw
F,47,瀬戸 直美,,チームみそカツ,1956,46.2,55,62.5,-65,32.5,35,-37.5,80,85,90,62.5,35,90,187.5,Masters 3,2,SBD,Raw
F,47,菊入 広子,Hiroko Kikuiri,パワーハウス,1949,46.15,75,80,82.5,47.5,50,52.5,110,115,-120,82.5,52.5,115,250,Masters 4,1,SBD,Raw
F,47,杉山 奈緒子,,ちからこぶ,1948,45.85,65.5,70,72.5,37.5,42.5,,70,80,85,72.5,42.5,85,200,Masters 4,2,SBD,Raw
F,47,工藤 スミ,,Burst limit,1946,46.75,47.5,52.5,-55,27.5,30,-32.5,77.5,82.5,-90,52.5,30,82.5,165,Masters 4,3,SBD,Raw
F,52,居鶴 直子,,ＭＡＴ,1976,51,100,105,107.5,62.5,67.5,-70,145,152.5,-156.5,107.5,67.5,152.5,327.5,Masters 1,1,SBD,Raw
F,52,佐津 彩,,ゼウスジム,1978,49.55,90,95,-100,52.5,-55,-55,-110,110,117.5,95,52.5,117.5,265,Masters 1,2,SBD,Raw
F,52,磯田 あかね,Akane Isoda,アサマトレーニングクラブ,1970,50.65,80,87.5,90,52.5,-57.5,-57.5,100,105,-117.5,90,52.5,105,247.5,Masters 1,3,SBD,Raw
F,52,寺本 百合子,,Cure-Care,1974,51.15,70,75,-80,50,-52.5,52.5,95,100,105,75,52.5,105,232.5,Masters 1,4,SBD,Raw
F,52,加藤 愛子,,パワーハウス,1973,51.3,-70,70,77.5,42.5,45,-47.5,100,110,-112.5,77.5,45,110,232.5,Masters 1,5,SBD,Raw
F,52,大島 珠美,,Body Fit,1973,49.1,75,80,-82.5,37.5,40,-42.5,100,105,107.5,80,40,107.5,227.5,Masters 1,6,SBD,Raw
F,52,寺村 美香,Mika Teramura,アイアンジム,1962,51.25,70,80,85,62.5,67.5,-70.5,110,115,120,85,67.5,120,272.5,Masters 2,1,SBD,Raw
F,52,鈴木 有佳,,個人,1969,50.7,80,-90,90,60,-62.5,-62.5,-105,105,-115,90,60,105,255,Masters 2,2,SBD,Raw
F,52,田坂 朋子,,Team raws,1966,51.05,65,72.5,-77.5,50,55,57.5,90,102.5,107.5,72.5,57.5,107.5,237.5,Masters 2,3,SBD,Raw
F,52,堀切 俊枝,,スパインハウス,1967,51.2,55,62.5,67.5,52.5,55,-57.5,90,-100,-117.5,67.5,55,90,212.5,Masters 2,4,SBD,Raw
F,52,大橋 秀子,,個人,1967,48.7,45,50,-55,40,42.5,-45,80,85,90,50,42.5,90,182.5,Masters 2,5,SBD,Raw
F,52,藤木 真由美,,ACTOR,1961,50.25,60,-65,-65,35,37.5,-45,75,80,82.5,60,37.5,82.5,180,Masters 2,6,SBD,Raw
F,52,石橋 愛子,Aiko Ishibashi,ハマースポーツジム,1953,49.4,87.5,92.5,-97.5,60,62.5,63.5,105,110,115,92.5,63.5,115,271,Masters 3,1,SBD,Raw
F,52,木村 初子,,アサマトレーニングクラブ,1951,50.7,80,90,-95,40,-45,45,120,-130,-135,90,45,120,255,Masters 3,2,SBD,Raw
F,52,石田 啓子,,個人,1949,50.4,50,55,60.5,31,33,35.5,70,76,80,60.5,35.5,80,176,Masters 4,1,SBD,Raw
F,57,田中 まり子,Mariko Tanaka,個人,1974,54.9,130,-140,-140,67.5,70,72.5,160,170,-175,130,72.5,170,372.5,Masters 1,1,SBD,Raw
F,57,川端 友巳,,ゼウスジム,1979,56.4,100,-105,110,60,65,70,125,130,-140,110,70,130,310,Masters 1,2,SBD,Raw
F,57,糸井 千都香,,TXP,1972,55.7,85,95,100,55,57.5,60,100,105,110,100,60,110,270,Masters 1,3,SBD,Raw
F,57,川田 由紀子,,個人,1968,56.15,80,85,90,60,65,-67.5,105,-115,-115,90,65,105,260,Masters 2,1,SBD,Raw
F,57,谷川 恵美子,,富山パレス,1964,56.2,80,85,90,50,55,57.5,100,105,-110,90,57.5,105,252.5,Masters 2,2,SBD,Raw
F,57,後藤 三哉子,,ちからこぶ,1963,56.45,75,82.5,85,50,52.5,55,85,92.5,100,85,55,100,240,Masters 2,3,SBD,Raw
F,57,安藤 久子,,個人,1965,55.6,85,90,92.5,52.5,55,-57.5,85,90,-95,92.5,55,90,237.5,Masters 2,4,SBD,Raw
F,57,藤永 ひとみ,,MAT,1946,56.55,-55,55,-60,60,65,67.5,90,95,100,55,67.5,100,222.5,Masters 4,1,SBD,Raw
F,57,嶋岡 民栄,,烈剛河内,1946,,,,,,,,,,,,,,,Masters 4,NS,SBD,Raw
F,63,成田 みゆき,,MBC POWER,1975,61.85,120,130,135,55,60,-62.5,137.5,147.5,155,135,60,155,350,Masters 1,1,SBD,Raw
F,63,矢田 和砂,,ゼウスジム,1973,61.7,105,-107.5,107.5,52.5,-55,55,110,115,-120,107.5,55,115,277.5,Masters 1,2,SBD,Raw
F,63,篠原 千絵,,ストロングライン,1970,60.95,80,90,-95,60,-65,-65,105,117.5,122.5,90,60,122.5,272.5,Masters 1,3,SBD,Raw
F,63,吉原 千恵,,個人,1977,60.95,87.5,95,97.5,52.5,57.5,-60,110,115,-117.5,97.5,57.5,115,270,Masters 1,4,SBD,Raw
F,63,奥村 真弓,,マッスルプロダクション,1964,60.95,70,80,-85,55,-60,60,90,105,110,80,60,110,250,Masters 2,1,SBD,Raw
F,63,柳沢 由紀子,,K’S GYM横浜,1967,57.7,50,60,65,40,45,50,75,85,92.5,65,50,92.5,207.5,Masters 2,2,SBD,Raw
F,63,高垣 慶子,,グッドコンディション,1962,61.85,60,65,-67.5,47.5,50,52.5,75,82.5,90,65,52.5,90,207.5,Masters 2,3,SBD,Raw
F,72,鷲頭 智子,Tomoko Washizu,エスフォルサール,1978,63.15,120,130,-132.5,70,72.5,75,140,155,-165.5,130,75,155,360,Masters 1,1,SBD,Raw
F,72,照屋 利恵,Rie Teruya,POWER SPORT,1975,68.85,110,120,-125,85,90,-92.5,125,135,140,120,90,140,350,Masters 1,2,SBD,Raw
F,72,芦川 聖子,,TXP,1974,69.85,112.5,122.5,-130,55,60,-62.5,112.5,122.5,127.5,122.5,60,127.5,310,Masters 1,3,SBD,Raw
F,72,伊藤 治美,,Strongth Gym Tokyo Bay,1978,66,100,105,112.5,57.5,62.5,-65,125,130,-135,112.5,62.5,130,305,Masters 1,4,SBD,Raw
F,72,中根 春美,,ちからこぶ,1961,64.35,100,110,115,55,60,-62.5,110,122.5,-127.5,115,60,122.5,297.5,Masters 2,1,SBD,Raw
F,72,大賀 瑞穂,,個人,1966,71.1,85,95,100,55,60,65,100,110,120,100,65,120,285,Masters 2,2,SBD,Raw
F,72,村松 由美子,,THE Chapions,1959,66.5,100,110,115,50,55,60,110,120,-130,115,60,120,295,Masters 3,1,SBD,Raw
F,72,中島 美代子,,B．A・D,1948,67.25,97.5,-102.5,102.5,65,67.5,70,120,127.5,132.5,102.5,70,132.5,305,Masters 4,1,SBD,Raw
F,72,中山 みどり,Midori Nakayama,シロクマパワージム,1941,66.25,60,70,80,35,40,45,80,100,-110,80,45,100,225,Masters 4,2,SBD,Raw
F,84,梅村 優子,,ちからこぶ,1974,80.5,160,-170,-170,65,-72.5,72.5,140,150,-160.5,160,72.5,150,382.5,Masters 1,1,SBD,Raw
F,84,関口 智子,,個人,1957,82.5,40,50,60,47.5,52.5,55,90,100,105,60,55,105,220,Masters 3,1,SBD,Raw
F,84+,岡 恵美,,個人,1978,88.15,100,110,112.5,57.5,60,62.5,120,130,135,112.5,62.5,135,310,Masters 1,1,SBD,Raw
