Name,Age,Division,Sex,BodyweightKg,WeightClassKg,Squat1Kg,Squat2Kg,Squat3Kg,Best3SquatKg,Bench1Kg,Bench2Kg,Bench3Kg,Best3BenchKg,Deadlift1Kg,Deadlift2Kg,Deadlift3Kg,Best3DeadliftKg,TotalKg,Place,Event,Equipment,BirthDate
Connor Pugh,21,M-OR,M,114.1,125,225,240,-250,240,125,135,-140,135,215,230,-240,230,605,6,SBD,Wraps,
Brad Read,23,M-OR,M,165.4,140+,225,237.5,245,245,160,172.5,-180,172.5,230,242.5,250,250,667.5,2,SBD,Wraps,
Mark Wilkins,27,M-OR,M,127.4,140,240,-260,-260,240,150,160,-165,160,220,240,-260,240,640,3,SBD,Wraps,
Cameron Jolliffe,25,M-OR,M,124.2,125,210,227.5,235,235,120,130,-135,130,230,250,-260,250,615,5,SBD,Wraps,
Manuel Paraskevos,31,M-OR,M,143.2,140+,230,-250,-250,230,155,162.5,170,170,240,255,270,270,670,1,SBD,Wraps,
Jason Gillespie,47,M-OR,M,137.4,140,255,280,292.5,292.5,170,-180,,170,250,267.5,277.5,277.5,740,2,SBD,Wraps,
Flynn O'brien,20,M-OR,M,118.7,125,240,260,270,270,155,165,170,170,250,270,-280,270,710,4,SBD,Wraps,
LeRoy Vorster,33,M-OR,M,119.9,125,285,-305,305,305,205,220,-227.5,220,260,275,285,285,810,1,SBD,Wraps,
Robert Howells,35,M-OR,M,122.9,125,285,-310,310,310,165,180,-185,180,280,-300,-300,280,770,3,SBD,Wraps,
Nick Thomas #5,29,M-OR,M,125.3,140,220,240,260,260,200,207.5,212.5,212.5,280,300,-307.5,300,772.5,1,SBD,Wraps,
Kayleb Manuel-Bartlett,29,M-OR,M,120.1,125,275,295,-305,295,180,192.5,-200,192.5,-275,300,-312.5,300,787.5,2,SBD,Wraps,
Carlos Varney,34,M-OR,M,107.8,110,-200,-205,-205,,125,130,135,135,190,210,-215,210,,DQ,SBD,Wraps,
Nathan Guttormsen,18,M-OR,M,104.8,110,200,215,227.5,227.5,135,145,-150,145,190,210,-220,210,582.5,7,SBD,Wraps,
Saxon Howard-Secombe,21,M-OR,M,103.5,110,210,220,227.5,227.5,127.5,140,-147.5,140,200,217.5,-232.5,217.5,585,6,SBD,Wraps,
Ben Walls,39,M-OR,M,101.5,110,175,-182.5,-182.5,175,145,150,-155,150,225,235,-240,235,560,9,SBD,Wraps,
Elias Domingos,24,M-OR,M,100.2,110,-205,205,-215,205,125,-135,-135,125,230,242.5,-255,242.5,572.5,8,SBD,Wraps,
Heath Young,22,M-OR,M,107.9,110,240,250,-260,250,130,-142.5,-142.5,130,230,245,-255,245,625,5,SBD,Wraps,
Pierce Leahy,21,M-OR,M,105.8,110,210,222.5,232.5,232.5,137.5,142.5,-150,142.5,250,265,-275,265,640,4,SBD,Wraps,
Sonny Tavni,30,M-OR,M,107.7,110,260,272.5,277.5,277.5,160,172.5,-177.5,172.5,265,275,282.5,282.5,732.5,2,SBD,Wraps,
Otis Towill,44,M-OR,M,109,110,-242.5,-250,-250,,155,170,-175,170,270,300,-310,300,,DQ,SBD,Wraps,
Trent McFadzen,41,M-OR,M,107.5,110,255,265,275,275,135,-140,140,140,275,287.5,-300,287.5,702.5,3,SBD,Wraps,
Ricky Goodyear,44,M-OR,M,108.6,110,285,300,310,310,190,200,-205,200,290,305,,305,815,1,SBD,Wraps,
Kylah Cunningham,22,F-OR,F,87.5,90,105,112.5,115,115,57.5,62.5,65,65,112.5,122.5,130,130,310,3,SBD,Wraps,
Bianca Ashley,28,F-OR,F,88.4,90,120,130,132.5,132.5,67.5,-72.5,-72.5,67.5,120,130,-135,130,330,2,SBD,Wraps,
Stephanie Hales,27,F-OR,F,107.1,110,167.5,177.5,-182.5,177.5,75,80,-82.5,80,135,145,152.5,152.5,410,2,SBD,Wraps,
Sinead Houston,40,F-OR,F,109.4,110,135,145,155,155,65,67.5,70,70,135,145,155,155,380,4,SBD,Wraps,
Rebecca Aicholzer,43,F-OR,F,107.8,110,95,100,105,105,67.5,72.5,77.5,77.5,140,150,160,160,342.5,5,SBD,Wraps,
Perdita Bararington,40,F-OR,F,98.3,110,145,155,160,160,50,57.5,60,60,145,155,160,160,380,3,SBD,Wraps,
Claire Parton,26,F-OR,F,117.2,110+,140,150,-160,150,60,70,-80,70,120,140,-160,140,360,1,SBD,Wraps,
Cody Brown,24,F-OR,F,108.9,110,165,185,200,200,80,85,-87.5,85,165,175,185,185,470,1,SBD,Wraps,
Elkie Shakespeare,25,F-OR,F,89.7,90,170,177.5,-187.5,177.5,67.5,-70,70,70,170,180,-185,180,427.5,1,SBD,Wraps,
Nes Christie,36,F-OR,F,81.2,82.5,110,117.5,-122.5,117.5,57.5,62.5,-67.5,62.5,110,122.5,132.5,132.5,312.5,7,SBD,Wraps,
Megan Pitman,32,F-OR,F,71.9,75,102.5,107.5,-115,107.5,50,55,-57.5,55,117.5,127.5,-135,127.5,290,5,SBD,Wraps,
Maddie Macintyre,24,F-OR,F,74.2,75,120,130,140,140,60,-65,-65,60,120,125,130,130,330,4,SBD,Wraps,
Tracey Adams,54,F-OR,F,72,75,105,-110,110,110,52.5,-55,-55,52.5,120,127.5,-135,127.5,290,6,SBD,Wraps,
Kathy Frisch,34,F-OR,F,80.1,82.5,105,115,-122.5,115,55,60,-62.5,60,125,140,-150,140,315,6,SBD,Wraps,
Rebecca Hill,45,F-OR,F,81.2,82.5,115,120,127.5,127.5,57.5,65,-67.5,65,125,135,-140,135,327.5,5,SBD,Wraps,
Leah Higl,23,F-OR,F,73.1,75,122.5,-130,130,130,82.5,87.5,-90,87.5,130,140,152.5,152.5,370,3,SBD,Wraps,
Christine Grobler,26,F-OR,F,78.7,82.5,135,145,150,150,60,67.5,-70,67.5,130,137.5,142.5,142.5,360,3,SBD,Wraps,
Brooke Floyd,26,F-OR,F,79,82.5,112.5,117.5,122.5,122.5,57.5,62.5,-65,62.5,132.5,140,147.5,147.5,332.5,4,SBD,Wraps,
Abbey Beattie-Nagas,35,F-OR,F,72.1,75,130,145,150,150,60,67.5,70,70,135,147.5,152.5,152.5,372.5,2,SBD,Wraps,
Abbie Ohl,26,F-OR,F,72.3,75,-145,-145,-145,,65,-70,-70,65,140,150,-160,150,,DQ,SBD,Wraps,
Lauren Brown,35,F-OR,F,78.5,82.5,160,170,-175,170,85,-90,92.5,92.5,150,157.5,-160,157.5,420,1,SBD,Wraps,
Ana Robinson,24,F-OR,F,74.6,75,140,157.5,-170,157.5,65,75,-80,75,150,-162.5,170,170,402.5,1,SBD,Wraps,
Rebecca Kieseker,32,F-OR,F,80.9,82.5,137.5,145,150,150,75,80,-82.5,80,160,170,-175,170,400,2,SBD,Wraps,
Rishi Vakharia,31,M-OR,M,74.3,75,170,-177.5,-177.5,170,90,95,-97.5,95,180,-190,190,190,455,1,SBD,Wraps,
Niall Mcdicken,25,M-OR,M,98.3,100,155,165,172.5,172.5,105,112.5,117.5,117.5,180,-205,-205,180,470,9,SBD,Wraps,
Michael Watt,37,M-OR,M,67.1,67.5,170,180,-185,180,115,122.5,-130,122.5,220,230,237.5,237.5,540,1,SBD,Wraps,
Shaun Morabito,32,M-OR,M,98.4,100,220,230,237.5,237.5,145,155,160,160,215,235,-240,235,632.5,8,SBD,Wraps,
Jason Hill,47,M-OR,M,97.7,100,265,-280,-280,265,160,170,-175,170,255,267.5,280,280,715,4,SBD,Wraps,
Louis Fesolai,31,M-OR,M,98.9,100,260,270,-280,270,160,170,-180,170,270,-280,-280,270,710,5,SBD,Wraps,
Jayden Termine,32,M-OR,M,97.9,100,275,290,300,300,140,-147.5,,140,275,-285,285,285,725,3,SBD,Wraps,
Braydn Vit,23,M-OR,M,99.3,100,270,282.5,-290,282.5,165,177.5,185,185,250,270,-290,270,737.5,2,SBD,Wraps,
Brennan Reardon,31,M-OR,M,97.2,100,285,-300,305,305,165,172.5,-177.5,172.5,280,295,300,300,777.5,1,SBD,Wraps,
Kane Sturdee,23,M-OR,M,97.2,100,255,265,275,275,130,145,150,150,265,-275,,265,690,7,SBD,Wraps,
Alfie Pope,23,M-OR,M,92.2,100,255,-270,270,270,135,145,-150,145,265,275,,275,690,6,SBD,Wraps,
Clay Smith,32,M-OR,M,89.7,90,205,220,,220,-120,120,127.5,127.5,180,200,210,210,557.5,5,SBD,Wraps,
Robert Jarvis,34,M-OR,M,80.4,82.5,160,170,175,175,125,132.5,137.5,137.5,190,210,225,225,537.5,4,SBD,Wraps,
Lachie Inch,29,M-OR,M,89.1,90,175,185,-192.5,185,107.5,112.5,-115,112.5,195,205,210,210,507.5,8,SBD,Wraps,
Bailey Ambrum,23,M-OR,M,86.4,90,212.5,-220,-220,212.5,115,120,125,125,202.5,212.5,-220,212.5,550,6,SBD,Wraps,
Jason Grybaitis,26,M-OR,M,88.7,90,-180,-180,180,180,105,110,112.5,112.5,210,230,-242.5,230,522.5,7,SBD,Wraps,
Tyler Brooks,32,M-OR,M,87.5,90,225,235,240,240,150,160,165,165,220,225,230,230,635,2,SBD,Wraps,
Joel Thorne,26,M-OR,M,81.8,82.5,235,245,250,250,127.5,132.5,137.5,137.5,225,235,-245,235,622.5,3,SBD,Wraps,
Luke Drury,26,M-OR,M,88.4,90,227.5,235,-240,235,-125,130,135,135,230,240,245,245,615,3,SBD,Wraps,
Heath Ryan,45,M-OR,M,81,82.5,230,242.5,-250,242.5,150,160,-165,160,230,250,-260,250,652.5,2,SBD,Wraps,
Nicholas Wilson,28,M-OR,M,80.9,82.5,220,240,250,250,140,150,155,155,240,262.5,272.5,272.5,677.5,1,SBD,Wraps,
Shay Carroll,22,M-OR,M,87.3,90,185,197.5,-207.5,197.5,117.5,122.5,127.5,127.5,245,260,-272.5,260,585,4,SBD,Wraps,
Bryce Dickey,36,M-OR,M,86.4,90,230,245,255,255,115,122.5,127.5,127.5,255,270,280,280,662.5,1,SBD,Wraps,
Kyanne Hunt,29,F-OR,F,60.8,67.5,90,100,105,105,50,52.5,55,55,115,127.5,-132.5,127.5,287.5,10,SBD,Wraps,
Ann Walker-Crandon,29,F-OR,F,67.1,67.5,105,-115,-115,105,55,-60,-60,55,115,125,135,135,295,9,SBD,Wraps,
Sarah Sherwood,38,F-OR,F,65.6,67.5,110,125,132.5,132.5,60,65,67.5,67.5,125,137.5,-142.5,137.5,337.5,5,SBD,Wraps,
Mara Rees,45,F-OR,F,66.7,67.5,-112.5,-112.5,112.5,112.5,47.5,52.5,-55,52.5,125,135,142.5,142.5,307.5,8,SBD,Wraps,
Bree Wolf,29,F-OR,F,65.2,67.5,115,-125,130,130,55,-60,60,60,125,135,142.5,142.5,332.5,6,SBD,Wraps,
Jenna Southee,23,F-OR,F,66.7,67.5,120,132.5,-137.5,132.5,67.5,72.5,-75,72.5,122.5,135,-142.5,135,340,4,SBD,Wraps,
Stephanie-Lynn Mckay-Gillies,26,F-OR,F,64.1,67.5,135,145,150,150,75,77.5,-80,77.5,140,147.5,152.5,152.5,380,2,SBD,Wraps,
Rachel Christie,45,F-OR,F,63.7,67.5,120,-130,-130,120,55,-60,-60,55,140,150,155,155,330,7,SBD,Wraps,
Natalie Kormushoff,30,F-OR,F,67.3,67.5,127.5,140,147.5,147.5,72.5,82.5,-87.5,82.5,145,152.5,-157.5,152.5,382.5,1,SBD,Wraps,
Kat Bennett,26,F-OR,F,66.5,67.5,127.5,135,140,140,60,67.5,-70,67.5,155,167.5,-175,167.5,375,3,SBD,Wraps,
Tabatha Whitehead,39,F-OR,F,66.2,67.5,,,,,75,80,-82.5,80,,,,,80,1,B,Raw,
Debra Maggs,39,F-OR,F,55.4,56,75,82.5,85,85,35,40,-42.5,40,95,102.5,107.5,107.5,232.5,4,SBD,Wraps,
Sanja Cabak,32,F-OR,F,58.6,60,100,-110,-110,100,45,50,52.5,52.5,100,110,-120,110,262.5,7,SBD,Wraps,
Erin Williams,23,F-OR,F,54.4,56,95,-97.5,105,105,40,45,-50,45,-110,112.5,-115,112.5,262.5,3,SBD,Wraps,
Taylah Whitaker,22,F-OR,F,59.1,60,115,-125,127.5,127.5,57.5,62.5,-67.5,62.5,115,125,-130,125,315,6,SBD,Wraps,
Gabbi Hyde,25,F-OR,F,51.8,52,90,100,-107.5,100,62.5,67.5,-70,67.5,120,130,135,135,302.5,1,SBD,Wraps,
Tori Lawn,24,F-OR,F,52.1,56,132.5,140,145,145,60,65,-67.5,65,130,137.5,145,145,355,1,SBD,Wraps,
Zhara Krine,30,F-OR,F,53.8,56,130,135,-140,135,50,55,60,60,135,142.5,147.5,147.5,342.5,2,SBD,Wraps,
Alison Andric,53,F-OR,F,58.7,60,110,120,-125,120,67.5,72.5,-77.5,72.5,137.5,147.5,155,155,347.5,5,SBD,Wraps,
Greer Mason,30,F-OR,F,59.5,60,140,-147.5,147.5,147.5,60,65,-70,65,-140,140,-150,140,352.5,4,SBD,Wraps,
Leisa Ohl,28,F-OR,F,59.7,60,135,145,-150,145,75,-80,-80,75,140,150,155,155,375,2,SBD,Wraps,
Angelika Gutierrez,22,F-OR,F,60,60,125,140,-145,140,65,70,-72.5,70,140,147.5,155,155,365,3,SBD,Wraps,
Bec Giles,34,F-OR,F,59.45,60,150,160,-165,160,90,97.5,-102.5,97.5,160,170,,170,427.5,1,SBD,Wraps,
