Division,WeightClassKg,Place,Name,Team,BodyweightKg,Best3SquatKg,Best3BenchKg,Best3DeadliftKg,TotalKg,Equipment,Event,Sex
Boys,51.71,1,Antonio Ponce,Glen Rose,51.35,117.93,61.23,142.88,322.05,Single-ply,SBD,M
Boys,55.79,2,Brodie Cantu,Dawson,51.89,90.72,56.7,111.13,258.55,Single-ply,SBD,M
Boys,55.79,3,Dalton Wiethorn,West,51.89,97.52,54.43,102.06,254.01,Single-ply,SBD,M
Boys,51.71,4,Tanner Resecker,Glen Rose,50.26,90.72,56.7,88.45,235.87,Single-ply,SBD,M
Boys,51.71,5,Rodrigo Hernandez,Hillsboro,50.8,68.04,56.7,106.59,231.33,Single-ply,SBD,M
Boys,51.71,6,Jon Whalen,Whitney,43.91,58.97,34.02,72.57,165.56,Single-ply,SBD,M
Boys,59.87,1,Azahel Herrera,Glen Rose,55.88,127.01,97.52,149.69,374.21,Single-ply,SBD,M
Boys,55.79,2,Oscar Perez,Venus,52.07,124.74,72.57,129.27,326.59,Single-ply,SBD,M
Boys,55.79,3,Cesar Herrera,Glen Rose,53.61,124.74,72.57,127.01,324.32,Single-ply,SBD,M
Boys,55.79,4,Will Miller,Dawson,55.52,106.59,65.77,142.88,315.25,Single-ply,SBD,M
Boys,59.87,5,Javier Sauceda,China Spring,55.88,106.59,63.5,136.08,306.17,Single-ply,SBD,M
Boys,55.79,6,Julian Espinoza,Venus,53.71,97.52,52.16,108.86,258.55,Single-ply,SBD,M
Boys,59.87,7,Noah Weigant,Whitney,55.88,88.45,65.77,99.79,254.01,Single-ply,SBD,M
Boys,55.79,8,Estefano Lopez,Waco University,53.34,92.99,63.5,70.31,226.8,Single-ply,SBD,M
Boys,59.87,1,Carlin Linnabery,Glen Rose,59.06,158.76,86.18,154.22,399.16,Single-ply,SBD,M
Boys,59.87,2,Jorge Perez,Venus,57.61,151.95,77.11,138.35,367.41,Single-ply,SBD,M
Boys,59.87,3,Adolfo Rodriguez,West,59.51,149.69,83.91,131.54,365.14,Single-ply,SBD,M
Boys,67.13,4,Erik Larsen,China Spring,59.96,106.59,79.38,140.61,326.59,Single-ply,SBD,M
Boys,67.13,1,Nick Weigant,Whitney,64.05,149.69,88.45,142.88,381.02,Single-ply,SBD,M
Boys,74.84,2,Michael Vega,Venus,67.22,136.08,88.45,151.95,376.48,Single-ply,SBD,M
Boys,67.13,3,Carter Brigman,Waxahachie,66.59,136.08,90.72,147.42,374.21,Single-ply,SBD,M
Boys,67.13,4,Kelby Sultemeier,West,62.96,138.35,83.91,129.27,351.53,Single-ply,SBD,M
Boys,67.13,5,Kris Glynn,Waco University,61.51,106.59,70.31,163.29,340.19,Single-ply,SBD,M
Boys,67.13,6,Stephen Craig,Whitney,60.42,113.4,65.77,120.2,299.37,Single-ply,SBD,M
Boys,67.13,7,Hudson Howell,Cleburne,61.6,108.86,61.23,129.27,299.37,Single-ply,SBD,M
Boys,67.13,8,Mariano Perez,West,66.5,104.33,52.16,104.33,260.82,Single-ply,SBD,M
Boys,74.84,1,Hunter Redmond,Glen Rose,74.57,183.7,106.59,208.65,498.95,Single-ply,SBD,M
Boys,74.84,2,Zach Rankin,West,72.76,195.04,115.67,185.97,496.68,Single-ply,SBD,M
Boys,74.84,3,Chris Dingrando,Whitney,74.12,170.1,120.2,206.38,496.68,Single-ply,SBD,M
Boys,74.84,4,Trevor Crawford,Glen Rose,72.57,163.29,115.67,188.24,467.2,Single-ply,SBD,M
Boys,74.84,5,Gavin Pringle,Waxahachie,73.66,174.63,92.99,170.1,437.72,Single-ply,SBD,M
Boys,82.1,6,Eduardo Ortiz,Hillsboro,75.07,158.76,97.52,181.44,437.72,Single-ply,SBD,M
Boys,74.84,7,Drew Roberts,China Spring,74.57,167.83,113.4,147.42,428.64,Single-ply,SBD,M
Boys,74.84,8,Hayden Swearengin,Glen Rose,73.94,158.76,108.86,154.22,421.84,Single-ply,SBD,M
Boys,74.84,9,Garrett David,Waxahachie,67.59,156.49,88.45,170.1,415.04,Single-ply,SBD,M
Boys,74.84,10,Matt Dingrando,Whitney,74.75,158.76,90.72,158.76,408.23,Single-ply,SBD,M
Boys,74.84,11,Juan Ruiz,Cleburne,74.84,149.69,92.99,156.49,399.16,Single-ply,SBD,M
Boys,74.84,12,Dakota Runnels,Cleburne,67.77,131.54,86.18,158.76,376.48,Single-ply,SBD,M
Boys,74.84,13,Jeremiah Walker,Waco University,69.04,113.4,97.52,151.95,362.87,Single-ply,SBD,M
Boys,74.84,14,Lane DuBose,Dawson,68.04,131.54,79.38,147.42,358.34,Single-ply,SBD,M
Boys,74.84,15,Jared Conley,Cleburne,73.39,113.4,79.38,136.08,328.85,Single-ply,SBD,M
Boys,82.1,16,Nolan Murray,Dawson,75.02,102.06,61.23,120.2,283.5,Single-ply,SBD,M
Boys,74.84,17,Hugo Chavez,Hillsboro,67.77,133.81,,147.42,281.23,Single-ply,SD,M
Boys,74.84,18,Darian Hartman,Waxahachie,67.86,124.74,,147.42,272.16,Single-ply,SD,M
Boys,74.84,19,Teonde Parsons,Waco University,70.67,113.4,,147.42,260.82,Single-ply,SD,M
Boys,82.1,1,Dawson Lochridge,Whitney,80.65,181.44,113.4,181.44,476.27,Single-ply,SBD,M
Boys,82.1,2,Koltan Hampton,China Spring,76.93,185.97,97.52,181.44,464.93,Single-ply,SBD,M
Boys,82.1,3,Spencer Majors,Waco University,81.1,149.69,104.33,192.78,446.79,Single-ply,SBD,M
Boys,82.1,4,Mario Ponce,Cleburne,81.92,192.78,92.99,161.03,446.79,Single-ply,SBD,M
Boys,82.1,5,Jeffery Morua,Waco University,80.92,136.08,92.99,161.03,390.09,Single-ply,SBD,M
Boys,82.1,6,Logan Willenborg,West,81.37,149.69,83.91,142.88,376.48,Single-ply,SBD,M
Boys,82.1,7,Preston Driggars,Dawson,79.92,122.47,74.84,151.95,349.27,Single-ply,SBD,M
Boys,82.1,8,Trever Sellers,Grandview,77.93,124.74,113.4,,238.14,Single-ply,SB,M
Boys,89.81,1,Dontavious Green,Waco University,86.91,181.44,117.93,226.8,526.17,Single-ply,SBD,M
Boys,89.81,2,Leonardo Zavala,Waxahachie,87.82,210.92,97.52,215.46,523.9,Single-ply,SBD,M
Boys,99.79,3,Chris Clark,Waxahachie,90.04,174.63,117.93,208.65,501.22,Single-ply,SBD,M
Boys,89.81,4,Antonio Vargas,China Spring,83.28,165.56,136.08,185.97,487.61,Single-ply,SBD,M
Boys,89.81,5,Dj Jefferson,Waxahachie,86.91,172.37,113.4,192.78,478.54,Single-ply,SBD,M
Boys,89.81,6,Stevie Stoermer,West,86.55,172.37,102.06,181.44,455.86,Single-ply,SBD,M
Boys,89.81,7,Nathaniel Hudson,Cleburne,85.28,165.56,92.99,188.24,446.79,Single-ply,SBD,M
Boys,89.81,8,Alee Lara,Venus,85.64,154.22,97.52,154.22,405.97,Single-ply,SBD,M
Boys,89.81,9,Steven Field,China Spring,87.27,102.06,99.79,156.49,358.34,Single-ply,SBD,M
Boys,89.81,10,Bryce Latson,Grandview,84.55,136.08,92.99,124.74,353.8,Single-ply,SBD,M
Boys,89.81,11,Travis Keele,Dawson,88.36,131.54,65.77,133.81,331.12,Single-ply,SBD,M
Boys,89.81,12,Jake Rounsavall,Hillsboro,89.81,117.93,90.72,113.4,322.05,Single-ply,SBD,M
Boys,89.81,13,Payton Price,Grandview,87.91,102.06,65.77,111.13,278.96,Single-ply,SBD,M
Boys,109.77,1,Heath Nicholson,Glen Rose,99.97,249.48,136.08,260.82,646.37,Single-ply,SBD,M
Boys,99.79,2,Dalton Symm,China Spring,97.16,251.74,154.22,199.58,605.55,Single-ply,SBD,M
Boys,99.79,3,Michael Clift,Venus,99.16,242.67,149.69,197.31,589.67,Single-ply,SBD,M
Boys,109.77,4,Hosbaldo Ruiz,Cleburne,99.97,231.33,145.15,206.38,582.87,Single-ply,SBD,M
Boys,99.79,5,Braxton Barrios,Glen Rose,99.43,210.92,136.08,188.24,535.24,Single-ply,SBD,M
Boys,99.79,6,Chriss Woods,Waxahachie,99.16,204.12,136.08,192.78,532.97,Single-ply,SBD,M
Boys,99.79,7,Eduardo Cruz Rubio,Hillsboro,91.53,217.72,113.4,170.1,501.22,Single-ply,SBD,M
Boys,99.79,8,Tyler Pustejovsky,West,99.34,195.04,115.67,190.51,501.22,Single-ply,SBD,M
Boys,99.79,9,Nate Ramirez,Whitney,94.17,165.56,102.06,181.44,449.06,Single-ply,SBD,M
Boys,99.79,10,Zach Cobb,China Spring,92.99,142.88,106.59,136.08,385.55,Single-ply,SBD,M
Boys,99.79,11,Taylor Hull,China Spring,92.9,,122.47,199.58,322.05,Single-ply,BD,M
Boys,99.79,12,Guadalupe Silva,Venus,93.08,158.76,,163.29,322.05,Single-ply,SD,M
Boys,99.79,13,Chase Lordi,Cleburne,95.8,151.95,,161.03,312.98,Single-ply,SD,M
Boys,99.79,14,Joe Fallwell,Whitney,93.8,102.06,70.31,124.74,297.1,Single-ply,SBD,M
Boys,99.79,15,Ryaln Wade,Dawson,91.72,92.99,63.5,106.59,263.08,Single-ply,SBD,M
Boys,99.79,16,Blake Nesmith,Dawson,92.08,102.06,43.09,97.52,242.67,Single-ply,SBD,M
Boys,109.77,1,Matt Gerik,West,108.05,276.69,149.69,233.6,659.98,Single-ply,SBD,M
Boys,109.77,2,Victor Mejia,Waxahachie,108.5,242.67,154.22,242.67,639.57,Single-ply,SBD,M
Boys,109.77,3,Adam Arredondo,Waxahachie,106.23,254.01,154.22,219.99,628.23,Single-ply,SBD,M
Boys,109.77,4,Jason Harris,West,107.05,217.72,127.01,195.04,539.77,Single-ply,SBD,M
Boys,109.77,5,Jared Camp,Grandview,103.96,181.44,102.06,181.44,464.93,Single-ply,SBD,M
Boys,109.77,6,Drannon Brewer,Glen Rose,101.06,183.7,83.91,183.7,451.32,Single-ply,SBD,M
Boys,109.77,7,Armando Guevera,Cleburne,103.69,181.44,102.06,147.42,430.91,Single-ply,SBD,M
Boys,109.77,8,Brayan Villa,Grandview,101.33,145.15,115.67,158.76,419.57,Single-ply,SBD,M
Boys,109.77,9,Chris Robles,Cleburne,104.51,151.95,92.99,161.03,405.97,Single-ply,SBD,M
Boys,109.77,10,Ismael Rameriz,Hillsboro,100.97,147.42,90.72,151.95,390.09,Single-ply,SBD,M
Boys,109.77,11,Kimbal Roca,Venus,109.68,204.12,,176.9,381.02,Single-ply,SD,M
Boys,109.77,12,Derrick Oliver,Whitney,105.32,149.69,,133.81,283.5,Single-ply,SD,M
Boys,124.74,1,Adrian Zavala,Waxahachie,112.04,222.26,138.35,235.87,596.47,Single-ply,SBD,M
Boys,124.74,2,Erik Zavala,Hillsboro,115.39,235.87,129.27,229.06,594.21,Single-ply,SBD,M
Boys,124.74,3,Noah Stebens,China Spring,115.39,174.63,106.59,158.76,439.98,Single-ply,SBD,M
Boys,124.74,4,Rafael Castaneda,Hillsboro,110.86,145.15,88.45,136.08,369.68,Single-ply,SBD,M
Boys,124.74+,1,Jessie Wilson,Whitney,150.32,272.16,195.04,258.55,725.75,Single-ply,SBD,M
Boys,124.74+,2,Tevin Boone,Cleburne,139.25,249.48,151.95,249.48,650.91,Single-ply,SBD,M
Boys,124.74+,3,Thomas Turner,Waco University,128.46,219.99,147.42,204.12,571.53,Single-ply,SBD,M
Boys,124.74+,4,Clay Sparks,China Spring,132.99,199.58,104.33,165.56,469.47,Single-ply,SBD,M
Boys,124.74+,5,Aaron Crosley,Grandview,128.37,158.76,108.86,165.56,433.18,Single-ply,SBD,M
Boys,124.74+,6,Micahel Williams,Dawson,167.56,219.99,,192.78,412.77,Single-ply,SD,M
