Division,WeightClassKg,Place,Name,Team,BodyweightKg,Best3SquatKg,Best3BenchKg,Best3DeadliftKg,TotalKg,Equipment,Event,Sex,BirthDate
Boys,51.71,1,Anthony Currie,Bryan Rudder,51.57,61.23,38.56,90.72,190.51,Single-ply,SBD,M,
Boys,55.79,1,Houston Scanlin,Bryan Rudder,55.61,113.4,70.31,120.2,303.91,Single-ply,SBD,M,
Boys,59.87,1,Rj Rubio,Bryan Rudder,59.69,183.7,79.38,192.78,455.86,Single-ply,SBD,M,
Boys,67.13,1,Cory Price,College Station A&M Cons,66.04,192.78,124.74,201.85,519.36,Single-ply,SBD,M,
Boys,67.13,2,Lane Blevins,Bryan,65.63,199.58,113.4,204.12,517.1,Single-ply,SBD,M,
Boys,67.13,3,Matthew Martin,College Station A&M Cons,66.86,151.95,104.33,156.49,412.77,Single-ply,SBD,M,
Boys,67.13,4,Garret Lero,Snook,63.46,158.76,92.99,149.69,401.43,Single-ply,SBD,M,
Boys,67.13,5,Gavin Anglin,Caldwell,65.73,142.88,102.06,142.88,387.82,Single-ply,SBD,M,
Boys,67.13,6,Victor Chavez,Bryan,65.5,124.74,81.65,151.95,358.34,Single-ply,SBD,M,
Boys,74.84,1,Colton Love,College Station A&M Cons,73.07,242.67,115.67,226.8,585.13,Single-ply,SBD,M,
Boys,74.84,2,David May,College Station A&M Cons,72.98,219.99,117.93,206.38,544.31,Single-ply,SBD,M,
Boys,74.84,3,Mekye Kao,Bryan,67.95,208.65,127.01,190.51,526.17,Single-ply,SBD,M,
Boys,74.84,4,Antonio Cardenas,College Station A&M Cons,74.84,185.97,111.13,192.78,489.88,Single-ply,SBD,M,
Boys,74.84,5,Malcolm Manley,Bryan Rudder,71.53,174.63,113.4,192.78,480.81,Single-ply,SBD,M,
Boys,74.84,6,Daniel Torres,Caldwell,73.26,181.44,115.67,179.17,476.27,Single-ply,SBD,M,
Boys,74.84,7,Tanner Lightsey,College Station A&M Cons,74.12,185.97,95.25,181.44,462.66,Single-ply,SBD,M,
Boys,74.84,8,Casen Garner,College Station A&M Cons,74.39,145.15,99.79,161.03,405.97,Single-ply,SBD,M,
Boys,74.84,9,Dustin Perkins,Franklin,72.57,136.08,90.72,147.42,374.21,Single-ply,SBD,M,
Boys,74.84,10,Edson Villegas,Brookshire Royal,68.4,133.81,83.91,142.88,360.61,Single-ply,SBD,M,
Boys,74.84,DQ,Charles Russworn,College Station A&M Cons,73.57,,,,,Single-ply,SBD,M,
Boys,82.1,1,Alvin Dunn,Bryan Rudder,81.78,235.87,136.08,226.8,598.74,Single-ply,SBD,M,
Boys,82.1,2,Sloane Vavre,Bryan,80.33,210.92,113.4,204.12,528.44,Single-ply,SBD,M,
Boys,82.1,3,Michael Ramos,Bryan Rudder,81.78,151.95,99.79,192.78,444.52,Single-ply,SBD,M,
Boys,82.1,4,Haden Bayer,Bryan,75.98,154.22,92.99,167.83,415.04,Single-ply,SBD,M,
Boys,82.1,5,Aldahir Mendoza,Brookshire Royal,81.1,138.35,92.99,167.83,399.16,Single-ply,SBD,M,
Boys,82.1,6,Victor Cabrerra,Bryan Rudder,80.29,133.81,83.91,158.76,376.48,Single-ply,SBD,M,
Boys,82.1,7,Josh McDonald,Brookshire Royal,81.56,133.81,83.91,158.76,376.48,Single-ply,SBD,M,
Boys,82.1,DQ,James Ayers,Bryan Rudder,81.42,,,,,Single-ply,SBD,M,
Boys,89.81,1,Chad Roebuck,Anderson-Shiro,89.77,249.48,161.03,210.92,621.42,Single-ply,SBD,M,
Boys,89.81,2,Jose Navarro,Brookshire Royal,88.63,206.38,124.74,215.46,546.58,Single-ply,SBD,M,
Boys,89.81,3,Joseph Garcia,College Station A&M Cons,86.45,210.92,136.08,185.97,532.97,Single-ply,SBD,M,
Boys,89.81,4,Christian Watters,College Station A&M Cons,89.54,181.44,117.93,208.65,508.02,Single-ply,SBD,M,
Boys,89.81,5,Ryan Poth,Bryan Rudder,89.63,83.91,52.16,136.08,272.16,Single-ply,SBD,M,
Boys,99.79,1,Nick McDaniels,Bryan,93.58,254.01,147.42,274.42,675.85,Single-ply,SBD,M,
Boys,99.79,2,Charlie Stutts,Bryan,98.66,231.33,117.93,204.12,553.38,Single-ply,SBD,M,
Boys,99.79,3,Klayton Sheffield,College Station A&M Cons,94.26,210.92,136.08,201.85,548.85,Single-ply,SBD,M,
Boys,99.79,4,Margarito Calderon,Brookshire Royal,99.43,208.65,129.27,215.46,553.38,Single-ply,SBD,M,
Boys,99.79,5,JaMarcus Jones,Bryan Rudder,91.81,195.04,111.13,195.04,501.22,Single-ply,SBD,M,
Boys,99.79,6,Colton Stewart,Bryan Rudder,99.79,204.12,104.33,190.51,498.95,Single-ply,SBD,M,
Boys,99.79,7,Lyndon Williams,Bryan Rudder,95.12,156.49,117.93,204.12,478.54,Single-ply,SBD,M,
Boys,99.79,8,Joseph Vega,Franklin,99.25,167.83,113.4,158.76,439.98,Single-ply,SBD,M,
Boys,109.77,1,Desmond Murphy,Bryan Rudder,104.87,281.23,151.95,288.03,721.21,Single-ply,SBD,M,
Boys,109.77,2,Cody Duewall,Franklin,107.55,244.94,142.88,226.8,614.62,Single-ply,SBD,M,
Boys,109.77,3,Austin Pennington,Bryan,107.46,226.8,122.47,242.67,591.94,Single-ply,SBD,M,
Boys,109.77,4,Barton Melder,College Station A&M Cons,108.54,231.33,127.01,226.8,585.13,Single-ply,SBD,M,
Boys,109.77,5,Lance Hamm,Hearne,108.73,226.8,147.42,185.97,560.19,Single-ply,SBD,M,
Boys,109.77,6,Kyle Greer,College Station A&M Cons,109.59,235.87,124.74,199.58,560.19,Single-ply,SBD,M,
Boys,109.77,7,Keegan Wilson,Franklin,104.73,217.72,122.47,217.72,557.92,Single-ply,SBD,M,
Boys,109.77,8,Andrew Elmore,Franklin,107,217.72,136.08,172.37,526.17,Single-ply,SBD,M,
Boys,109.77,9,Emiliano Martinez,Bryan Rudder,107.86,197.31,97.52,201.85,496.68,Single-ply,SBD,M,
Boys,109.77,10,David Schoenmann,Caldwell,108.36,188.24,104.33,192.78,485.34,Single-ply,SBD,M,
Boys,109.77,11,Jakai Bams,College Station A&M Cons,107.91,181.44,104.33,181.44,467.2,Single-ply,SBD,M,
Boys,124.74,1,Esequiel Flores,Caldwell,120.02,238.14,131.54,238.14,607.81,Single-ply,SBD,M,
Boys,124.74,2,Joseph Lightfoot,College Station A&M Cons,112.31,226.8,127.01,204.12,557.92,Single-ply,SBD,M,
Boys,124.74,3,Cody Noriega,Snook,111.27,231.33,111.13,197.31,539.77,Single-ply,SBD,M,
Boys,124.74,4,Ryan Broaddus,Caldwell,113.81,199.58,113.4,190.51,503.49,Single-ply,SBD,M,
Boys,124.74+,1,Eduardo Arteaga,Brookshire Royal,129.05,249.48,133.81,244.94,628.23,Single-ply,SBD,M,
Boys,124.74+,2,Timothy Chandler,College Station A&M Cons,125.78,181.44,104.33,149.69,435.45,Single-ply,SBD,M,
Boys,124.74+,3,Stanley Gilbert,Bryan Rudder,134.04,142.88,102.06,181.44,426.38,Single-ply,SBD,M,
