Division,WeightClassKg,Place,Name,Team,BodyweightKg,Best3SquatKg,Best3BenchKg,Best3DeadliftKg,TotalKg,Equipment,Event,Sex
Girls,44.23,1,Guadalupe Gobellan,Hillsboro,44.18,102.06,54.43,106.59,263.08,Single-ply,SBD,F
Girls,44.23,2,Kirsten Boyd,Alvarado,40.64,99.79,47.63,97.52,244.94,Single-ply,SBD,F
Girls,44.23,3,Clarissa Castaneda,Hillsboro,39.01,79.38,36.29,92.99,208.65,Single-ply,SBD,F
Girls,44.23,4,Jessica Duque,Hillsboro,40.37,79.38,38.56,83.91,201.85,Single-ply,SBD,F
Girls,47.85,1,Samantha Garcia,Whitney,47.63,124.74,63.5,131.54,319.78,Single-ply,SBD,F
Girls,47.85,2,Gia'Nah Sparks,Cedar Hill,46.9,92.99,49.9,102.06,244.94,Single-ply,SBD,F
Girls,47.85,3,Aislinn Venegas,Mexia,46.99,81.65,36.29,83.91,201.85,Single-ply,SBD,F
Girls,47.85,4,Cierra Fimbres,Waco Connally,46.9,70.31,38.56,70.31,179.17,Single-ply,SBD,F
Girls,47.85,5,Maria Pineda,Mexia,47.72,58.97,31.75,47.63,138.35,Single-ply,SBD,F
Girls,47.85,DQ,Ruth Marcos,Kyle Lehman,47.81,,,,,Single-ply,SBD,F
Girls,47.85,DQ,Laena Bodovsky,Kyle Lehman,47.17,70.31,43.09,,,Single-ply,SBD,F
Girls,51.94,1,Noelia Delgado,Whitney,51.89,115.67,70.31,111.13,297.1,Single-ply,SBD,F
Girls,51.94,2,Aakilah McCoy,Cedar Hill,50.35,124.74,52.16,115.67,292.57,Single-ply,SBD,F
Girls,51.94,3,Harlee Owen,Alvarado,50.35,104.33,49.9,108.86,263.08,Single-ply,SBD,F
Girls,51.94,4,Sabryn Reusch,Whitney,51.44,102.06,43.09,102.06,247.21,Single-ply,SBD,F
Girls,51.94,5,Itzel Guille,Whitney,49.9,97.52,43.09,95.25,235.87,Single-ply,SBD,F
Girls,51.94,6,Olivia Hernandez,Alvarado,48.72,88.45,45.36,95.25,229.06,Single-ply,SBD,F
Girls,51.94,7,Brina West,Waco Connally,51.26,68.04,43.09,86.18,197.31,Single-ply,SBD,F
Girls,51.94,8,Alexandria Olson,Troy,51.26,81.65,27.22,79.38,188.24,Single-ply,SBD,F
Girls,51.94,9,Maddison Rodriguez,Itasca,51.8,79.38,29.48,79.38,188.24,Single-ply,SBD,F
Girls,51.94,10,Mackenzie White,Whitney,49.17,61.23,38.56,83.91,183.7,Single-ply,SBD,F
Girls,51.94,11,Braelyn Thiele,Alvarado,51.07,70.31,36.29,63.5,170.1,Single-ply,SBD,F
Girls,51.94,12,Carlee Bradley,Troy,50.89,47.63,24.95,77.11,149.69,Single-ply,SBD,F
Girls,51.94,DQ,Judith Marcos,Hillsboro,51.8,,,,,Single-ply,SBD,F
Girls,56.02,1,Armonie Haywood,Hillsboro,54.88,104.33,49.9,115.67,269.89,Single-ply,SBD,F
Girls,56.02,2,Kelsey Creech,Hillsboro,55.97,111.13,52.16,90.72,254.01,Single-ply,SBD,F
Girls,56.02,3,Morgan Squires,Godley,55.34,92.99,45.36,113.4,251.74,Single-ply,SBD,F
Girls,56.02,4,Cedricia Battles,Cedar Hill,55.52,86.18,40.82,92.99,219.99,Single-ply,SBD,F
Girls,56.02,5,Heather Gee,Alvarado,53.89,70.31,49.9,90.72,210.92,Single-ply,SBD,F
Girls,56.02,DQ,Kaityn Brown,Italy,55.61,131.54,,,,Single-ply,SBD,F
Girls,60.1,1,Angelica Sanchez,Alvarado,60.06,124.74,65.77,97.52,288.03,Single-ply,SBD,F
Girls,60.1,2,Beneranda Martinez,Hillsboro,58.42,117.93,58.97,102.06,278.96,Single-ply,SBD,F
Girls,60.1,3,Jaqueline Aguilar,Alvarado,59.78,111.13,47.63,108.86,267.62,Single-ply,SBD,F
Girls,60.1,4,April Hahn,Troy,58.97,95.25,65.77,102.06,263.08,Single-ply,SBD,F
Girls,60.1,5,Isabel Mayorga,Hillsboro,58.79,124.74,43.09,90.72,258.55,Single-ply,SBD,F
Girls,60.1,6,Tayja Barnes,Cedar Hill,57.52,106.59,47.63,88.45,242.67,Single-ply,SBD,F
Girls,60.1,7,Carolina Fragoso,Itasca,59.69,83.91,31.75,88.45,204.12,Single-ply,SBD,F
Girls,60.1,8,Haley Maynard,Troy,59.33,63.5,31.75,95.25,190.51,Single-ply,SBD,F
Girls,60.1,DQ,Jasmine Diaz,Mexia,57.42,81.65,34.02,,,Single-ply,SBD,F
Girls,60.1,DQ,Reagan Wilkerson,Whitney,58.79,97.52,,,,Single-ply,SBD,F
Girls,60.1,DQ,Abigail Salinas,Itasca,56.52,68.04,,,,Single-ply,SBD,F
Girls,67.36,1,Kayla Gonzalez,Venus,65.86,151.95,61.23,133.81,347,Single-ply,SBD,F
Girls,67.36,2,Emalie Arnold,Alvarado,64.05,122.47,72.57,129.27,324.32,Single-ply,SBD,F
Girls,67.36,3,Gissel Bustos,Venus,61.51,131.54,61.23,122.47,315.25,Single-ply,SBD,F
Girls,67.36,4,Corbin Stulir,Rio Vista,66.04,122.47,54.43,117.93,294.84,Single-ply,SBD,F
Girls,67.36,5,Kirstyn Ward,Whitney,66.86,102.06,49.9,106.59,258.55,Single-ply,SBD,F
Girls,67.36,6,Allyson Rea,Kyle Lehman,67.31,97.52,58.97,92.99,249.48,Single-ply,SBD,F
Girls,67.36,7,Jessica Ramírez #1,Alvarado,65.95,92.99,56.7,92.99,242.67,Single-ply,SBD,F
Girls,67.36,8,Teona Brown,Cedar Hill,62.51,102.06,45.36,90.72,238.14,Single-ply,SBD,F
Girls,67.36,9,Jaden Monterrubio,Kyle Lehman,67.31,92.99,56.7,88.45,238.14,Single-ply,SBD,F
Girls,67.36,10,Erica Rodriguez,Kyle Lehman,67.31,97.52,49.9,83.91,231.33,Single-ply,SBD,F
Girls,67.36,11,Grace Westmoreland,Troy,60.42,72.57,40.82,88.45,201.85,Single-ply,SBD,F
Girls,67.36,12,Miranda Chappell,Waxahachie Life,60.69,90.72,24.95,83.91,199.58,Single-ply,SBD,F
Girls,67.36,13,Lindsey Garner,Waxahachie Life,67.31,83.91,40.82,74.84,199.58,Single-ply,SBD,F
Girls,67.36,14,Angelina Burciaga,Godley,64.41,92.99,36.29,68.04,197.31,Single-ply,SBD,F
Girls,67.36,DQ,Avery Green,Italy,60.6,56.7,34.02,,,Single-ply,SBD,F
Girls,75.07,1,Sheila Flores,Hillsboro,71.21,176.9,90.72,106.59,374.21,Single-ply,SBD,F
Girls,75.07,2,Monserrat Serrano,Hillsboro,75.02,131.54,68.04,106.59,306.17,Single-ply,SBD,F
Girls,75.07,3,Annette Castaneda,Hillsboro,71.21,129.27,61.23,111.13,301.64,Single-ply,SBD,F
Girls,75.07,4,Savannah Ramirez,Troy,69.13,97.52,54.43,113.4,265.35,Single-ply,SBD,F
Girls,75.07,5,Lea Wagner,Godley,72.76,102.06,49.9,102.06,254.01,Single-ply,SBD,F
Girls,75.07,6,Nahomi Garcia,Mexia,71.12,113.4,54.43,79.38,247.21,Single-ply,SBD,F
Girls,75.07,7,Anahi Botello,Itasca,68.58,97.52,36.29,97.52,231.33,Single-ply,SBD,F
Girls,75.07,8,Margarita Torres,Troy,70.03,90.72,40.82,99.79,231.33,Single-ply,SBD,F
Girls,75.07,9,Amaya Shanks,Waxahachie Life,71.85,97.52,43.09,88.45,229.06,Single-ply,SBD,F
Girls,75.07,10,Lexie Beaird,Itasca,69.58,83.91,38.56,102.06,224.53,Single-ply,SBD,F
Girls,75.07,11,Shay Spurgin,Whitney,68.22,65.77,43.09,102.06,210.92,Single-ply,SBD,F
Girls,75.07,12,Mica Harvey,Waxahachie Life,71.85,68.04,31.75,68.04,167.83,Single-ply,SBD,F
Girls,75.07,13,Domninique Evans,Dallas Life Oak Cliff,71.85,52.16,31.75,79.38,163.29,Single-ply,SBD,F
Girls,82.33,1,Versonyca Reeves,Mexia,75.48,113.4,74.84,106.59,294.84,Single-ply,SBD,F
Girls,82.33,2,Jayla Banks,Mexia,77.11,120.2,43.09,113.4,276.69,Single-ply,SBD,F
Girls,82.33,3,Chelsi Woods,Hearne,76.29,120.2,43.09,106.59,269.89,Single-ply,SBD,F
Girls,82.33,4,Jaedyn Campos,Kyle Lehman,82.28,111.13,65.77,86.18,263.08,Single-ply,SBD,F
Girls,82.33,5,Jakelin Avila,Troy,77.29,88.45,38.56,111.13,238.14,Single-ply,SBD,F
Girls,82.33,6,Noelia Cruz,Itasca,82.19,83.91,36.29,99.79,219.99,Single-ply,SBD,F
Girls,82.33,7,Summer Settlemeyer,Wortham,80.65,86.18,36.29,90.72,213.19,Single-ply,SBD,F
Girls,82.33,8,Samantha Harrah,Rio Vista,80.2,70.31,38.56,90.72,199.58,Single-ply,SBD,F
Girls,82.33,DQ,Lacie Foster,Godley,79.83,102.06,,,,Single-ply,SBD,F
Girls,90.04,1,Lillian Izquierdo,Hillsboro,83.01,163.29,63.5,147.42,374.21,Single-ply,SBD,F
Girls,90.04,2,Jamie Comer,Mexia,86.55,124.74,68.04,120.2,312.98,Single-ply,SBD,F
Girls,90.04,3,Naeli Torres,Troy,85.46,95.25,52.16,113.4,260.82,Single-ply,SBD,F
Girls,90.04,DQ,Erynn George,Cedar Hill,83.82,120.2,,,,Single-ply,SBD,F
Girls,90.04,DQ,Faith Canady,Cedar Hill,84.91,115.67,,,,Single-ply,SBD,F
Girls,100.02,1,Maggie Conlon,Troy,98.34,199.58,129.27,154.22,483.08,Single-ply,SBD,F
Girls,100.02,2,Tabitha Barksdale,Waxahachie Life,96.07,158.76,77.11,163.29,399.16,Single-ply,SBD,F
Girls,100.02,3,Hope Goodrich,Mexia,91.72,127.01,77.11,122.47,326.59,Single-ply,SBD,F
Girls,100.02,4,Hailey Hambrice,Godley,99.79,111.13,58.97,124.74,294.84,Single-ply,SBD,F
Girls,100.02,5,Addison DeBerry,Godley,93.26,99.79,54.43,113.4,267.62,Single-ply,SBD,F
Girls,100.02,6,Natalie Emmanuel,Dallas Life Oak Cliff,92.35,56.7,31.75,79.38,167.83,Single-ply,SBD,F
Girls,100.02,DQ,Serenity Clegg,Cedar Hill,95.44,117.93,,,,Single-ply,SBD,F
Girls,117.71,1,Dezne Taylor,Alvarado,105.78,147.42,81.65,154.22,383.29,Single-ply,SBD,F
Girls,117.71,2,Jamari Nathan-Woods,Cedar Hill,101.15,142.88,86.18,138.35,367.41,Single-ply,SBD,F
Girls,117.71,3,Brionna Mosley,Dallas Life Oak Cliff,110.31,133.81,68.04,147.42,349.27,Single-ply,SBD,F
Girls,117.71,4,Kayla Harris,Cedar Hill,115.58,133.81,61.23,120.2,315.25,Single-ply,SBD,F
Girls,117.71,5,Amanda Myerholtz,Rio Vista,105.41,108.86,61.23,120.2,290.3,Single-ply,SBD,F
Girls,117.71,6,Bethany Chavarria,Troy,109.68,117.93,52.16,113.4,283.5,Single-ply,SBD,F
Girls,117.71,7,Alicia Banks,Mexia,103.33,113.4,43.09,124.74,281.23,Single-ply,SBD,F
Girls,117.71,8,Adrianne Autrey,Whitney,101.51,102.06,56.7,97.52,256.28,Single-ply,SBD,F
Girls,117.71+,1,Valerie Lee,Alvarado,137.17,167.83,88.45,161.03,417.3,Single-ply,SBD,F
Girls,117.71+,2,Mackenzie Commander,Mexia,129.64,136.08,95.25,142.88,374.21,Single-ply,SBD,F
Girls,117.71+,3,Natalie Carrol,Hearne,134.35,149.69,61.23,151.95,362.87,Single-ply,SBD,F
Girls,,NS,Zion Lewis,Cedar Hill,,,,,,Single-ply,SBD,F
Girls,,NS,Andrea Torres,Itasca,,,,,,Single-ply,SBD,F
Girls,,NS,Anissa Armant,Waxahachie Life,,,,,,Single-ply,SBD,F
Girls,,NS,Nayda Rodriguez,Venus,,,,,,Single-ply,SBD,F
Girls,,NS,Maria Rodriguez,Venus,,,,,,Single-ply,SBD,F
Girls,,NS,Jayla Anthoney,Mexia,,,,,,Single-ply,SBD,F
Girls,,NS,Summer Houpt,Whitney,,,,,,Single-ply,SBD,F
Girls,,NS,Cheyenne Billeau,Whitney,,,,,,Single-ply,SBD,F
Girls,,NS,Emily Wottrich,Whitney,,,,,,Single-ply,SBD,F
Girls,,NS,Yakziry Garcia,Itasca,,,,,,Single-ply,SBD,F
Girls,,NS,Angelina Botello,Itasca,,,,,,Single-ply,SBD,F
Girls,,NS,Sylvia Aparicio,Hearne,,,,,,Single-ply,SBD,F
Girls,,NS,Lydia Torres,Godley,,,,,,Single-ply,SBD,F
